%YAML 1.1
%TAG !u! tag:unity3d.com,2011:
--- !u!74 &7400000
AnimationClip:
  m_ObjectHideFlags: 0
  m_CorrespondingSourceObject: {fileID: 0}
  m_PrefabInstance: {fileID: 0}
  m_PrefabAsset: {fileID: 0}
  m_Name: BuildingSite55_work
  serializedVersion: 6
  m_Legacy: 0
  m_Compressed: 0
  m_UseHighQualityCurve: 1
  m_RotationCurves: []
  m_CompressedRotationCurves: []
  m_EulerCurves: []
  m_PositionCurves: []
  m_ScaleCurves: []
  m_FloatCurves: []
  m_PPtrCurves:
  - curve:
    - time: 0
      value: {fileID: -1466062690379921230, guid: 0df733a86a93892428f1fdf3890b4c42,
        type: 3}
    - time: 0.06666667
      value: {fileID: 8107255579797130293, guid: 0df733a86a93892428f1fdf3890b4c42,
        type: 3}
    - time: 0.13333334
      value: {fileID: -8905386260817145363, guid: 0df733a86a93892428f1fdf3890b4c42,
        type: 3}
    - time: 0.2
      value: {fileID: -4095387972809167881, guid: 0df733a86a93892428f1fdf3890b4c42,
        type: 3}
    - time: 0.26666668
      value: {fileID: -359512387768559781, guid: 0df733a86a93892428f1fdf3890b4c42,
        type: 3}
    - time: 0.33333334
      value: {fileID: 310619623130953237, guid: 0df733a86a93892428f1fdf3890b4c42,
        type: 3}
    - time: 0.4
      value: {fileID: -6386360037212731710, guid: 0df733a86a93892428f1fdf3890b4c42,
        type: 3}
    - time: 0.46666667
      value: {fileID: 5009296537066177377, guid: 0df733a86a93892428f1fdf3890b4c42,
        type: 3}
    - time: 0.8666667
      value: {fileID: 5009296537066177377, guid: 0df733a86a93892428f1fdf3890b4c42,
        type: 3}
    - time: 0.93333334
      value: {fileID: -6386360037212731710, guid: 0df733a86a93892428f1fdf3890b4c42,
        type: 3}
    - time: 1
      value: {fileID: 310619623130953237, guid: 0df733a86a93892428f1fdf3890b4c42,
        type: 3}
    - time: 1.0666667
      value: {fileID: -359512387768559781, guid: 0df733a86a93892428f1fdf3890b4c42,
        type: 3}
    - time: 1.1333333
      value: {fileID: -4095387972809167881, guid: 0df733a86a93892428f1fdf3890b4c42,
        type: 3}
    - time: 1.2
      value: {fileID: -8905386260817145363, guid: 0df733a86a93892428f1fdf3890b4c42,
        type: 3}
    - time: 1.2666667
      value: {fileID: 8107255579797130293, guid: 0df733a86a93892428f1fdf3890b4c42,
        type: 3}
    - time: 1.3333334
      value: {fileID: -1466062690379921230, guid: 0df733a86a93892428f1fdf3890b4c42,
        type: 3}
    - time: 1.6666666
      value: {fileID: -1466062690379921230, guid: 0df733a86a93892428f1fdf3890b4c42,
        type: 3}
    - time: 1.7333333
      value: {fileID: 8107255579797130293, guid: 0df733a86a93892428f1fdf3890b4c42,
        type: 3}
    - time: 1.8
      value: {fileID: -8905386260817145363, guid: 0df733a86a93892428f1fdf3890b4c42,
        type: 3}
    - time: 1.8666667
      value: {fileID: -4095387972809167881, guid: 0df733a86a93892428f1fdf3890b4c42,
        type: 3}
    - time: 1.9333333
      value: {fileID: -359512387768559781, guid: 0df733a86a93892428f1fdf3890b4c42,
        type: 3}
    - time: 2
      value: {fileID: 310619623130953237, guid: 0df733a86a93892428f1fdf3890b4c42,
        type: 3}
    - time: 2.0666666
      value: {fileID: -6386360037212731710, guid: 0df733a86a93892428f1fdf3890b4c42,
        type: 3}
    - time: 2.1333334
      value: {fileID: 5009296537066177377, guid: 0df733a86a93892428f1fdf3890b4c42,
        type: 3}
    - time: 2.5333333
      value: {fileID: 5009296537066177377, guid: 0df733a86a93892428f1fdf3890b4c42,
        type: 3}
    - time: 2.6
      value: {fileID: -6386360037212731710, guid: 0df733a86a93892428f1fdf3890b4c42,
        type: 3}
    - time: 2.6666667
      value: {fileID: 310619623130953237, guid: 0df733a86a93892428f1fdf3890b4c42,
        type: 3}
    - time: 2.7333333
      value: {fileID: -359512387768559781, guid: 0df733a86a93892428f1fdf3890b4c42,
        type: 3}
    - time: 2.8
      value: {fileID: -4095387972809167881, guid: 0df733a86a93892428f1fdf3890b4c42,
        type: 3}
    - time: 2.8666666
      value: {fileID: -8905386260817145363, guid: 0df733a86a93892428f1fdf3890b4c42,
        type: 3}
    - time: 2.9333334
      value: {fileID: 8107255579797130293, guid: 0df733a86a93892428f1fdf3890b4c42,
        type: 3}
    - time: 3
      value: {fileID: -1466062690379921230, guid: 0df733a86a93892428f1fdf3890b4c42,
        type: 3}
    attribute: m_Sprite
    path: CraneAnim
    classID: 212
    script: {fileID: 0}
  - curve:
    - time: 0.4
      value: {fileID: -4122891696422386807, guid: 0df733a86a93892428f1fdf3890b4c42,
        type: 3}
    - time: 0.46666667
      value: {fileID: -6887846823359115162, guid: 0df733a86a93892428f1fdf3890b4c42,
        type: 3}
    - time: 0.53333336
      value: {fileID: -1795930417793901723, guid: 0df733a86a93892428f1fdf3890b4c42,
        type: 3}
    - time: 0.6
      value: {fileID: 4737552555290903552, guid: 0df733a86a93892428f1fdf3890b4c42,
        type: 3}
    - time: 0.6666667
      value: {fileID: 1100991013996421596, guid: 0df733a86a93892428f1fdf3890b4c42,
        type: 3}
    - time: 0.73333335
      value: {fileID: 428397522847123235, guid: 0df733a86a93892428f1fdf3890b4c42,
        type: 3}
    - time: 0.8
      value: {fileID: -9128720592008235845, guid: 0df733a86a93892428f1fdf3890b4c42,
        type: 3}
    - time: 0.8666667
      value: {fileID: -7870832747866588974, guid: 0df733a86a93892428f1fdf3890b4c42,
        type: 3}
    - time: 1.2
      value: {fileID: -7870832747866588974, guid: 0df733a86a93892428f1fdf3890b4c42,
        type: 3}
    - time: 1.2666667
      value: {fileID: -9128720592008235845, guid: 0df733a86a93892428f1fdf3890b4c42,
        type: 3}
    - time: 1.3333334
      value: {fileID: 428397522847123235, guid: 0df733a86a93892428f1fdf3890b4c42,
        type: 3}
    - time: 1.4
      value: {fileID: 1100991013996421596, guid: 0df733a86a93892428f1fdf3890b4c42,
        type: 3}
    - time: 1.4666667
      value: {fileID: 4737552555290903552, guid: 0df733a86a93892428f1fdf3890b4c42,
        type: 3}
    - time: 1.5333333
      value: {fileID: -1795930417793901723, guid: 0df733a86a93892428f1fdf3890b4c42,
        type: 3}
    - time: 1.6
      value: {fileID: -6887846823359115162, guid: 0df733a86a93892428f1fdf3890b4c42,
        type: 3}
    - time: 1.6666666
      value: {fileID: -4122891696422386807, guid: 0df733a86a93892428f1fdf3890b4c42,
        type: 3}
    - time: 2.0666666
      value: {fileID: -4122891696422386807, guid: 0df733a86a93892428f1fdf3890b4c42,
        type: 3}
    - time: 2.1333334
      value: {fileID: -6887846823359115162, guid: 0df733a86a93892428f1fdf3890b4c42,
        type: 3}
    - time: 2.2
      value: {fileID: -1795930417793901723, guid: 0df733a86a93892428f1fdf3890b4c42,
        type: 3}
    - time: 2.2666667
      value: {fileID: 4737552555290903552, guid: 0df733a86a93892428f1fdf3890b4c42,
        type: 3}
    - time: 2.3333333
      value: {fileID: 1100991013996421596, guid: 0df733a86a93892428f1fdf3890b4c42,
        type: 3}
    - time: 2.4
      value: {fileID: 428397522847123235, guid: 0df733a86a93892428f1fdf3890b4c42,
        type: 3}
    - time: 2.4666667
      value: {fileID: -9128720592008235845, guid: 0df733a86a93892428f1fdf3890b4c42,
        type: 3}
    - time: 2.5333333
      value: {fileID: -7870832747866588974, guid: 0df733a86a93892428f1fdf3890b4c42,
        type: 3}
    - time: 2.9333334
      value: {fileID: -7870832747866588974, guid: 0df733a86a93892428f1fdf3890b4c42,
        type: 3}
    - time: 3
      value: {fileID: -9128720592008235845, guid: 0df733a86a93892428f1fdf3890b4c42,
        type: 3}
    - time: 3.0666666
      value: {fileID: 428397522847123235, guid: 0df733a86a93892428f1fdf3890b4c42,
        type: 3}
    - time: 3.1333334
      value: {fileID: 1100991013996421596, guid: 0df733a86a93892428f1fdf3890b4c42,
        type: 3}
    - time: 3.2
      value: {fileID: 4737552555290903552, guid: 0df733a86a93892428f1fdf3890b4c42,
        type: 3}
    - time: 3.2666667
      value: {fileID: -1795930417793901723, guid: 0df733a86a93892428f1fdf3890b4c42,
        type: 3}
    - time: 3.3333333
      value: {fileID: -6887846823359115162, guid: 0df733a86a93892428f1fdf3890b4c42,
        type: 3}
    - time: 3.4
      value: {fileID: -4122891696422386807, guid: 0df733a86a93892428f1fdf3890b4c42,
        type: 3}
    attribute: m_Sprite
    path: CraneRAnim
    classID: 212
    script: {fileID: 0}
  - curve:
    - time: 0.6
      value: {fileID: -8809534975786979756, guid: 0df733a86a93892428f1fdf3890b4c42,
        type: 3}
    - time: 0.6666667
      value: {fileID: -5175456123355193731, guid: 0df733a86a93892428f1fdf3890b4c42,
        type: 3}
    - time: 0.73333335
      value: {fileID: 8161439070931232283, guid: 0df733a86a93892428f1fdf3890b4c42,
        type: 3}
    - time: 0.8
      value: {fileID: -1638510714096841601, guid: 0df733a86a93892428f1fdf3890b4c42,
        type: 3}
    - time: 0.8666667
      value: {fileID: -5864724043791285365, guid: 0df733a86a93892428f1fdf3890b4c42,
        type: 3}
    - time: 0.93333334
      value: {fileID: -5490073513322634013, guid: 0df733a86a93892428f1fdf3890b4c42,
        type: 3}
    - time: 1
      value: {fileID: 2860817359701673059, guid: 0df733a86a93892428f1fdf3890b4c42,
        type: 3}
    - time: 1.0666667
      value: {fileID: 8495410147450186297, guid: 0df733a86a93892428f1fdf3890b4c42,
        type: 3}
    - time: 1.1333333
      value: {fileID: -4050037305102556008, guid: 0df733a86a93892428f1fdf3890b4c42,
        type: 3}
    - time: 1.2
      value: {fileID: 1639604275315567338, guid: 0df733a86a93892428f1fdf3890b4c42,
        type: 3}
    - time: 1.2666667
      value: {fileID: -1821099607071587661, guid: 0df733a86a93892428f1fdf3890b4c42,
        type: 3}
    - time: 1.3333334
      value: {fileID: 4683916262501440642, guid: 0df733a86a93892428f1fdf3890b4c42,
        type: 3}
    - time: 1.4
      value: {fileID: 8138432616558888432, guid: 0df733a86a93892428f1fdf3890b4c42,
        type: 3}
    - time: 1.4666667
      value: {fileID: 81301084218164459, guid: 0df733a86a93892428f1fdf3890b4c42, type: 3}
    - time: 1.5333333
      value: {fileID: -4472675477007354744, guid: 0df733a86a93892428f1fdf3890b4c42,
        type: 3}
    - time: 2.4666667
      value: {fileID: -4472675477007354744, guid: 0df733a86a93892428f1fdf3890b4c42,
        type: 3}
    - time: 2.5333333
      value: {fileID: 81301084218164459, guid: 0df733a86a93892428f1fdf3890b4c42, type: 3}
    - time: 2.6
      value: {fileID: 8138432616558888432, guid: 0df733a86a93892428f1fdf3890b4c42,
        type: 3}
    - time: 2.6666667
      value: {fileID: 4683916262501440642, guid: 0df733a86a93892428f1fdf3890b4c42,
        type: 3}
    - time: 2.7333333
      value: {fileID: -1821099607071587661, guid: 0df733a86a93892428f1fdf3890b4c42,
        type: 3}
    - time: 2.8
      value: {fileID: 1639604275315567338, guid: 0df733a86a93892428f1fdf3890b4c42,
        type: 3}
    - time: 2.8666666
      value: {fileID: -4050037305102556008, guid: 0df733a86a93892428f1fdf3890b4c42,
        type: 3}
    - time: 2.9333334
      value: {fileID: 8495410147450186297, guid: 0df733a86a93892428f1fdf3890b4c42,
        type: 3}
    - time: 3
      value: {fileID: 2860817359701673059, guid: 0df733a86a93892428f1fdf3890b4c42,
        type: 3}
    - time: 3.0666666
      value: {fileID: -5490073513322634013, guid: 0df733a86a93892428f1fdf3890b4c42,
        type: 3}
    - time: 3.1333334
      value: {fileID: -5864724043791285365, guid: 0df733a86a93892428f1fdf3890b4c42,
        type: 3}
    - time: 3.2
      value: {fileID: -1638510714096841601, guid: 0df733a86a93892428f1fdf3890b4c42,
        type: 3}
    - time: 3.2666667
      value: {fileID: 8161439070931232283, guid: 0df733a86a93892428f1fdf3890b4c42,
        type: 3}
    - time: 3.3333333
      value: {fileID: -5175456123355193731, guid: 0df733a86a93892428f1fdf3890b4c42,
        type: 3}
    - time: 3.4
      value: {fileID: -8809534975786979756, guid: 0df733a86a93892428f1fdf3890b4c42,
        type: 3}
    attribute: m_Sprite
    path: ExcavatorAnim
    classID: 212
    script: {fileID: 0}
  - curve:
    - time: 0
      value: {fileID: -3243261559619162004, guid: 0df733a86a93892428f1fdf3890b4c42,
        type: 3}
    - time: 0.06666667
      value: {fileID: -1665839607850883842, guid: 0df733a86a93892428f1fdf3890b4c42,
        type: 3}
    - time: 0.13333334
      value: {fileID: -5540597526587203064, guid: 0df733a86a93892428f1fdf3890b4c42,
        type: 3}
    - time: 0.2
      value: {fileID: 841663520039207000, guid: 0df733a86a93892428f1fdf3890b4c42,
        type: 3}
    - time: 0.26666668
      value: {fileID: -2190554595566563888, guid: 0df733a86a93892428f1fdf3890b4c42,
        type: 3}
    - time: 0.33333334
      value: {fileID: -5036049100225167850, guid: 0df733a86a93892428f1fdf3890b4c42,
        type: 3}
    - time: 1.2
      value: {fileID: -5036049100225167850, guid: 0df733a86a93892428f1fdf3890b4c42,
        type: 3}
    - time: 1.2666667
      value: {fileID: -2190554595566563888, guid: 0df733a86a93892428f1fdf3890b4c42,
        type: 3}
    - time: 1.3333334
      value: {fileID: 841663520039207000, guid: 0df733a86a93892428f1fdf3890b4c42,
        type: 3}
    - time: 1.4
      value: {fileID: -5540597526587203064, guid: 0df733a86a93892428f1fdf3890b4c42,
        type: 3}
    - time: 1.4666667
      value: {fileID: -1665839607850883842, guid: 0df733a86a93892428f1fdf3890b4c42,
        type: 3}
    - time: 1.5333333
      value: {fileID: -3243261559619162004, guid: 0df733a86a93892428f1fdf3890b4c42,
        type: 3}
    - time: 1.6
      value: {fileID: 33509475891579290, guid: 0df733a86a93892428f1fdf3890b4c42, type: 3}
    - time: 1.6666666
      value: {fileID: 3536025700212158151, guid: 0df733a86a93892428f1fdf3890b4c42,
        type: 3}
    - time: 1.7333333
      value: {fileID: -1348179861212609784, guid: 0df733a86a93892428f1fdf3890b4c42,
        type: 3}
    - time: 1.8
      value: {fileID: -5065528842977041000, guid: 0df733a86a93892428f1fdf3890b4c42,
        type: 3}
    - time: 1.8666667
      value: {fileID: -8635094571033796739, guid: 0df733a86a93892428f1fdf3890b4c42,
        type: 3}
    - time: 1.9333333
      value: {fileID: -5763848739535899708, guid: 0df733a86a93892428f1fdf3890b4c42,
        type: 3}
    - time: 2.8
      value: {fileID: -5763848739535899708, guid: 0df733a86a93892428f1fdf3890b4c42,
        type: 3}
    - time: 2.8666666
      value: {fileID: -8635094571033796739, guid: 0df733a86a93892428f1fdf3890b4c42,
        type: 3}
    - time: 2.9333334
      value: {fileID: -5065528842977041000, guid: 0df733a86a93892428f1fdf3890b4c42,
        type: 3}
    - time: 3
      value: {fileID: -1348179861212609784, guid: 0df733a86a93892428f1fdf3890b4c42,
        type: 3}
    - time: 3.0666666
      value: {fileID: 3536025700212158151, guid: 0df733a86a93892428f1fdf3890b4c42,
        type: 3}
    - time: 3.1333334
      value: {fileID: 33509475891579290, guid: 0df733a86a93892428f1fdf3890b4c42, type: 3}
    attribute: m_Sprite
    path: ExcavatorSmallAnim
    classID: 212
    script: {fileID: 0}
  m_SampleRate: 15
  m_WrapMode: 0
  m_Bounds:
    m_Center: {x: 0, y: 0, z: 0}
    m_Extent: {x: 0, y: 0, z: 0}
  m_ClipBindingConstant:
    genericBindings:
    - serializedVersion: 2
      path: 1196652734
      attribute: 0
      script: {fileID: 0}
      typeID: 212
      customType: 23
      isPPtrCurve: 1
    - serializedVersion: 2
      path: 1940766240
      attribute: 0
      script: {fileID: 0}
      typeID: 212
      customType: 23
      isPPtrCurve: 1
    - serializedVersion: 2
      path: 1630664796
      attribute: 0
      script: {fileID: 0}
      typeID: 212
      customType: 23
      isPPtrCurve: 1
    - serializedVersion: 2
      path: 1867071549
      attribute: 0
      script: {fileID: 0}
      typeID: 212
      customType: 23
      isPPtrCurve: 1
    pptrCurveMapping:
    - {fileID: -1466062690379921230, guid: 0df733a86a93892428f1fdf3890b4c42, type: 3}
    - {fileID: 8107255579797130293, guid: 0df733a86a93892428f1fdf3890b4c42, type: 3}
    - {fileID: -8905386260817145363, guid: 0df733a86a93892428f1fdf3890b4c42, type: 3}
    - {fileID: -4095387972809167881, guid: 0df733a86a93892428f1fdf3890b4c42, type: 3}
    - {fileID: -359512387768559781, guid: 0df733a86a93892428f1fdf3890b4c42, type: 3}
    - {fileID: 310619623130953237, guid: 0df733a86a93892428f1fdf3890b4c42, type: 3}
    - {fileID: -6386360037212731710, guid: 0df733a86a93892428f1fdf3890b4c42, type: 3}
    - {fileID: 5009296537066177377, guid: 0df733a86a93892428f1fdf3890b4c42, type: 3}
    - {fileID: 5009296537066177377, guid: 0df733a86a93892428f1fdf3890b4c42, type: 3}
    - {fileID: -6386360037212731710, guid: 0df733a86a93892428f1fdf3890b4c42, type: 3}
    - {fileID: 310619623130953237, guid: 0df733a86a93892428f1fdf3890b4c42, type: 3}
    - {fileID: -359512387768559781, guid: 0df733a86a93892428f1fdf3890b4c42, type: 3}
    - {fileID: -4095387972809167881, guid: 0df733a86a93892428f1fdf3890b4c42, type: 3}
    - {fileID: -8905386260817145363, guid: 0df733a86a93892428f1fdf3890b4c42, type: 3}
    - {fileID: 8107255579797130293, guid: 0df733a86a93892428f1fdf3890b4c42, type: 3}
    - {fileID: -1466062690379921230, guid: 0df733a86a93892428f1fdf3890b4c42, type: 3}
    - {fileID: -1466062690379921230, guid: 0df733a86a93892428f1fdf3890b4c42, type: 3}
    - {fileID: 8107255579797130293, guid: 0df733a86a93892428f1fdf3890b4c42, type: 3}
    - {fileID: -8905386260817145363, guid: 0df733a86a93892428f1fdf3890b4c42, type: 3}
    - {fileID: -4095387972809167881, guid: 0df733a86a93892428f1fdf3890b4c42, type: 3}
    - {fileID: -359512387768559781, guid: 0df733a86a93892428f1fdf3890b4c42, type: 3}
    - {fileID: 310619623130953237, guid: 0df733a86a93892428f1fdf3890b4c42, type: 3}
    - {fileID: -6386360037212731710, guid: 0df733a86a93892428f1fdf3890b4c42, type: 3}
    - {fileID: 5009296537066177377, guid: 0df733a86a93892428f1fdf3890b4c42, type: 3}
    - {fileID: 5009296537066177377, guid: 0df733a86a93892428f1fdf3890b4c42, type: 3}
    - {fileID: -6386360037212731710, guid: 0df733a86a93892428f1fdf3890b4c42, type: 3}
    - {fileID: 310619623130953237, guid: 0df733a86a93892428f1fdf3890b4c42, type: 3}
    - {fileID: -359512387768559781, guid: 0df733a86a93892428f1fdf3890b4c42, type: 3}
    - {fileID: -4095387972809167881, guid: 0df733a86a93892428f1fdf3890b4c42, type: 3}
    - {fileID: -8905386260817145363, guid: 0df733a86a93892428f1fdf3890b4c42, type: 3}
    - {fileID: 8107255579797130293, guid: 0df733a86a93892428f1fdf3890b4c42, type: 3}
    - {fileID: -1466062690379921230, guid: 0df733a86a93892428f1fdf3890b4c42, type: 3}
    - {fileID: -4122891696422386807, guid: 0df733a86a93892428f1fdf3890b4c42, type: 3}
    - {fileID: -6887846823359115162, guid: 0df733a86a93892428f1fdf3890b4c42, type: 3}
    - {fileID: -1795930417793901723, guid: 0df733a86a93892428f1fdf3890b4c42, type: 3}
    - {fileID: 4737552555290903552, guid: 0df733a86a93892428f1fdf3890b4c42, type: 3}
    - {fileID: 1100991013996421596, guid: 0df733a86a93892428f1fdf3890b4c42, type: 3}
    - {fileID: 428397522847123235, guid: 0df733a86a93892428f1fdf3890b4c42, type: 3}
    - {fileID: -9128720592008235845, guid: 0df733a86a93892428f1fdf3890b4c42, type: 3}
    - {fileID: -7870832747866588974, guid: 0df733a86a93892428f1fdf3890b4c42, type: 3}
    - {fileID: -7870832747866588974, guid: 0df733a86a93892428f1fdf3890b4c42, type: 3}
    - {fileID: -9128720592008235845, guid: 0df733a86a93892428f1fdf3890b4c42, type: 3}
    - {fileID: 428397522847123235, guid: 0df733a86a93892428f1fdf3890b4c42, type: 3}
    - {fileID: 1100991013996421596, guid: 0df733a86a93892428f1fdf3890b4c42, type: 3}
    - {fileID: 4737552555290903552, guid: 0df733a86a93892428f1fdf3890b4c42, type: 3}
    - {fileID: -1795930417793901723, guid: 0df733a86a93892428f1fdf3890b4c42, type: 3}
    - {fileID: -6887846823359115162, guid: 0df733a86a93892428f1fdf3890b4c42, type: 3}
    - {fileID: -4122891696422386807, guid: 0df733a86a93892428f1fdf3890b4c42, type: 3}
    - {fileID: -4122891696422386807, guid: 0df733a86a93892428f1fdf3890b4c42, type: 3}
    - {fileID: -6887846823359115162, guid: 0df733a86a93892428f1fdf3890b4c42, type: 3}
    - {fileID: -1795930417793901723, guid: 0df733a86a93892428f1fdf3890b4c42, type: 3}
    - {fileID: 4737552555290903552, guid: 0df733a86a93892428f1fdf3890b4c42, type: 3}
    - {fileID: 1100991013996421596, guid: 0df733a86a93892428f1fdf3890b4c42, type: 3}
    - {fileID: 428397522847123235, guid: 0df733a86a93892428f1fdf3890b4c42, type: 3}
    - {fileID: -9128720592008235845, guid: 0df733a86a93892428f1fdf3890b4c42, type: 3}
    - {fileID: -7870832747866588974, guid: 0df733a86a93892428f1fdf3890b4c42, type: 3}
    - {fileID: -7870832747866588974, guid: 0df733a86a93892428f1fdf3890b4c42, type: 3}
    - {fileID: -9128720592008235845, guid: 0df733a86a93892428f1fdf3890b4c42, type: 3}
    - {fileID: 428397522847123235, guid: 0df733a86a93892428f1fdf3890b4c42, type: 3}
    - {fileID: 1100991013996421596, guid: 0df733a86a93892428f1fdf3890b4c42, type: 3}
    - {fileID: 4737552555290903552, guid: 0df733a86a93892428f1fdf3890b4c42, type: 3}
    - {fileID: -1795930417793901723, guid: 0df733a86a93892428f1fdf3890b4c42, type: 3}
    - {fileID: -6887846823359115162, guid: 0df733a86a93892428f1fdf3890b4c42, type: 3}
    - {fileID: -4122891696422386807, guid: 0df733a86a93892428f1fdf3890b4c42, type: 3}
    - {fileID: -8809534975786979756, guid: 0df733a86a93892428f1fdf3890b4c42, type: 3}
    - {fileID: -5175456123355193731, guid: 0df733a86a93892428f1fdf3890b4c42, type: 3}
    - {fileID: 8161439070931232283, guid: 0df733a86a93892428f1fdf3890b4c42, type: 3}
    - {fileID: -1638510714096841601, guid: 0df733a86a93892428f1fdf3890b4c42, type: 3}
    - {fileID: -5864724043791285365, guid: 0df733a86a93892428f1fdf3890b4c42, type: 3}
    - {fileID: -5490073513322634013, guid: 0df733a86a93892428f1fdf3890b4c42, type: 3}
    - {fileID: 2860817359701673059, guid: 0df733a86a93892428f1fdf3890b4c42, type: 3}
    - {fileID: 8495410147450186297, guid: 0df733a86a93892428f1fdf3890b4c42, type: 3}
    - {fileID: -4050037305102556008, guid: 0df733a86a93892428f1fdf3890b4c42, type: 3}
    - {fileID: 1639604275315567338, guid: 0df733a86a93892428f1fdf3890b4c42, type: 3}
    - {fileID: -1821099607071587661, guid: 0df733a86a93892428f1fdf3890b4c42, type: 3}
    - {fileID: 4683916262501440642, guid: 0df733a86a93892428f1fdf3890b4c42, type: 3}
    - {fileID: 8138432616558888432, guid: 0df733a86a93892428f1fdf3890b4c42, type: 3}
    - {fileID: 81301084218164459, guid: 0df733a86a93892428f1fdf3890b4c42, type: 3}
    - {fileID: -4472675477007354744, guid: 0df733a86a93892428f1fdf3890b4c42, type: 3}
    - {fileID: -4472675477007354744, guid: 0df733a86a93892428f1fdf3890b4c42, type: 3}
    - {fileID: 81301084218164459, guid: 0df733a86a93892428f1fdf3890b4c42, type: 3}
    - {fileID: 8138432616558888432, guid: 0df733a86a93892428f1fdf3890b4c42, type: 3}
    - {fileID: 4683916262501440642, guid: 0df733a86a93892428f1fdf3890b4c42, type: 3}
    - {fileID: -1821099607071587661, guid: 0df733a86a93892428f1fdf3890b4c42, type: 3}
    - {fileID: 1639604275315567338, guid: 0df733a86a93892428f1fdf3890b4c42, type: 3}
    - {fileID: -4050037305102556008, guid: 0df733a86a93892428f1fdf3890b4c42, type: 3}
    - {fileID: 8495410147450186297, guid: 0df733a86a93892428f1fdf3890b4c42, type: 3}
    - {fileID: 2860817359701673059, guid: 0df733a86a93892428f1fdf3890b4c42, type: 3}
    - {fileID: -5490073513322634013, guid: 0df733a86a93892428f1fdf3890b4c42, type: 3}
    - {fileID: -5864724043791285365, guid: 0df733a86a93892428f1fdf3890b4c42, type: 3}
    - {fileID: -1638510714096841601, guid: 0df733a86a93892428f1fdf3890b4c42, type: 3}
    - {fileID: 8161439070931232283, guid: 0df733a86a93892428f1fdf3890b4c42, type: 3}
    - {fileID: -5175456123355193731, guid: 0df733a86a93892428f1fdf3890b4c42, type: 3}
    - {fileID: -8809534975786979756, guid: 0df733a86a93892428f1fdf3890b4c42, type: 3}
    - {fileID: -3243261559619162004, guid: 0df733a86a93892428f1fdf3890b4c42, type: 3}
    - {fileID: -1665839607850883842, guid: 0df733a86a93892428f1fdf3890b4c42, type: 3}
    - {fileID: -5540597526587203064, guid: 0df733a86a93892428f1fdf3890b4c42, type: 3}
    - {fileID: 841663520039207000, guid: 0df733a86a93892428f1fdf3890b4c42, type: 3}
    - {fileID: -2190554595566563888, guid: 0df733a86a93892428f1fdf3890b4c42, type: 3}
    - {fileID: -5036049100225167850, guid: 0df733a86a93892428f1fdf3890b4c42, type: 3}
    - {fileID: -5036049100225167850, guid: 0df733a86a93892428f1fdf3890b4c42, type: 3}
    - {fileID: -2190554595566563888, guid: 0df733a86a93892428f1fdf3890b4c42, type: 3}
    - {fileID: 841663520039207000, guid: 0df733a86a93892428f1fdf3890b4c42, type: 3}
    - {fileID: -5540597526587203064, guid: 0df733a86a93892428f1fdf3890b4c42, type: 3}
    - {fileID: -1665839607850883842, guid: 0df733a86a93892428f1fdf3890b4c42, type: 3}
    - {fileID: -3243261559619162004, guid: 0df733a86a93892428f1fdf3890b4c42, type: 3}
    - {fileID: 33509475891579290, guid: 0df733a86a93892428f1fdf3890b4c42, type: 3}
    - {fileID: 3536025700212158151, guid: 0df733a86a93892428f1fdf3890b4c42, type: 3}
    - {fileID: -1348179861212609784, guid: 0df733a86a93892428f1fdf3890b4c42, type: 3}
    - {fileID: -5065528842977041000, guid: 0df733a86a93892428f1fdf3890b4c42, type: 3}
    - {fileID: -8635094571033796739, guid: 0df733a86a93892428f1fdf3890b4c42, type: 3}
    - {fileID: -5763848739535899708, guid: 0df733a86a93892428f1fdf3890b4c42, type: 3}
    - {fileID: -5763848739535899708, guid: 0df733a86a93892428f1fdf3890b4c42, type: 3}
    - {fileID: -8635094571033796739, guid: 0df733a86a93892428f1fdf3890b4c42, type: 3}
    - {fileID: -5065528842977041000, guid: 0df733a86a93892428f1fdf3890b4c42, type: 3}
    - {fileID: -1348179861212609784, guid: 0df733a86a93892428f1fdf3890b4c42, type: 3}
    - {fileID: 3536025700212158151, guid: 0df733a86a93892428f1fdf3890b4c42, type: 3}
    - {fileID: 33509475891579290, guid: 0df733a86a93892428f1fdf3890b4c42, type: 3}
  m_AnimationClipSettings:
    serializedVersion: 2
    m_AdditiveReferencePoseClip: {fileID: 0}
    m_AdditiveReferencePoseTime: 0
    m_StartTime: 0
    m_StopTime: 3.4666667
    m_OrientationOffsetY: 0
    m_Level: 0
    m_CycleOffset: 0
    m_HasAdditiveReferencePose: 0
    m_LoopTime: 1
    m_LoopBlend: 0
    m_LoopBlendOrientation: 0
    m_LoopBlendPositionY: 0
    m_LoopBlendPositionXZ: 0
    m_KeepOriginalOrientation: 0
    m_KeepOriginalPositionY: 1
    m_KeepOriginalPositionXZ: 0
    m_HeightFromFeet: 0
    m_Mirror: 0
  m_EditorCurves: []
  m_EulerEditorCurves: []
  m_HasGenericRootTransform: 0
  m_HasMotionFloatCurves: 0
  m_Events: []
