%YAML 1.1
%TAG !u! tag:unity3d.com,2011:
--- !u!221 &22100000
AnimatorOverrideController:
  m_ObjectHideFlags: 0
  m_CorrespondingSourceObject: {fileID: 0}
  m_PrefabInstance: {fileID: 0}
  m_PrefabAsset: {fileID: 0}
  m_Name: 120_FlourMill
  m_Controller: {fileID: 9100000, guid: 2d8f4738d2569f349823e1c9a4249273, type: 2}
  m_Clips:
  - m_OriginalClip: {fileID: 7400000, guid: 23682fa9710a19248a2b2d883cdfbc2e, type: 2}
    m_OverrideClip: {fileID: 7400000, guid: 34f8282501745204ebc08329f57dd6b2, type: 2}
  - m_OriginalClip: {fileID: 7400000, guid: e46a574ca3a5658418c138255f01a923, type: 2}
    m_OverrideClip: {fileID: 7400000, guid: d2df041e7c329e64c85c26fb7bf6973d, type: 2}
  - m_OriginalClip: {fileID: 7400000, guid: 5f37adde95dda8342a649688cd450054, type: 2}
    m_OverrideClip: {fileID: 7400000, guid: bcd9ff2700d02bd429601f71a4004def, type: 2}
