%YAML 1.1
%TAG !u! tag:unity3d.com,2011:
--- !u!221 &22100000
AnimatorOverrideController:
  m_ObjectHideFlags: 0
  m_CorrespondingSourceObject: {fileID: 0}
  m_PrefabInstance: {fileID: 0}
  m_PrefabAsset: {fileID: 0}
  m_Name: EventTowerCongrats
  m_Controller: {fileID: 9100000, guid: 9a083e7ca5572074bad2ccb2a66b0b21, type: 2}
  m_Clips:
  - m_OriginalClip: {fileID: 7400000, guid: da6cf3ab8ebcf054c94d048f0c761259, type: 2}
    m_OverrideClip: {fileID: 7400000, guid: da6cf3ab8ebcf054c94d048f0c761259, type: 2}
  - m_OriginalClip: {fileID: 7400000, guid: 798ed59ab8cbec3488c0a8706c149c35, type: 2}
    m_OverrideClip: {fileID: 7400000, guid: 0639a27dfe8df6147a872a945f748d0f, type: 2}
  - m_OriginalClip: {fileID: 7400000, guid: 43952768b8b8a304fbf5446f39f65f8e, type: 2}
    m_OverrideClip: {fileID: 7400000, guid: 43952768b8b8a304fbf5446f39f65f8e, type: 2}
