%YAML 1.1
%TAG !u! tag:unity3d.com,2011:
--- !u!21 &2100000
Material:
  serializedVersion: 6
  m_ObjectHideFlags: 0
  m_CorrespondingSourceObject: {fileID: 0}
  m_PrefabInstance: {fileID: 0}
  m_PrefabAsset: {fileID: 0}
  m_Name: RALEWAY-BLACK SDF CasinoJackpotItem
  m_Shader: {fileID: 4800000, guid: fe393ace9b354375a9cb14cdbbc28be4, type: 3}
  m_ShaderKeywords: OUTLINE_ON UNDERLAY_ON
  m_LightmapFlags: 4
  m_EnableInstancingVariants: 0
  m_DoubleSidedGI: 0
  m_CustomRenderQueue: -1
  stringTagMap: {}
  disabledShaderPasses: []
  m_SavedProperties:
    serializedVersion: 3
    m_TexEnvs:
    - _FaceTex:
        m_Texture: {fileID: 0}
        m_Scale: {x: 1, y: 1}
        m_Offset: {x: 0, y: 0}
    - _MainTex:
        m_Texture: {fileID: 28023259607100858, guid: fa0219c6dd29dda40afb7ebe02b4acf8,
          type: 2}
        m_Scale: {x: 1, y: 1}
        m_Offset: {x: 0, y: 0}
    - _MaskTex:
        m_Texture: {fileID: 0}
        m_Scale: {x: 1, y: 1}
        m_Offset: {x: 0, y: 0}
    - _OutlineTex:
        m_Texture: {fileID: 0}
        m_Scale: {x: 1, y: 1}
        m_Offset: {x: 0, y: 0}
    m_Floats:
    - _ColorMask: 15
    - _DiffusePower: 1
    - _FaceDilate: 0
    - _GlowInner: 0.08
    - _GlowOffset: 0.546
    - _GlowOuter: 0.647
    - _GlowPower: 1
    - _GradientScale: 5
    - _MaskEdgeSoftness: 0.01
    - _MaskInverse: 0
    - _MaskSoftnessX: 0
    - _MaskSoftnessY: 0
    - _MaskWipeControl: 0.5
    - _OutlineSoftness: 0
    - _OutlineWidth: 0.206
    - _PerspectiveFilter: 0.875
    - _ScaleRatioA: 0.8
    - _ScaleRatioB: 0.58675605
    - _ScaleRatioC: 0.65
    - _ScaleX: 1
    - _ScaleY: 1
    - _ShaderFlags: 0
    - _Sharpness: 0
    - _Stencil: 0
    - _StencilComp: 8
    - _StencilOp: 0
    - _StencilReadMask: 255
    - _StencilWriteMask: 255
    - _TextureHeight: 512
    - _TextureWidth: 512
    - _UnderlayDilate: -0.143
    - _UnderlayOffsetX: 0
    - _UnderlayOffsetY: 1
    - _UnderlaySoftness: 0
    - _VertexOffsetX: 0
    - _VertexOffsetY: 0
    - _WeightBold: 0.75
    - _WeightNormal: 0
    m_Colors:
    - _ClipRect: {r: -32767, g: -32767, b: 32767, a: 32767}
    - _Color: {r: 1, g: 1, b: 1, a: 1}
    - _FaceColor: {r: 1, g: 1, b: 1, a: 1}
    - _GlowColor: {r: 0.8980393, g: 0.93725497, b: 0.67058825, a: 1}
    - _MaskEdgeColor: {r: 1, g: 1, b: 1, a: 1}
    - _OutlineColor: {r: 0.045957744, g: 0.051470578, b: 0.03027681, a: 1}
    - _UnderlayColor: {r: 0.4117647, g: 0.52156866, b: 0.09803922, a: 1}
  m_BuildTextureStacks: []
