%YAML 1.1
%TAG !u! tag:unity3d.com,2011:
--- !u!114 &11400000
MonoBehaviour:
  m_ObjectHideFlags: 0
  m_CorrespondingSourceObject: {fileID: 0}
  m_PrefabInstance: {fileID: 0}
  m_PrefabAsset: {fileID: 0}
  m_GameObject: {fileID: 0}
  m_Enabled: 1
  m_EditorHideFlags: 0
  m_Script: {fileID: 11500000, guid: e875271f684c9cb42a10960236f4b6d1, type: 3}
  m_Name: ProductionComplete
  m_EditorClassIdentifier: 
  serializationData:
    SerializedFormat: 2
    SerializedBytes: 
    ReferencedUnityObjects: []
    SerializedBytesString: 
    Prefab: {fileID: 0}
    PrefabModificationsReferencedUnityObjects: []
    PrefabModifications: []
    SerializationNodes: []
  _identifier: ProductionComplete
  _title: PRODUCTION_READY_TITLE
  subTitles:
  - PRODUCTION_READY_DESCRIPTION_1
  - PRODUCTION_READY_DESCRIPTION_2
  - PRODUCTION_READY_DESCRIPTION_3
  _repeat: 0
