%YAML 1.1
%TAG !u! tag:unity3d.com,2011:
--- !u!114 &11400000
MonoBehaviour:
  m_ObjectHideFlags: 0
  m_CorrespondingSourceObject: {fileID: 0}
  m_PrefabInstance: {fileID: 0}
  m_PrefabAsset: {fileID: 0}
  m_GameObject: {fileID: 0}
  m_Enabled: 1
  m_EditorHideFlags: 0
  m_Script: {fileID: 11500000, guid: 52a9b5188a7140f6bba52e7be0f1e4c4, type: 3}
  m_Name: 106_SugarMill
  m_EditorClassIdentifier: 
  _buildingId: 106
  _viewsList:
  - _level: 0
    _view: {fileID: 11460672, guid: 255b729674136674ca0a65f353804bb9, type: 3}
    _sprite: {fileID: 21300000, guid: b007941eb98ea8747b5fc85e23577f76, type: 3}
  - _level: 2
    _view: {fileID: 11460672, guid: 255b729674136674ca0a65f353804bb9, type: 3}
    _sprite: {fileID: 21300000, guid: b007941eb98ea8747b5fc85e23577f76, type: 3}
  - _level: 1
    _view: {fileID: 11460672, guid: 255b729674136674ca0a65f353804bb9, type: 3}
    _sprite: {fileID: 21300000, guid: b007941eb98ea8747b5fc85e23577f76, type: 3}
