%YAML 1.1
%TAG !u! tag:unity3d.com,2011:
--- !u!114 &11400000
MonoBehaviour:
  m_ObjectHideFlags: 0
  m_CorrespondingSourceObject: {fileID: 0}
  m_PrefabInstance: {fileID: 0}
  m_PrefabAsset: {fileID: 0}
  m_GameObject: {fileID: 0}
  m_Enabled: 1
  m_EditorHideFlags: 0
  m_Script: {fileID: 11500000, guid: 52a9b5188a7140f6bba52e7be0f1e4c4, type: 3}
  m_Name: 117_Dairy
  m_EditorClassIdentifier: 
  _buildingId: 117
  _viewsList:
  - _level: 0
    _view: {fileID: 11405384, guid: 6e745543298b6894cacb6e048d3caa5e, type: 3}
    _sprite: {fileID: 21300000, guid: ebbb78f7d277d7544a7f9553c2e17c8b, type: 3}
  - _level: 1
    _view: {fileID: 11405384, guid: 6e745543298b6894cacb6e048d3caa5e, type: 3}
    _sprite: {fileID: 21300000, guid: ebbb78f7d277d7544a7f9553c2e17c8b, type: 3}
  - _level: 2
    _view: {fileID: 11405384, guid: 6e745543298b6894cacb6e048d3caa5e, type: 3}
    _sprite: {fileID: 21300000, guid: ebbb78f7d277d7544a7f9553c2e17c8b, type: 3}
