%YAML 1.1
%TAG !u! tag:unity3d.com,2011:
--- !u!114 &11400000
MonoBehaviour:
  m_ObjectHideFlags: 0
  m_CorrespondingSourceObject: {fileID: 0}
  m_PrefabInstance: {fileID: 0}
  m_PrefabAsset: {fileID: 0}
  m_GameObject: {fileID: 0}
  m_Enabled: 1
  m_EditorHideFlags: 0
  m_Script: {fileID: 11500000, guid: 52a9b5188a7140f6bba52e7be0f1e4c4, type: 3}
  m_Name: 120_FlourMill
  m_EditorClassIdentifier: 
  _buildingId: 120
  _viewsList:
  - _level: 0
    _view: {fileID: 11478748, guid: fc5e854b1b7fceb479056abe2d952479, type: 3}
    _sprite: {fileID: 21300000, guid: bd254a54923b75e46be8d67d4fcbc266, type: 3}
  - _level: 1
    _view: {fileID: 11478748, guid: fc5e854b1b7fceb479056abe2d952479, type: 3}
    _sprite: {fileID: 21300000, guid: bd254a54923b75e46be8d67d4fcbc266, type: 3}
  - _level: 2
    _view: {fileID: 11478748, guid: fc5e854b1b7fceb479056abe2d952479, type: 3}
    _sprite: {fileID: 21300000, guid: bd254a54923b75e46be8d67d4fcbc266, type: 3}
