%YAML 1.1
%TAG !u! tag:unity3d.com,2011:
--- !u!114 &11400000
MonoBehaviour:
  m_ObjectHideFlags: 0
  m_CorrespondingSourceObject: {fileID: 0}
  m_PrefabInstance: {fileID: 0}
  m_PrefabAsset: {fileID: 0}
  m_GameObject: {fileID: 0}
  m_Enabled: 1
  m_EditorHideFlags: 0
  m_Script: {fileID: 11500000, guid: 52a9b5188a7140f6bba52e7be0f1e4c4, type: 3}
  m_Name: 126_Cinema
  m_EditorClassIdentifier: 
  _buildingId: 126
  _viewsList:
  - _level: 0
    _view: {fileID: 11408620, guid: 0b726cf57be959949bf2f6f0738a8e50, type: 3}
    _sprite: {fileID: 21300000, guid: 4a99e6f37ab065a4eae85580803e05aa, type: 3}
