%YAML 1.1
%TAG !u! tag:unity3d.com,2011:
--- !u!114 &11400000
MonoBehaviour:
  m_ObjectHideFlags: 0
  m_CorrespondingSourceObject: {fileID: 0}
  m_PrefabInstance: {fileID: 0}
  m_PrefabAsset: {fileID: 0}
  m_GameObject: {fileID: 0}
  m_Enabled: 1
  m_EditorHideFlags: 0
  m_Script: {fileID: 11500000, guid: 52a9b5188a7140f6bba52e7be0f1e4c4, type: 3}
  m_Name: 127_agriculturalField
  m_EditorClassIdentifier: 
  _buildingId: 127
  _viewsList:
  - _level: 0
    _view: {fileID: 2993760222833640133, guid: 90c3bb74e0f48874597131ed417d2cb3, type: 3}
    _sprite: {fileID: 21300000, guid: 54485688cd1cc67498c321613a4b1dd4, type: 3}
