%YAML 1.1
%TAG !u! tag:unity3d.com,2011:
--- !u!114 &11400000
MonoBehaviour:
  m_ObjectHideFlags: 0
  m_CorrespondingSourceObject: {fileID: 0}
  m_PrefabInstance: {fileID: 0}
  m_PrefabAsset: {fileID: 0}
  m_GameObject: {fileID: 0}
  m_Enabled: 1
  m_EditorHideFlags: 0
  m_Script: {fileID: 11500000, guid: 52a9b5188a7140f6bba52e7be0f1e4c4, type: 3}
  m_Name: 132_LotusDwelling
  m_EditorClassIdentifier: 
  _buildingId: 132
  _viewsList:
  - _level: 0
    _view: {fileID: 114581213419411968, guid: 4110ec280d874624794dd9ac7f52dae7, type: 3}
    _sprite: {fileID: 21300000, guid: 46eee9143be025e49aca70d9a11accfe, type: 3}
  - _level: 1
    _view: {fileID: 114581213419411968, guid: a1aadb4fc36b27440aa471dd1b52b563, type: 3}
    _sprite: {fileID: 21300000, guid: 46eee9143be025e49aca70d9a11accfe, type: 3}
  - _level: 2
    _view: {fileID: 114581213419411968, guid: 6a28eab1a53dca04f83d58d82c8431e4, type: 3}
    _sprite: {fileID: 21300000, guid: f911a7642153ad04faa34194da77f4f6, type: 3}
  - _level: 3
    _view: {fileID: 114581213419411968, guid: 3e9eb42ff5a12934287b5b004bfb04ef, type: 3}
    _sprite: {fileID: 21300000, guid: d5065c2b4c038934e83182879ae6b526, type: 3}
  - _level: 4
    _view: {fileID: 114581213419411968, guid: 25a4007d4d34ebf4abfcef802201c130, type: 3}
    _sprite: {fileID: 21300000, guid: 5ae3a76e9bb63214db8125cf46e0a72b, type: 3}
  - _level: 5
    _view: {fileID: 114581213419411968, guid: c099079944d2339428fa8117a172ad23, type: 3}
    _sprite: {fileID: 21300000, guid: 895816f3c84ef2545837aeda738f767a, type: 3}
