%YAML 1.1
%TAG !u! tag:unity3d.com,2011:
--- !u!114 &11400000
MonoBehaviour:
  m_ObjectHideFlags: 0
  m_CorrespondingSourceObject: {fileID: 0}
  m_PrefabInstance: {fileID: 0}
  m_PrefabAsset: {fileID: 0}
  m_GameObject: {fileID: 0}
  m_Enabled: 1
  m_EditorHideFlags: 0
  m_Script: {fileID: 11500000, guid: 52a9b5188a7140f6bba52e7be0f1e4c4, type: 3}
  m_Name: 142_SultanPalace
  m_EditorClassIdentifier: 
  _buildingId: 142
  _viewsList:
  - _level: 0
    _view: {fileID: 114303710120136782, guid: 23d490d3425ba4fed864433eeb544343, type: 3}
    _sprite: {fileID: 21300000, guid: 51bb943c55fbd7c4399ba6ba738a261d, type: 3}
  - _level: 1
    _view: {fileID: 114303710120136782, guid: eb33c2b700d9549b4a6057fae9d78c9d, type: 3}
    _sprite: {fileID: 21300000, guid: 51bb943c55fbd7c4399ba6ba738a261d, type: 3}
  - _level: 2
    _view: {fileID: 114303710120136782, guid: a42d58d5b6e504e159b2594932b9faf7, type: 3}
    _sprite: {fileID: 21300000, guid: 554819d3737843c479c6a9a7c522e8f4, type: 3}
  - _level: 3
    _view: {fileID: 114303710120136782, guid: 45165e77565684f5590d576ce4f9df45, type: 3}
    _sprite: {fileID: 21300000, guid: 6a9e53b290f1caf4fa255f8791b9a15e, type: 3}
  - _level: 4
    _view: {fileID: 114303710120136782, guid: 399eb9da7f9c224468d8afe7ab4caf98, type: 3}
    _sprite: {fileID: 21300000, guid: d3715d5ea73938c4fb70b021ed8e913a, type: 3}
  - _level: 5
    _view: {fileID: 114303710120136782, guid: cd4557b141fae7d4281d7fdac5dd48ab, type: 3}
    _sprite: {fileID: 21300000, guid: 82919d0224c63c942b495f42f24f64f0, type: 3}
