%YAML 1.1
%TAG !u! tag:unity3d.com,2011:
--- !u!114 &11400000
MonoBehaviour:
  m_ObjectHideFlags: 0
  m_CorrespondingSourceObject: {fileID: 0}
  m_PrefabInstance: {fileID: 0}
  m_PrefabAsset: {fileID: 0}
  m_GameObject: {fileID: 0}
  m_Enabled: 1
  m_EditorHideFlags: 0
  m_Script: {fileID: 11500000, guid: 52a9b5188a7140f6bba52e7be0f1e4c4, type: 3}
  m_Name: 175_Cabin
  m_EditorClassIdentifier: 
  _buildingId: 175
  _viewsList:
  - _level: 0
    _view: {fileID: 114303710120136782, guid: a176c08a0a23dd041b3d69b4371e11d8, type: 3}
    _sprite: {fileID: 21300000, guid: e158a5e97feda9f40bd5b709150f34b7, type: 3}
  - _level: 1
    _view: {fileID: 114303710120136782, guid: c9e103854fa6a9941ab75ce55ecb225e, type: 3}
    _sprite: {fileID: 21300000, guid: e158a5e97feda9f40bd5b709150f34b7, type: 3}
  - _level: 2
    _view: {fileID: 114303710120136782, guid: d2f961890d804d7479ea6c45d36345bd, type: 3}
    _sprite: {fileID: 21300000, guid: 6119550bd7a9e324cbbbd675c0319753, type: 3}
  - _level: 3
    _view: {fileID: 114303710120136782, guid: 1f546cf9722f5ec468610a667d995193, type: 3}
    _sprite: {fileID: 21300000, guid: b475fa7c962028d4d9eb362ab476ee2a, type: 3}
  - _level: 4
    _view: {fileID: 114303710120136782, guid: 606462b59f87c0d49a3ca9f54841b534, type: 3}
    _sprite: {fileID: 21300000, guid: 339c96217db2a0641a4931fc82402e47, type: 3}
  - _level: 5
    _view: {fileID: 114303710120136782, guid: 4a9633f829f1b1640b505c65c9515a84, type: 3}
    _sprite: {fileID: 21300000, guid: 4a6a5ba9be57a754ea85f1b62d47c73b, type: 3}
