%YAML 1.1
%TAG !u! tag:unity3d.com,2011:
--- !u!114 &11400000
MonoBehaviour:
  m_ObjectHideFlags: 0
  m_CorrespondingSourceObject: {fileID: 0}
  m_PrefabInstance: {fileID: 0}
  m_PrefabAsset: {fileID: 0}
  m_GameObject: {fileID: 0}
  m_Enabled: 1
  m_EditorHideFlags: 0
  m_Script: {fileID: 11500000, guid: 52a9b5188a7140f6bba52e7be0f1e4c4, type: 3}
  m_Name: 230_HighSchool
  m_EditorClassIdentifier: 
  _buildingId: 230
  _viewsList:
  - _level: 0
    _view: {fileID: 263424268477375316, guid: 4f1b63f13683b674f94357b610475755, type: 3}
    _sprite: {fileID: 21300000, guid: 9f41a48c5c91feb408f989c1eb7cc7ff, type: 3}
