%YAML 1.1
%TAG !u! tag:unity3d.com,2011:
--- !u!114 &11400000
MonoBehaviour:
  m_ObjectHideFlags: 0
  m_CorrespondingSourceObject: {fileID: 0}
  m_PrefabInstance: {fileID: 0}
  m_PrefabAsset: {fileID: 0}
  m_GameObject: {fileID: 0}
  m_Enabled: 1
  m_EditorHideFlags: 0
  m_Script: {fileID: 11500000, guid: 52a9b5188a7140f6bba52e7be0f1e4c4, type: 3}
  m_Name: 233_EventBuildingTrophy
  m_EditorClassIdentifier: 
  _buildingId: 233
  _viewsList:
  - _level: 0
    _view: {fileID: 3980171607210382753, guid: 5594d22ab66680141a54041275e9ccbb, type: 3}
    _sprite: {fileID: 21300000, guid: 6338004f660a3de4e9138f0b469a2772, type: 3}
