%YAML 1.1
%TAG !u! tag:unity3d.com,2011:
--- !u!114 &11400000
MonoBehaviour:
  m_ObjectHideFlags: 0
  m_CorrespondingSourceObject: {fileID: 0}
  m_PrefabInstance: {fileID: 0}
  m_PrefabAsset: {fileID: 0}
  m_GameObject: {fileID: 0}
  m_Enabled: 1
  m_EditorHideFlags: 0
  m_Script: {fileID: 11500000, guid: 52a9b5188a7140f6bba52e7be0f1e4c4, type: 3}
  m_Name: 44_CountryHouse
  m_EditorClassIdentifier: 
  _buildingId: 44
  _viewsList:
  - _level: 0
    _view: {fileID: 114600365323155926, guid: d49396671f0626044aa4d8c3e0a7a555, type: 3}
    _sprite: {fileID: 21300000, guid: 710e8df4a179fd142857713008a5eaa3, type: 3}
  - _level: 1
    _view: {fileID: 114600365323155926, guid: 227a3da095f7178409be9a0b49e30b1b, type: 3}
    _sprite: {fileID: 21300000, guid: 710e8df4a179fd142857713008a5eaa3, type: 3}
  - _level: 2
    _view: {fileID: 114600365323155926, guid: 6fbb42e443d0d1c45bed0d3cc5b63d9b, type: 3}
    _sprite: {fileID: 21300000, guid: 4019939b6ea658a4f9deaaeea63692bb, type: 3}
  - _level: 3
    _view: {fileID: 114600365323155926, guid: 87e6723418a4fb24ab3ed35ed7a4133a, type: 3}
    _sprite: {fileID: 21300000, guid: 1e77251d5d5373544a53708076aeadc4, type: 3}
  - _level: 4
    _view: {fileID: 114600365323155926, guid: d49d582741c9ea04da8e982ce5be8b69, type: 3}
    _sprite: {fileID: 21300000, guid: 9f37fe21dd29b2b4396090abe5881df8, type: 3}
  - _level: 5
    _view: {fileID: 114600365323155926, guid: 14d3919504ec26c4c9f9948cdc06f6fc, type: 3}
    _sprite: {fileID: 21300000, guid: 7c1f9341e0fffa149836331c2cf6e2a0, type: 3}
