%YAML 1.1
%TAG !u! tag:unity3d.com,2011:
--- !u!114 &11400000
MonoBehaviour:
  m_ObjectHideFlags: 0
  m_CorrespondingSourceObject: {fileID: 0}
  m_PrefabInstance: {fileID: 0}
  m_PrefabAsset: {fileID: 0}
  m_GameObject: {fileID: 0}
  m_Enabled: 1
  m_EditorHideFlags: 0
  m_Script: {fileID: 11500000, guid: 52a9b5188a7140f6bba52e7be0f1e4c4, type: 3}
  m_Name: 96_ContainersFactory
  m_EditorClassIdentifier: 
  _buildingId: 96
  _viewsList:
  - _level: 0
    _view: {fileID: 11477728, guid: 38f3d7d1eb9af1c4ebd879646fd82e7d, type: 3}
    _sprite: {fileID: 21300000, guid: 9b622532bbb231243b6d4b5e8588287a, type: 3}
  - _level: 1
    _view: {fileID: 11477728, guid: 38f3d7d1eb9af1c4ebd879646fd82e7d, type: 3}
    _sprite: {fileID: 21300000, guid: 9b622532bbb231243b6d4b5e8588287a, type: 3}
  - _level: 2
    _view: {fileID: 11477728, guid: 38f3d7d1eb9af1c4ebd879646fd82e7d, type: 3}
    _sprite: {fileID: 21300000, guid: 9b622532bbb231243b6d4b5e8588287a, type: 3}
