%YAML 1.1
%TAG !u! tag:unity3d.com,2011:
--- !u!21 &2100000
Material:
  serializedVersion: 6
  m_ObjectHideFlags: 0
  m_CorrespondingSourceObject: {fileID: 0}
  m_PrefabInstance: {fileID: 0}
  m_PrefabAsset: {fileID: 0}
  m_Name: CentralFountainsWater1
  m_Shader: {fileID: 4800000, guid: f2a429e3d4887f84e8b79a335b3cbbdc, type: 3}
  m_ShaderKeywords: USE_TRANSPARENT_BLENDING _T_FIRST
  m_LightmapFlags: 4
  m_EnableInstancingVariants: 0
  m_DoubleSidedGI: 0
  m_CustomRenderQueue: 3002
  stringTagMap: {}
  disabledShaderPasses: []
  m_SavedProperties:
    serializedVersion: 3
    m_TexEnvs:
    - _BumpMap:
        m_Texture: {fileID: 0}
        m_Scale: {x: 1, y: 1}
        m_Offset: {x: 0, y: 0}
    - _CloudsTex:
        m_Texture: {fileID: 2800000, guid: 94976c22fefbdec459f9085b9ed445ac, type: 3}
        m_Scale: {x: 1, y: 1}
        m_Offset: {x: 0, y: 0}
    - _DetailAlbedoMap:
        m_Texture: {fileID: 0}
        m_Scale: {x: 1, y: 1}
        m_Offset: {x: 0, y: 0}
    - _DetailMask:
        m_Texture: {fileID: 0}
        m_Scale: {x: 1, y: 1}
        m_Offset: {x: 0, y: 0}
    - _DetailNormalMap:
        m_Texture: {fileID: 0}
        m_Scale: {x: 1, y: 1}
        m_Offset: {x: 0, y: 0}
    - _EmissionMap:
        m_Texture: {fileID: 0}
        m_Scale: {x: 1, y: 1}
        m_Offset: {x: 0, y: 0}
    - _MainTex:
        m_Texture: {fileID: 2800000, guid: 567a634caf3a9a5468ae0741c3f298b2, type: 3}
        m_Scale: {x: 1, y: 1}
        m_Offset: {x: 0, y: 0}
    - _MetallicGlossMap:
        m_Texture: {fileID: 0}
        m_Scale: {x: 1, y: 1}
        m_Offset: {x: 0, y: 0}
    - _OcclusionMap:
        m_Texture: {fileID: 0}
        m_Scale: {x: 1, y: 1}
        m_Offset: {x: 0, y: 0}
    - _ParallaxMap:
        m_Texture: {fileID: 0}
        m_Scale: {x: 1, y: 1}
        m_Offset: {x: 0, y: 0}
    - _UnderTex:
        m_Texture: {fileID: 2800000, guid: 030aede1617147a4ebfec3fb22780944, type: 3}
        m_Scale: {x: 1, y: 1}
        m_Offset: {x: 0, y: 0}
    - _foamTex:
        m_Texture: {fileID: 0}
        m_Scale: {x: 1, y: 1}
        m_Offset: {x: 0, y: 0}
    - _foamTex2:
        m_Texture: {fileID: 0}
        m_Scale: {x: 1, y: 1}
        m_Offset: {x: 0, y: 0}
    m_Ints: []
    m_Floats:
    - _AnimateSinWaveFoamY: 0
    - _BumpScale: 1
    - _CloudUvX: 0.008
    - _CloudUvY: 0.018
    - _CloudsScale: 1
    - _CloudsSpeed: 0
    - _CloudsTwinkleIntensity: 1
    - _CloudsTwinkleScale: 1
    - _CloudsTwinkleSpeed: 1
    - _CloudsWiggleIntensity: -0.02
    - _CloudsWiggleScale: 5
    - _Cutoff: 0.5
    - _DebugTime: 0
    - _DetailNormalMapScale: 1
    - _DistrFoam: 22
    - _DistrRefr: 0.04
    - _DistrRefrMax: 0.002
    - _DistrRefrMin: 0.02
    - _DistrWaves: 24
    - _DstBlend: 0
    - _FoamWaveTextureScaleX: 1
    - _FoamWaveTextureScaleY: 3
    - _FoamWaveTextureShiftY: 0.3
    - _FoamWaveTextureShiftYY: 0
    - _GlossMapScale: 1
    - _Glossiness: 0.5
    - _GlossyReflections: 1
    - _Metallic: 0
    - _Mode: 0
    - _OcclusionStrength: 1
    - _OffsetProgress: 0
    - _Parallax: 0.02
    - _RiverDistortionImpact: 2.21
    - _ScaleFoam: 0.2
    - _ScaleRatioFoam: 8.18
    - _ScaleRatioRiver: 2.15
    - _ScaleRefraction: 5.83
    - _ScaleRiver: 0.18
    - _ScaleWaves: 4.5
    - _ScaleWiggle: 5.42
    - _ScreueFoam: -0.3
    - _SinWavesAddDistortion: 0.05
    - _SinWavesAddOverlay: 0.2
    - _SinWavesAddRefrDistortion: 0.4
    - _SinWavesFoamAddColor: 0.3
    - _SinWavesFoamAddOverlay: 0.05
    - _SinWavesSpeed: 1
    - _SmoothnessTextureChannel: 0
    - _SpecularHighlights: 1
    - _SpeedFoam: -0.04
    - _SpeedRefr: 0.03
    - _SpeedRiver: -0.05
    - _SpeedWaves: 0.63
    - _SrcBlend: 1
    - _T: 0
    - _TransparentBlendingAmount: -0.11
    - _TurnX: 0
    - _TurnY: -45
    - _TurnZ: -30
    - _UVSec: 0
    - _UseGrabPassBackground: 0
    - _UseTransparentBlending: 1
    - _WaveFormA: 3
    - _WaveFormB: 5
    - _WaveFormC: 3
    - _WaveFormCutA: 0.3
    - _WaveFormCutB: 0.7
    - _WaveFormD: 2
    - _WaveFormE: 2
    - _WavesTime: 2
    - _WorldUVToGrabPosition: 0.1
    - _ZWrite: 1
    - _secondaryFoam: 0.1
    m_Colors:
    - _CloudsCol: {r: 0, g: 0.14117648, b: 1, a: 0.39215687}
    - _Color: {r: 1, g: 1, b: 1, a: 1}
    - _ColorFoam: {r: 1, g: 1, b: 1, a: 1}
    - _ColorShore: {r: 0.8113208, g: 0.6173322, b: 0.24875402, a: 1}
    - _ColorWater: {r: 1, g: 1, b: 1, a: 1}
    - _ColorWaves: {r: 0.8621323, g: 0.95981234, b: 0.9852941, a: 0.4392157}
    - _EmissionColor: {r: 0, g: 0, b: 0, a: 1}
    - _RiverColor: {r: 0.0754717, g: 0.023139909, b: 0.023139909, a: 1}
  m_BuildTextureStacks: []
