%YAML 1.1
%TAG !u! tag:unity3d.com,2011:
--- !u!114 &11400000
MonoBehaviour:
  m_ObjectHideFlags: 0
  m_CorrespondingSourceObject: {fileID: 0}
  m_PrefabInstance: {fileID: 0}
  m_PrefabAsset: {fileID: 0}
  m_GameObject: {fileID: 0}
  m_Enabled: 1
  m_EditorHideFlags: 0
  m_Script: {fileID: 11500000, guid: f187c331bb8c60446a800459ef8ca683, type: 3}
  m_Name: WeMissYou
  m_EditorClassIdentifier: 
  _title: We miss you
  _descriptions:
  - Mayor, it`s been a long time since the citizens have seen you in the city, they
    are worry! Allay their concern by visiting the city.
  - The production power of your city stays inactive.
  - Chief! It is time to hit the ground running! Our pants must be functional!
  smallIconName: 
  largeIconName: 
  _repeatInterval:
    seconds: 0
    minutes: 15
    hours: 0
    days: 0
