%YAML 1.1
%TAG !u! tag:unity3d.com,2011:
--- !u!687078895 &4343727234628468602
SpriteAtlas:
  m_ObjectHideFlags: 0
  m_CorrespondingSourceObject: {fileID: 0}
  m_PrefabInstance: {fileID: 0}
  m_PrefabAsset: {fileID: 0}
  m_Name: ProductsSprites
  m_EditorData:
    serializedVersion: 2
    textureSettings:
      serializedVersion: 2
      anisoLevel: 1
      compressionQuality: 50
      maxTextureSize: 2048
      textureCompression: 0
      filterMode: 1
      generateMipMaps: 0
      readable: 0
      crunchedCompression: 0
      sRGB: 1
    platformSettings:
    - serializedVersion: 3
      m_BuildTarget: DefaultTexturePlatform
      m_MaxTextureSize: 2048
      m_ResizeAlgorithm: 0
      m_TextureFormat: -1
      m_TextureCompression: 2
      m_CompressionQuality: 50
      m_CrunchedCompression: 0
      m_AllowsAlphaSplitting: 0
      m_Overridden: 0
      m_AndroidETC2FallbackOverride: 0
      m_ForceMaximumCompressionQuality_BC6H_BC7: 0
    - serializedVersion: 3
      m_BuildTarget: Android
      m_MaxTextureSize: 2048
      m_ResizeAlgorithm: 0
      m_TextureFormat: 47
      m_TextureCompression: 1
      m_CompressionQuality: 50
      m_CrunchedCompression: 0
      m_AllowsAlphaSplitting: 0
      m_Overridden: 1
      m_AndroidETC2FallbackOverride: 0
      m_ForceMaximumCompressionQuality_BC6H_BC7: 0
    - serializedVersion: 3
      m_BuildTarget: iPhone
      m_MaxTextureSize: 2048
      m_ResizeAlgorithm: 0
      m_TextureFormat: 33
      m_TextureCompression: 1
      m_CompressionQuality: 50
      m_CrunchedCompression: 0
      m_AllowsAlphaSplitting: 0
      m_Overridden: 1
      m_AndroidETC2FallbackOverride: 0
      m_ForceMaximumCompressionQuality_BC6H_BC7: 0
    - serializedVersion: 3
      m_BuildTarget: iPhone
      m_MaxTextureSize: 2048
      m_ResizeAlgorithm: 0
      m_TextureFormat: 4
      m_TextureCompression: 1
      m_CompressionQuality: 50
      m_CrunchedCompression: 0
      m_AllowsAlphaSplitting: 0
      m_Overridden: 1
      m_AndroidETC2FallbackOverride: 0
      m_ForceMaximumCompressionQuality_BC6H_BC7: 0
    - serializedVersion: 3
      m_BuildTarget: Standalone
      m_MaxTextureSize: 2048
      m_ResizeAlgorithm: 0
      m_TextureFormat: 4
      m_TextureCompression: 1
      m_CompressionQuality: 50
      m_CrunchedCompression: 0
      m_AllowsAlphaSplitting: 0
      m_Overridden: 1
      m_AndroidETC2FallbackOverride: 0
      m_ForceMaximumCompressionQuality_BC6H_BC7: 0
    packingSettings:
      serializedVersion: 2
      padding: 8
      blockOffset: 1
      allowAlphaSplitting: 0
      enableRotation: 0
      enableTightPacking: 0
      enableAlphaDilation: 0
    secondaryTextureSettings: {}
    variantMultiplier: 1
    packables:
    - {fileID: 102900000, guid: a9e1643447266224eb36b4a7f40a11e0, type: 3}
    bindAsDefault: 1
    isAtlasV2: 0
    cachedData: {fileID: 0}
  m_MasterAtlas: {fileID: 0}
  m_PackedSprites:
  - {fileID: 21300000, guid: 81310f005f0309a41906e7f7acb6ec86, type: 3}
  - {fileID: 21300000, guid: 54b591202c024224e877eab60d9d6a08, type: 3}
  - {fileID: 21300000, guid: 4b3f58301d3a0c2458d875ba7a72aa10, type: 3}
  - {fileID: 21300000, guid: 4768ac3095bbd134192b20f473ecb1b5, type: 3}
  - {fileID: 21300000, guid: fe6d4f404f17b6249a439ac817bb86f4, type: 3}
  - {fileID: 21300000, guid: 80258d80ef2884445b6ccd247c0dd46a, type: 3}
  - {fileID: 21300000, guid: 21d16a90ede779c46984b08ccfd21569, type: 3}
  - {fileID: 21300000, guid: db435501581b1ed498948c35c4ad6ad6, type: 3}
  - {fileID: 21300000, guid: 3cc9e92148d48e543bea3d25c869ae09, type: 3}
  - {fileID: 21300000, guid: 190903314987aca419923cc8a99ebd81, type: 3}
  - {fileID: 21300000, guid: ae525331d4d5ab5459832c6350da4370, type: 3}
  - {fileID: 21300000, guid: 7139f241c199e8640a14dbd2aa1f6410, type: 3}
  - {fileID: 21300000, guid: ebec835186570fb47a21ce28581c27c7, type: 3}
  - {fileID: 21300000, guid: 818432714b98e1b45909212619e3e678, type: 3}
  - {fileID: 21300000, guid: 131a2881715bdca44b7cd66cb467c2e8, type: 3}
  - {fileID: 21300000, guid: 1f5c15b1605696148b1e20f163a98791, type: 3}
  - {fileID: 21300000, guid: 83cbefb14da5f994f8ca112e83fa87ff, type: 3}
  - {fileID: 21300000, guid: 0fd196c1b4c3c4b4cae8d0f78bee9172, type: 3}
  - {fileID: 21300000, guid: bcb428c15199ce3479a7005fd394a0c5, type: 3}
  - {fileID: 21300000, guid: 055191d18b473b44cb04ede949a891cf, type: 3}
  - {fileID: 21300000, guid: 37e29ee1a7abd754a98d467314ea86b4, type: 3}
  - {fileID: 21300000, guid: 0420b7f138ae5fb4e8be4eebea7afeca, type: 3}
  - {fileID: 21300000, guid: af77fd1222d961d4b92f5c6c50a2c171, type: 3}
  - {fileID: 21300000, guid: d9064122c1f9e874ea4919e79792fc9f, type: 3}
  - {fileID: 21300000, guid: 16553322c02a4c34ca0a531652cda13e, type: 3}
  - {fileID: 21300000, guid: f12de922bb5815e459b436823f56c51d, type: 3}
  - {fileID: 21300000, guid: 28ecfc329b3326e43bffe51ac4fefff6, type: 3}
  - {fileID: 21300000, guid: 24c38a525e1ac2747ac581457e259fc3, type: 3}
  - {fileID: 21300000, guid: 853c5382df2af4343ad0c280abef6ed0, type: 3}
  - {fileID: 21300000, guid: b1bb59a22f29ec646a5d7e298707fc66, type: 3}
  - {fileID: 21300000, guid: e80a73b2663da784e8ba0acdbbd32d87, type: 3}
  - {fileID: 21300000, guid: 4da4f4d2d7442564386a2f23e36707c8, type: 3}
  - {fileID: 21300000, guid: 31977ed2517c6f049bd2118db970cf13, type: 3}
  - {fileID: 21300000, guid: 071bffd25e313674da07a767889cc235, type: 3}
  - {fileID: 21300000, guid: 377056f203546914ca9d9c3f0e96b5f1, type: 3}
  - {fileID: 21300000, guid: 279a4b0342a4ff641a032cbb3c052396, type: 3}
  - {fileID: 21300000, guid: 9e61761386138e846b5d990b4a813a09, type: 3}
  - {fileID: 21300000, guid: 44bc53233db2db246b146491ce65b28a, type: 3}
  - {fileID: 21300000, guid: a9b3a423afe9ee04889815574fe39d1e, type: 3}
  - {fileID: 21300000, guid: 64c73e333f81427489dc509f1bede985, type: 3}
  - {fileID: 21300000, guid: d5706b63055f30e499d49f08d7044f70, type: 3}
  - {fileID: 21300000, guid: 450e0e83e12863e40bece239054eeda8, type: 3}
  - {fileID: 21300000, guid: 15a00c93e75a0e2479a16880517656cf, type: 3}
  - {fileID: 21300000, guid: 564f49a32e9e54f4994192aec844fd1e, type: 3}
  - {fileID: 21300000, guid: fa5729c39f8984b44893de907f5ca033, type: 3}
  - {fileID: 21300000, guid: 5ed559d382841a94a9aff68a54c566f3, type: 3}
  - {fileID: 21300000, guid: 065f37f3b57170b418e7dc9056b5fc99, type: 3}
  - {fileID: 21300000, guid: 8b753f845f0d0f54ea8fb15eec5f164d, type: 3}
  - {fileID: 21300000, guid: 8a9b77947b73deb49a10005160ca2377, type: 3}
  - {fileID: 21300000, guid: 3abaa0a4c15689a449cad3fb79853d15, type: 3}
  - {fileID: 21300000, guid: 950649a4cfa5438409e126905a2799d4, type: 3}
  - {fileID: 21300000, guid: 5fbbf3c419d050e44bafb6065c49c31c, type: 3}
  - {fileID: 21300000, guid: 68244bc466edab94bbd5476fe3c42ce6, type: 3}
  - {fileID: 21300000, guid: 385c96d499399864291d9e6ba551955d, type: 3}
  - {fileID: 21300000, guid: 6c146df4dd56978498355577479e5b23, type: 3}
  - {fileID: 21300000, guid: 62396f354086c094a8bb5df6cf050e61, type: 3}
  - {fileID: 21300000, guid: 0bd69645c27077c408240238a3d1a8e2, type: 3}
  - {fileID: 21300000, guid: d04f8a5502ddd354a8c6e5d09418988b, type: 3}
  - {fileID: 21300000, guid: 4687c565fd573c34181efa9f3fdcddfd, type: 3}
  - {fileID: 21300000, guid: a696b675705f9fa439dd1c801d21a5fd, type: 3}
  - {fileID: 21300000, guid: 92eb3875190351149837ccc3b3f5947b, type: 3}
  - {fileID: 21300000, guid: 28a98d759254b4348995a1f5e6582367, type: 3}
  - {fileID: 21300000, guid: 1d871d95e3612794690b8df3c7646f8d, type: 3}
  - {fileID: 21300000, guid: 411a1d95333aa0c4099950564d4a614c, type: 3}
  - {fileID: 21300000, guid: 307e37d559e792e469dc2f02bb41b97a, type: 3}
  - {fileID: 21300000, guid: 9776cad5a5a1b7546bd7050486221185, type: 3}
  - {fileID: 21300000, guid: bcbe47e5326024b4ca6f33a8cb7b1805, type: 3}
  - {fileID: 21300000, guid: 60930be57e7c81842a11c56cdab47f9a, type: 3}
  - {fileID: 21300000, guid: db7deff59ddf5f04fae16fc02cbaf0f8, type: 3}
  - {fileID: 21300000, guid: 3397df06116a0774fb9d43b3b23cb103, type: 3}
  - {fileID: 21300000, guid: 1df2a1662e0ef314c8e7117945012664, type: 3}
  - {fileID: 21300000, guid: 317d517620cd7e8438d15c21ba7436eb, type: 3}
  - {fileID: 21300000, guid: ce1aea86932b3ed44b99650f0f2729e1, type: 3}
  - {fileID: 21300000, guid: 0f0c3db6ad56b364f9e7961e99faffee, type: 3}
  - {fileID: 21300000, guid: c91d38f6909677145920143c77cc7cee, type: 3}
  - {fileID: 21300000, guid: dd6278f6590900b4d986830138b7a800, type: 3}
  - {fileID: 21300000, guid: 3cef83179776f3546a5b8eb8619f8c24, type: 3}
  - {fileID: 21300000, guid: 36be1a1737b607b4c99681beca773bab, type: 3}
  - {fileID: 21300000, guid: 0fedf037fec28e64dadc76706cd7478e, type: 3}
  - {fileID: 21300000, guid: 5390d3472a38fb243b9167d28ec07134, type: 3}
  - {fileID: 21300000, guid: b19a7e5777d63b046be760f26e8dbf05, type: 3}
  - {fileID: 21300000, guid: 84f405973057d6143b8669fbad12f2e4, type: 3}
  - {fileID: 21300000, guid: c177a9c736d958e46bdbe39fbb5dff94, type: 3}
  - {fileID: 21300000, guid: a82802d7d41d7c54cbc3daa9c09ecde4, type: 3}
  - {fileID: 21300000, guid: 565bf5d7d836280448ef902d5ee77454, type: 3}
  - {fileID: 21300000, guid: 690959e76eed5dc4d83a1ed7576013b8, type: 3}
  - {fileID: 21300000, guid: a0b207f78f6ee444abd8bf3a1917652f, type: 3}
  - {fileID: 21300000, guid: 7f35ca38a1b2e9f41924a3bb82c2e0fd, type: 3}
  - {fileID: 21300000, guid: 152fbb38c20ad03409c6fb59b6c396c8, type: 3}
  - {fileID: 21300000, guid: 3e63847856fe928449ed5d97f625c004, type: 3}
  - {fileID: 21300000, guid: f2426b781a3f4684d8687b14acb461a4, type: 3}
  - {fileID: 21300000, guid: 72c48e78eb7fd3245b3c958ea93349c7, type: 3}
  - {fileID: 21300000, guid: a0082cb821965fc4ea8e9ff5614671cc, type: 3}
  - {fileID: 21300000, guid: 00097dd896525c34a98db38d5a8b18bf, type: 3}
  - {fileID: 21300000, guid: 3eb917e8e5ab0df4c884ac75ed2acf32, type: 3}
  - {fileID: 21300000, guid: b068e239fed8c1c41a46f3da97afbb55, type: 3}
  - {fileID: 21300000, guid: 64cdc639b818f624286ca39b3fe7c7e2, type: 3}
  - {fileID: 21300000, guid: eb1405691f52f024b87a96b9a14e14fb, type: 3}
  - {fileID: 21300000, guid: 0f9b878971f523c4988226d6313c2592, type: 3}
  - {fileID: 21300000, guid: 83b087b954f4a2849a57218c0fb23e06, type: 3}
  - {fileID: 21300000, guid: 30f907c99759d274cbae49c01b35d0e4, type: 3}
  - {fileID: 21300000, guid: 115b90f90ceff6345a6426ce8151368d, type: 3}
  - {fileID: 21300000, guid: b6867df99734fbe479462d6b77ce8578, type: 3}
  - {fileID: 21300000, guid: 2847fff999a5f09498cd6ce76097ff5b, type: 3}
  - {fileID: 21300000, guid: 0cd4052aae113b744b1c303eca450ce2, type: 3}
  - {fileID: 21300000, guid: fc19564a997ebf94a88f008a20ed327c, type: 3}
  - {fileID: 21300000, guid: d4d91e5ab2f24b9428f33ebfd3da72dc, type: 3}
  - {fileID: 21300000, guid: de94bb9a8c07d4e48804c9df5a378c85, type: 3}
  - {fileID: 21300000, guid: eac93fda1967bc7409094923e254ba7d, type: 3}
  - {fileID: 21300000, guid: 312db7fa032aba74ab164b93fb05c10c, type: 3}
  - {fileID: 21300000, guid: dafab61bba726814abc28af3456e4341, type: 3}
  - {fileID: 21300000, guid: 0f7c003b57245da4ab8916ebe587c3c2, type: 3}
  - {fileID: 21300000, guid: 244fbf3bb612a5d4bb4941f9481ef078, type: 3}
  - {fileID: 21300000, guid: c6acfc6b8c68af146a36d729353132da, type: 3}
  - {fileID: 21300000, guid: 2ed8837b69918c64ca8099dbb954becc, type: 3}
  - {fileID: 21300000, guid: 27b4d57b926c48946aacb110c699f547, type: 3}
  - {fileID: 21300000, guid: 6b8f667beefef3245ad53e6acdbd64c3, type: 3}
  - {fileID: 21300000, guid: 60e8d79b65332f749a6657895ee1fb4d, type: 3}
  - {fileID: 21300000, guid: 21176f9b5ab21c644b243275f2766a39, type: 3}
  - {fileID: 21300000, guid: 0a9ee5abb917cb24e9e84687ba3fb752, type: 3}
  - {fileID: 21300000, guid: d7e199cb378939d46a0fbaf0e269adc9, type: 3}
  - {fileID: 21300000, guid: 15c898db5baed0c49bc611b0e44ba317, type: 3}
  - {fileID: 21300000, guid: 638df1ebbca7842479c0ad757795fa48, type: 3}
  - {fileID: 21300000, guid: 44f87aeba1fccb745826f23add6bafc0, type: 3}
  - {fileID: 21300000, guid: b8d1b8fbf0b12c74dacfa8ccc0ead2d4, type: 3}
  - {fileID: 21300000, guid: 05d2252c2a07f4e48831ba4d0b0fe50d, type: 3}
  - {fileID: 21300000, guid: b241ba3ca263ef04a80e09dd2d7b3a32, type: 3}
  - {fileID: 21300000, guid: 1425916cd5116614dba3ae1fb866c1ce, type: 3}
  - {fileID: 21300000, guid: 732ec36c35aece14e9a906467952f03a, type: 3}
  - {fileID: 21300000, guid: 4353366c8cf1a8f41bc13eae37e01152, type: 3}
  - {fileID: 21300000, guid: cbb5d29c9995af44c8f80a2ad66ca227, type: 3}
  - {fileID: 21300000, guid: beca189c7f2dded4cbe0812805037c49, type: 3}
  - {fileID: 21300000, guid: d83d07ac123f9ea449f2e13bc01c4769, type: 3}
  - {fileID: 21300000, guid: d49307cca9d82ed42b8bd507b8c17778, type: 3}
  - {fileID: 21300000, guid: e83576ecc5ee7e44aad445adf9718857, type: 3}
  - {fileID: 21300000, guid: 265ceafc27872eb4a9c5d2f320d0a25b, type: 3}
  - {fileID: 21300000, guid: e7b3ea0d2e553384cb5dd194d8c62f8e, type: 3}
  - {fileID: 21300000, guid: 98216e1dd1d3fa74dbf4921c9486024b, type: 3}
  - {fileID: 21300000, guid: e59b9b2debec8a4498cfbb20f8fcb2c8, type: 3}
  - {fileID: 21300000, guid: 1207596df6b655e4a9f25746d8d19842, type: 3}
  - {fileID: 21300000, guid: 7ab2fa6dff7b1fd4d9f4d18e5e076601, type: 3}
  - {fileID: 21300000, guid: 332d768d3c34a84418c420aa906ebb86, type: 3}
  - {fileID: 21300000, guid: e6a4919d9a578f1418b8fa6444ae93fb, type: 3}
  - {fileID: 21300000, guid: f587e49ddedc4d44696d7fad3e7ded72, type: 3}
  - {fileID: 21300000, guid: 2a7a06ed2b589fa48bc1fc715d2e8d91, type: 3}
  - {fileID: 21300000, guid: 6047eeedef419c040b66e52235b5ae1e, type: 3}
  - {fileID: 21300000, guid: 54e3562e7db04c84e99c8694b10e0598, type: 3}
  - {fileID: 21300000, guid: bae8004e0fd6aa249b2d4e74c64e8575, type: 3}
  - {fileID: 21300000, guid: 33e0699ed492a2b47a4adec47b94dcbb, type: 3}
  - {fileID: 21300000, guid: f886f0ce0ddd0d3469d979409357aa68, type: 3}
  - {fileID: 21300000, guid: ee26c0de544665749b0275bd22257d2f, type: 3}
  - {fileID: 21300000, guid: 110760ee0283cbe4ea656a16f2da64d3, type: 3}
  - {fileID: 21300000, guid: 05cec9fe2fd38074e90b8e0f118905bb, type: 3}
  - {fileID: 21300000, guid: b3a1512fa46181c48b70cec8af592817, type: 3}
  - {fileID: 21300000, guid: 84ea0d3fd41bfc449824e9957cd3694f, type: 3}
  - {fileID: 21300000, guid: c07afe3f902941946812f2b2ae61499c, type: 3}
  - {fileID: 21300000, guid: 1f69c34fd9bbf074094f6776585e23ec, type: 3}
  - {fileID: 21300000, guid: 7b82244f2011b834dae3658b06041dbf, type: 3}
  - {fileID: 21300000, guid: e119c74f9ada68d43b5975ff81a67b8e, type: 3}
  - {fileID: 21300000, guid: fe6de27f09da68f4280f2bc3f32e672b, type: 3}
  - {fileID: 21300000, guid: 2579b87f5e313c841a115421ab2eda7a, type: 3}
  - {fileID: 21300000, guid: 174f808f3e491b14680d52314601e8e3, type: 3}
  - {fileID: 21300000, guid: 63a2f88f27f29b44c8da5f23d29aa2bc, type: 3}
  - {fileID: 21300000, guid: c3ed1a9f20db21f4eb5fd57afa8b5de3, type: 3}
  - {fileID: 21300000, guid: 10417b9f8dfe5a94292de34f6257fa41, type: 3}
  - {fileID: 21300000, guid: e55f16af8b5a06944b7d84b904ef4633, type: 3}
  - {fileID: 21300000, guid: e4e11bbf698aace4fa2b6d7881f09626, type: 3}
  - {fileID: 21300000, guid: cbb7a7cff13e9204aa62143130f10c49, type: 3}
  - {fileID: 21300000, guid: ce258cdf87d723240bcdedf94abe582e, type: 3}
  - {fileID: 21300000, guid: 0b6623ff812edbc479aa9a5a49d424f4, type: 3}
  - {fileID: 21300000, guid: 2b386bff93c427a46aaf5858bafa5c0c, type: 3}
  m_PackedSpriteNamesToIndex:
  - 140_cheese
  - 341_rivet
  - 172_strawberryJam
  - 133_blueberryJam
  - 309_cheese_omlette_with_tomatoes
  - 558_kebbeh_bil_seniyeh
  - 128_meat
  - 355_tin
  - 419_foodMenuToGo
  - 403_glass
  - 331_lime
  - 424_pickaxe
  - 139_cement
  - 320_fish
  - 148_cucumber
  - 314_concrete
  - 417_burgerToGo
  - 564_shawarma_plate
  - 374_fishFeed
  - 134_bread
  - 340_veggie_noodles
  - 352_sushiRolls
  - 356_tomato_soup
  - 541_RiceNoodles
  - 176_tomatoJuice
  - 421_eggs_and_salad
  - 540_Rake
  - 156_iceTea
  - 366_whiteSugar
  - 561_pepperoni_pizza
  - 179_wool
  - 371_chickenFeed
  - 554_blueberry_yoghurt_icecream
  - 552_Wood
  - 322_fishSoup
  - 141_chickenBurger
  - 376_foodPaper
  - 248_baba_ghanoush
  - 173_sugarcane
  - 315_copperBar
  - 142_clay
  - 553_CreditCard
  - 351_strawberryIcecream
  - 555_bulgur_patties
  - 338_steel_rod
  - 375_foodPackage
  - 302_alumnium
  - 383_rubber
  - 394_alarm
  - 566_simple_breakfast
  - 301_aluminiumCans
  - 422_proteinDrink
  - 160_stone
  - 305_bolt
  - 370_bowl
  - 317_croissant
  - 335_pipe
  - 503_TinBar
  - 350_strawberryCola
  - 336_quesadilla
  - 563_salad_wraps
  - 426_Baterey
  - 143_cola
  - 152_hamburder
  - 395_videcam
  - 304_blueberry_cola
  - 174_tea
  - 418_cornNoodles
  - 164_quartzSand
  - 170_strawberryJuice
  - 542_PizzaDough
  - 365_whiteBrick
  - 359_valve
  - 543_Pickles
  - 178_whiteFlour
  - 149_egg
  - 557_egg_rolls
  - 509_joghurt
  - 353_Syrop
  - 303_alumniumBar
  - 559_kebbeh_labaniyeh
  - 307_brownSugar
  - 325_gasCylinder
  - 396_fertilizer
  - 138_carrotJuice
  - 311_milky_soup
  - 369_bag
  - 551_Ladder
  - 329_jerrycan
  - 144_butter_cookies_strawberry_juice
  - 146_corn
  - 157_iron
  - 300_foam_concrete
  - 145_copper
  - 408_egg_sandwitch_tomato_juice
  - 354_teaCocktail
  - 360_stuffed_eggplants
  - 425_SolarGlass
  - 344_sand
  - 346_meat_skewer
  - 135_corn_flour
  - 312_chickenMeat
  - 565_shawarma_sandwitch
  - 132_blueberry_cheesecake
  - 316_cornBread
  - 328_ironBarrel
  - 334_omelet
  - 420_english_breakfast
  - 130_blueberry
  - 381_plastic
  - 324_friedFish
  - 562_poached_eggs
  - 550_Terminal
  - 163_pizza
  - 560_manakish_cheese
  - 165_redBrick
  - 210_IceCream
  - 343_mediterranean_wheat_salad
  - 207_pancakes
  - 423_blueprint
  - 349_strawberryCake
  - 548_beef_stir_fry-n-cola
  - 147_cream
  - 169_strawberry
  - 150_eggplant
  - 427_Wires
  - 533_wallpaper
  - 171_strawberryPie
  - 319_vegetable_rice_pilaf
  - 501_TinOre
  - 384_sheepFeed
  - 549_cheese_platter_and_cola
  - 567_vegetarian_pizza
  - 155_hotdogLamb
  - 159_lettuce
  - 131_blueberryJuice
  - 393_codeLock
  - 342_grilled_veggies
  - 326_hammer
  - 333_nanoCola
  - 379_jar
  - 556_couscous_plate
  - 321_fishInAspic
  - 136_butter
  - 372_cowFeed
  - 306_brocolli
  - 177_wheat
  - 337_reinforcedConcrete
  - 339_rice
  - 158_creamed_beef
  - 547_taco
  - 507_buns
  - 153_fruitYogurt
  - 137_carrot
  - 151_fishAndCheese
  - 545_pudding
  - 506_Rice
  - 327_ironBar
  - 154_cheeseburger
  - 377_glassBottle
  - 162_strawberry-pancakes
  - 161_milk
  - 310_vegan_shakrieh
  - 308_kebab_platter
  - 544_VegetableMix
  - 539_SafetyHelmet
  - 323_freshSoup
  - 532_gold_bar
  - 345_metal_sheet
  - 534_paint
  - 175_tomato
  m_RenderDataMap: {}
  m_Tag: ProductsSprites
  m_IsVariant: 0
