%YAML 1.1
%TAG !u! tag:unity3d.com,2011:
--- !u!114 &11400000
MonoBehaviour:
  m_ObjectHideFlags: 0
  m_CorrespondingSourceObject: {fileID: 0}
  m_PrefabInstance: {fileID: 0}
  m_PrefabAsset: {fileID: 0}
  m_GameObject: {fileID: 0}
  m_Enabled: 1
  m_EditorHideFlags: 0
  m_Script: {fileID: 11500000, guid: 0dccb67783ab45db9b17fa31e861c89b, type: 3}
  m_Name: SimpleProgressBarStates
  m_EditorClassIdentifier: 
  _sliderFills:
  - Fill: {fileID: 21300000, guid: 2a3c9a1db03a870478f2ea490dd584c1, type: 3}
    MinValueToShowInPercents: 0
    MaxValueToShowInPercents: 100
