{
    "name": "NanoLib-Core-Assembly",
    "references": [
        "GUID:10a1338086f79ff4db1ee28f8aa1dead",
        "GUID:560b04d1a97f54a4e82edc0cbbb69285"
    ],
    "includePlatforms": [],
    "excludePlatforms": [],
    "allowUnsafeCode": false,
    "overrideReferences": false,
    "precompiledReferences": [],
    "autoReferenced": true,
    "defineConstraints": [],
    "versionDefines": []
}