%YAML 1.1
%TAG !u! tag:unity3d.com,2011:
--- !u!21 &2100000
Material:
  serializedVersion: 6
  m_ObjectHideFlags: 0
  m_CorrespondingSourceObject: {fileID: 0}
  m_PrefabInstance: {fileID: 0}
  m_PrefabAsset: {fileID: 0}
  m_Name: FireworkParticleWhite
  m_Shader: {fileID: 4800000, guid: 23794b75ed2194bc68866806484e9b7e, type: 3}
  m_ShaderKeywords: 
  m_LightmapFlags: 4
  m_EnableInstancingVariants: 0
  m_DoubleSidedGI: 0
  m_CustomRenderQueue: 3000
  stringTagMap: {}
  disabledShaderPasses: []
  m_SavedProperties:
    serializedVersion: 3
    m_TexEnvs:
    - _MainTex:
        m_Texture: {fileID: 2800000, guid: 4c9dcc8fc28cd534aaa582983b43caff, type: 3}
        m_Scale: {x: 1, y: 1}
        m_Offset: {x: 0, y: 0}
    m_Ints: []
    m_Floats:
    - _ColorMask: 15
    - _Stencil: 1
    - _StencilComp: 8
    - _StencilOp: 0
    - _StencilReadMask: 1
    - _StencilWriteMask: 0
    - _UseUIAlphaClip: 0
    m_Colors:
    - _Color: {r: 1, g: 1, b: 1, a: 1}
    - _TintColor: {r: 0.134, g: 0.134, b: 0.134, a: 0.5}
  m_BuildTextureStacks: []
