%YAML 1.1
%TAG !u! tag:unity3d.com,2011:
--- !u!74 &7400000
AnimationClip:
  m_ObjectHideFlags: 0
  m_CorrespondingSourceObject: {fileID: 0}
  m_PrefabInstance: {fileID: 0}
  m_PrefabAsset: {fileID: 0}
  m_Name: 111_Sheepfold_WorkToIdle
  serializedVersion: 6
  m_Legacy: 0
  m_Compressed: 0
  m_UseHighQualityCurve: 1
  m_RotationCurves: []
  m_CompressedRotationCurves: []
  m_EulerCurves: []
  m_PositionCurves:
  - curve:
      serializedVersion: 2
      m_Curve:
      - serializedVersion: 3
        time: 0
        value: {x: 0.118, y: 0.82, z: -0.012}
        inSlope: {x: 0, y: 0, z: 0}
        outSlope: {x: 0, y: 0, z: 0}
        tangentMode: 0
        weightedMode: 0
        inWeight: {x: 0.33333334, y: 0.33333334, z: 0.33333334}
        outWeight: {x: 0.33333334, y: 0.33333334, z: 0.33333334}
      m_PreInfinity: 2
      m_PostInfinity: 2
      m_RotationOrder: 4
    path: VFX_Holder/FX_Hay_01
  - curve:
      serializedVersion: 2
      m_Curve:
      - serializedVersion: 3
        time: 0
        value: {x: 0.326, y: 1.677, z: -0.1}
        inSlope: {x: 0, y: 0, z: 0}
        outSlope: {x: 0, y: 0, z: 0}
        tangentMode: 0
        weightedMode: 0
        inWeight: {x: 0.33333334, y: 0.33333334, z: 0.33333334}
        outWeight: {x: 0.33333334, y: 0.33333334, z: 0.33333334}
      m_PreInfinity: 2
      m_PostInfinity: 2
      m_RotationOrder: 4
    path: VFX_Holder/FX_Hay_05
  - curve:
      serializedVersion: 2
      m_Curve:
      - serializedVersion: 3
        time: 0
        value: {x: 0.925, y: 1.442, z: -0.1}
        inSlope: {x: 0, y: 0, z: 0}
        outSlope: {x: 0, y: 0, z: 0}
        tangentMode: 0
        weightedMode: 0
        inWeight: {x: 0.33333334, y: 0.33333334, z: 0.33333334}
        outWeight: {x: 0.33333334, y: 0.33333334, z: 0.33333334}
      m_PreInfinity: 2
      m_PostInfinity: 2
      m_RotationOrder: 4
    path: VFX_Holder/FX_Hay_06
  m_ScaleCurves:
  - curve:
      serializedVersion: 2
      m_Curve:
      - serializedVersion: 3
        time: 0
        value: {x: 1, y: 1, z: 1}
        inSlope: {x: 0, y: 0, z: 0}
        outSlope: {x: 0, y: 0, z: 0}
        tangentMode: 0
        weightedMode: 0
        inWeight: {x: 0.33333334, y: 0.33333334, z: 0.33333334}
        outWeight: {x: 0.33333334, y: 0.33333334, z: 0.33333334}
      - serializedVersion: 3
        time: 0.33333334
        value: {x: 0, y: 0, z: 0}
        inSlope: {x: 0, y: 0, z: 0}
        outSlope: {x: 0, y: 0, z: 0}
        tangentMode: 0
        weightedMode: 0
        inWeight: {x: 0.33333334, y: 0.33333334, z: 0.33333334}
        outWeight: {x: 0.33333334, y: 0.33333334, z: 0.33333334}
      m_PreInfinity: 2
      m_PostInfinity: 2
      m_RotationOrder: 4
    path: SheepFold_ShovelMan
  - curve:
      serializedVersion: 2
      m_Curve:
      - serializedVersion: 3
        time: 0.23333333
        value: {x: 1, y: 1, z: 1}
        inSlope: {x: 0, y: 0, z: 0}
        outSlope: {x: 0, y: 0, z: 0}
        tangentMode: 0
        weightedMode: 0
        inWeight: {x: 0.33333334, y: 0.33333334, z: 0.33333334}
        outWeight: {x: 0.33333334, y: 0.33333334, z: 0.33333334}
      - serializedVersion: 3
        time: 0.53333336
        value: {x: 0, y: 0, z: 0}
        inSlope: {x: 0, y: 0, z: 0}
        outSlope: {x: 0, y: 0, z: 0}
        tangentMode: 0
        weightedMode: 0
        inWeight: {x: 0.33333334, y: 0.33333334, z: 0.33333334}
        outWeight: {x: 0.33333334, y: 0.33333334, z: 0.33333334}
      m_PreInfinity: 2
      m_PostInfinity: 2
      m_RotationOrder: 4
    path: SheepFold_PipeCleaner
  - curve:
      serializedVersion: 2
      m_Curve:
      - serializedVersion: 3
        time: 0
        value: {x: 0, y: 0, z: 0}
        inSlope: {x: 0, y: 0, z: 0}
        outSlope: {x: 0, y: 0, z: 0}
        tangentMode: 0
        weightedMode: 0
        inWeight: {x: 0, y: 0.33333334, z: 0.33333334}
        outWeight: {x: 0, y: 0.33333334, z: 0.33333334}
      m_PreInfinity: 2
      m_PostInfinity: 2
      m_RotationOrder: 4
    path: SheepWHay
  - curve:
      serializedVersion: 2
      m_Curve:
      - serializedVersion: 3
        time: 0
        value: {x: 0, y: 0, z: 0}
        inSlope: {x: 0, y: 0, z: 0}
        outSlope: {x: 0, y: 0, z: 0}
        tangentMode: 0
        weightedMode: 0
        inWeight: {x: 0, y: 0.33333334, z: 0.33333334}
        outWeight: {x: 0, y: 0.33333334, z: 0.33333334}
      m_PreInfinity: 2
      m_PostInfinity: 2
      m_RotationOrder: 4
    path: SheepBHay
  m_FloatCurves:
  - curve:
      serializedVersion: 2
      m_Curve:
      - serializedVersion: 3
        time: 0
        value: 0
        inSlope: Infinity
        outSlope: Infinity
        tangentMode: 103
        weightedMode: 0
        inWeight: 0
        outWeight: 0
      m_PreInfinity: 2
      m_PostInfinity: 2
      m_RotationOrder: 4
    attribute: m_IsActive
    path: VFX_Holder
    classID: 1
    script: {fileID: 0}
  - curve:
      serializedVersion: 2
      m_Curve:
      - serializedVersion: 3
        time: 0
        value: 0
        inSlope: Infinity
        outSlope: Infinity
        tangentMode: 103
        weightedMode: 0
        inWeight: 0
        outWeight: 0
      m_PreInfinity: 2
      m_PostInfinity: 2
      m_RotationOrder: 4
    attribute: m_IsActive
    path: VFX_Holder/FX_Hay_01
    classID: 1
    script: {fileID: 0}
  - curve:
      serializedVersion: 2
      m_Curve:
      - serializedVersion: 3
        time: 0
        value: 176.80676
        inSlope: 0
        outSlope: 0
        tangentMode: 136
        weightedMode: 0
        inWeight: 0.33333334
        outWeight: 0.33333334
      m_PreInfinity: 2
      m_PostInfinity: 2
      m_RotationOrder: 4
    attribute: EmissionModule.rateOverTime.scalar
    path: VFX_Holder/FX_Hay_01/FX_Hay_02
    classID: 198
    script: {fileID: 0}
  - curve:
      serializedVersion: 2
      m_Curve:
      - serializedVersion: 3
        time: 0
        value: 0
        inSlope: Infinity
        outSlope: Infinity
        tangentMode: 103
        weightedMode: 0
        inWeight: 0
        outWeight: 0
      m_PreInfinity: 2
      m_PostInfinity: 2
      m_RotationOrder: 4
    attribute: m_IsActive
    path: VFX_Holder/FX_Hay_04
    classID: 1
    script: {fileID: 0}
  - curve:
      serializedVersion: 2
      m_Curve:
      - serializedVersion: 3
        time: 0
        value: 0
        inSlope: Infinity
        outSlope: Infinity
        tangentMode: 103
        weightedMode: 0
        inWeight: 0
        outWeight: 0
      m_PreInfinity: 2
      m_PostInfinity: 2
      m_RotationOrder: 4
    attribute: m_IsActive
    path: VFX_Holder/FX_Hay_03
    classID: 1
    script: {fileID: 0}
  - curve:
      serializedVersion: 2
      m_Curve:
      - serializedVersion: 3
        time: 0
        value: 0
        inSlope: Infinity
        outSlope: Infinity
        tangentMode: 103
        weightedMode: 0
        inWeight: 0
        outWeight: 0
      m_PreInfinity: 2
      m_PostInfinity: 2
      m_RotationOrder: 4
    attribute: m_IsActive
    path: VFX_Holder/FX_Hay_05
    classID: 1
    script: {fileID: 0}
  - curve:
      serializedVersion: 2
      m_Curve:
      - serializedVersion: 3
        time: 0
        value: 0
        inSlope: Infinity
        outSlope: Infinity
        tangentMode: 103
        weightedMode: 0
        inWeight: 0
        outWeight: 0
      m_PreInfinity: 2
      m_PostInfinity: 2
      m_RotationOrder: 4
    attribute: m_IsActive
    path: VFX_Holder/FX_Hay_06
    classID: 1
    script: {fileID: 0}
  - curve:
      serializedVersion: 2
      m_Curve:
      - serializedVersion: 3
        time: 0
        value: 55
        inSlope: 0
        outSlope: 0
        tangentMode: 136
        weightedMode: 0
        inWeight: 0.33333334
        outWeight: 0.33333334
      m_PreInfinity: 2
      m_PostInfinity: 2
      m_RotationOrder: 4
    attribute: EmissionModule.rateOverTime.scalar
    path: VFX_Holder/FX_Hay_06
    classID: 198
    script: {fileID: 0}
  - curve:
      serializedVersion: 2
      m_Curve:
      - serializedVersion: 3
        time: 0
        value: 0
        inSlope: Infinity
        outSlope: Infinity
        tangentMode: 103
        weightedMode: 0
        inWeight: 0
        outWeight: 0
      m_PreInfinity: 2
      m_PostInfinity: 2
      m_RotationOrder: 4
    attribute: EmissionModule.enabled
    path: SheepWHay/FX_Hay_05
    classID: 198
    script: {fileID: 0}
  - curve:
      serializedVersion: 2
      m_Curve:
      - serializedVersion: 3
        time: 0
        value: 0
        inSlope: Infinity
        outSlope: Infinity
        tangentMode: 103
        weightedMode: 0
        inWeight: 0
        outWeight: 0
      m_PreInfinity: 2
      m_PostInfinity: 2
      m_RotationOrder: 4
    attribute: EmissionModule.enabled
    path: SheepBHay/FX_Hay_05
    classID: 198
    script: {fileID: 0}
  m_PPtrCurves:
  - curve:
    - time: 0
      value: {fileID: -5725424381099731693, guid: cccd36e22e3b0d6428a8f11ec8b2b833,
        type: 3}
    attribute: m_Sprite
    path: SheepFold_ShovelMan
    classID: 212
    script: {fileID: 0}
  - curve:
    - time: 0
      value: {fileID: 896160635767706108, guid: cccd36e22e3b0d6428a8f11ec8b2b833,
        type: 3}
    attribute: m_Sprite
    path: SheepFold_PipeCleaner
    classID: 212
    script: {fileID: 0}
  - curve:
    - time: 0.33333334
      value: {fileID: -2521226081411251585, guid: cccd36e22e3b0d6428a8f11ec8b2b833,
        type: 3}
    - time: 0.36666667
      value: {fileID: -4124824511022205402, guid: cccd36e22e3b0d6428a8f11ec8b2b833,
        type: 3}
    - time: 0.4
      value: {fileID: -1003410155433589155, guid: cccd36e22e3b0d6428a8f11ec8b2b833,
        type: 3}
    - time: 0.43333334
      value: {fileID: -9065354538937511680, guid: cccd36e22e3b0d6428a8f11ec8b2b833,
        type: 3}
    - time: 0.46666667
      value: {fileID: 8512863626083645953, guid: cccd36e22e3b0d6428a8f11ec8b2b833,
        type: 3}
    - time: 0.5
      value: {fileID: 3744158436303246284, guid: cccd36e22e3b0d6428a8f11ec8b2b833,
        type: 3}
    - time: 0.53333336
      value: {fileID: -7327094968393131763, guid: cccd36e22e3b0d6428a8f11ec8b2b833,
        type: 3}
    - time: 0.56666666
      value: {fileID: -6580177700813447941, guid: cccd36e22e3b0d6428a8f11ec8b2b833,
        type: 3}
    - time: 0.6
      value: {fileID: -7024182147372186724, guid: cccd36e22e3b0d6428a8f11ec8b2b833,
        type: 3}
    - time: 0.6333333
      value: {fileID: -392159885322551280, guid: cccd36e22e3b0d6428a8f11ec8b2b833,
        type: 3}
    - time: 0.6666667
      value: {fileID: -3498805382825341647, guid: cccd36e22e3b0d6428a8f11ec8b2b833,
        type: 3}
    - time: 0.7
      value: {fileID: 6739794845961079856, guid: cccd36e22e3b0d6428a8f11ec8b2b833,
        type: 3}
    - time: 0.73333335
      value: {fileID: -7874453474051516134, guid: cccd36e22e3b0d6428a8f11ec8b2b833,
        type: 3}
    - time: 0.76666665
      value: {fileID: 2121222331045367835, guid: cccd36e22e3b0d6428a8f11ec8b2b833,
        type: 3}
    - time: 0.8
      value: {fileID: 6662036580606945159, guid: cccd36e22e3b0d6428a8f11ec8b2b833,
        type: 3}
    - time: 0.8333333
      value: {fileID: 5809268425885906080, guid: cccd36e22e3b0d6428a8f11ec8b2b833,
        type: 3}
    - time: 0.8666667
      value: {fileID: 2098298265573369756, guid: cccd36e22e3b0d6428a8f11ec8b2b833,
        type: 3}
    - time: 0.9
      value: {fileID: 7828737409386256695, guid: cccd36e22e3b0d6428a8f11ec8b2b833,
        type: 3}
    - time: 0.93333334
      value: {fileID: 5277323155534336458, guid: cccd36e22e3b0d6428a8f11ec8b2b833,
        type: 3}
    - time: 0.96666664
      value: {fileID: -8621960944102831449, guid: cccd36e22e3b0d6428a8f11ec8b2b833,
        type: 3}
    - time: 1
      value: {fileID: 3016389621788373650, guid: cccd36e22e3b0d6428a8f11ec8b2b833,
        type: 3}
    - time: 1.0333333
      value: {fileID: -2012520084961540187, guid: cccd36e22e3b0d6428a8f11ec8b2b833,
        type: 3}
    - time: 1.0666667
      value: {fileID: 6121801398101978347, guid: cccd36e22e3b0d6428a8f11ec8b2b833,
        type: 3}
    - time: 1.1
      value: {fileID: -5244653917110518482, guid: cccd36e22e3b0d6428a8f11ec8b2b833,
        type: 3}
    - time: 1.1333333
      value: {fileID: -8780065083361039394, guid: cccd36e22e3b0d6428a8f11ec8b2b833,
        type: 3}
    - time: 1.1666666
      value: {fileID: -3265808909050282462, guid: cccd36e22e3b0d6428a8f11ec8b2b833,
        type: 3}
    - time: 1.2
      value: {fileID: 6252401567784986578, guid: cccd36e22e3b0d6428a8f11ec8b2b833,
        type: 3}
    - time: 1.2333333
      value: {fileID: 3935067789994452061, guid: cccd36e22e3b0d6428a8f11ec8b2b833,
        type: 3}
    - time: 1.2666667
      value: {fileID: -3540247200818940413, guid: cccd36e22e3b0d6428a8f11ec8b2b833,
        type: 3}
    - time: 1.3
      value: {fileID: -7386011127641265118, guid: cccd36e22e3b0d6428a8f11ec8b2b833,
        type: 3}
    - time: 1.3333334
      value: {fileID: -674604154122579790, guid: cccd36e22e3b0d6428a8f11ec8b2b833,
        type: 3}
    - time: 1.3666667
      value: {fileID: 7798670954653291407, guid: cccd36e22e3b0d6428a8f11ec8b2b833,
        type: 3}
    - time: 1.4
      value: {fileID: 180518483320183816, guid: cccd36e22e3b0d6428a8f11ec8b2b833,
        type: 3}
    - time: 1.4333333
      value: {fileID: -7629203931979662621, guid: cccd36e22e3b0d6428a8f11ec8b2b833,
        type: 3}
    - time: 1.4666667
      value: {fileID: 5354817984183386405, guid: cccd36e22e3b0d6428a8f11ec8b2b833,
        type: 3}
    - time: 1.5
      value: {fileID: -5225202123665856644, guid: cccd36e22e3b0d6428a8f11ec8b2b833,
        type: 3}
    - time: 1.5333333
      value: {fileID: 5789771206480620361, guid: cccd36e22e3b0d6428a8f11ec8b2b833,
        type: 3}
    - time: 1.5666667
      value: {fileID: -8657118899885641237, guid: cccd36e22e3b0d6428a8f11ec8b2b833,
        type: 3}
    - time: 1.6
      value: {fileID: 570456163294139473, guid: cccd36e22e3b0d6428a8f11ec8b2b833,
        type: 3}
    - time: 1.6333333
      value: {fileID: 3482269963320222445, guid: cccd36e22e3b0d6428a8f11ec8b2b833,
        type: 3}
    - time: 1.6666666
      value: {fileID: 8101822263088839695, guid: cccd36e22e3b0d6428a8f11ec8b2b833,
        type: 3}
    - time: 1.7
      value: {fileID: -3089769685963708569, guid: cccd36e22e3b0d6428a8f11ec8b2b833,
        type: 3}
    - time: 1.7333333
      value: {fileID: -8148876604126915289, guid: cccd36e22e3b0d6428a8f11ec8b2b833,
        type: 3}
    - time: 1.7666667
      value: {fileID: -2196842662614524321, guid: cccd36e22e3b0d6428a8f11ec8b2b833,
        type: 3}
    - time: 1.8
      value: {fileID: 5008046091917938871, guid: cccd36e22e3b0d6428a8f11ec8b2b833,
        type: 3}
    - time: 1.8333334
      value: {fileID: -7307526318992316158, guid: cccd36e22e3b0d6428a8f11ec8b2b833,
        type: 3}
    - time: 1.8666667
      value: {fileID: 8398549650628823647, guid: cccd36e22e3b0d6428a8f11ec8b2b833,
        type: 3}
    - time: 1.9
      value: {fileID: -6840314371258081923, guid: cccd36e22e3b0d6428a8f11ec8b2b833,
        type: 3}
    - time: 1.9333333
      value: {fileID: 401999720402904424, guid: cccd36e22e3b0d6428a8f11ec8b2b833,
        type: 3}
    - time: 1.9666667
      value: {fileID: 6191386724114470514, guid: cccd36e22e3b0d6428a8f11ec8b2b833,
        type: 3}
    - time: 2
      value: {fileID: -8221924165119879106, guid: cccd36e22e3b0d6428a8f11ec8b2b833,
        type: 3}
    attribute: m_Sprite
    path: SheepFold_Body_B
    classID: 212
    script: {fileID: 0}
  - curve:
    - time: 0
      value: {fileID: -2521226081411251585, guid: cccd36e22e3b0d6428a8f11ec8b2b833,
        type: 3}
    - time: 0.033333335
      value: {fileID: -4124824511022205402, guid: cccd36e22e3b0d6428a8f11ec8b2b833,
        type: 3}
    - time: 0.06666667
      value: {fileID: -1003410155433589155, guid: cccd36e22e3b0d6428a8f11ec8b2b833,
        type: 3}
    - time: 0.1
      value: {fileID: -9065354538937511680, guid: cccd36e22e3b0d6428a8f11ec8b2b833,
        type: 3}
    - time: 0.13333334
      value: {fileID: 8512863626083645953, guid: cccd36e22e3b0d6428a8f11ec8b2b833,
        type: 3}
    - time: 0.16666667
      value: {fileID: 3744158436303246284, guid: cccd36e22e3b0d6428a8f11ec8b2b833,
        type: 3}
    - time: 0.2
      value: {fileID: -7327094968393131763, guid: cccd36e22e3b0d6428a8f11ec8b2b833,
        type: 3}
    - time: 0.23333333
      value: {fileID: -6580177700813447941, guid: cccd36e22e3b0d6428a8f11ec8b2b833,
        type: 3}
    - time: 0.26666668
      value: {fileID: -7024182147372186724, guid: cccd36e22e3b0d6428a8f11ec8b2b833,
        type: 3}
    - time: 0.3
      value: {fileID: -392159885322551280, guid: cccd36e22e3b0d6428a8f11ec8b2b833,
        type: 3}
    - time: 0.33333334
      value: {fileID: -3498805382825341647, guid: cccd36e22e3b0d6428a8f11ec8b2b833,
        type: 3}
    - time: 0.36666667
      value: {fileID: 6739794845961079856, guid: cccd36e22e3b0d6428a8f11ec8b2b833,
        type: 3}
    - time: 0.4
      value: {fileID: -7874453474051516134, guid: cccd36e22e3b0d6428a8f11ec8b2b833,
        type: 3}
    - time: 0.43333334
      value: {fileID: 2121222331045367835, guid: cccd36e22e3b0d6428a8f11ec8b2b833,
        type: 3}
    - time: 0.46666667
      value: {fileID: 6662036580606945159, guid: cccd36e22e3b0d6428a8f11ec8b2b833,
        type: 3}
    - time: 0.5
      value: {fileID: 5809268425885906080, guid: cccd36e22e3b0d6428a8f11ec8b2b833,
        type: 3}
    - time: 0.53333336
      value: {fileID: 2098298265573369756, guid: cccd36e22e3b0d6428a8f11ec8b2b833,
        type: 3}
    - time: 0.56666666
      value: {fileID: 7828737409386256695, guid: cccd36e22e3b0d6428a8f11ec8b2b833,
        type: 3}
    - time: 0.6
      value: {fileID: 5277323155534336458, guid: cccd36e22e3b0d6428a8f11ec8b2b833,
        type: 3}
    - time: 0.6333333
      value: {fileID: -8621960944102831449, guid: cccd36e22e3b0d6428a8f11ec8b2b833,
        type: 3}
    - time: 0.6666667
      value: {fileID: 3016389621788373650, guid: cccd36e22e3b0d6428a8f11ec8b2b833,
        type: 3}
    - time: 0.7
      value: {fileID: -2012520084961540187, guid: cccd36e22e3b0d6428a8f11ec8b2b833,
        type: 3}
    - time: 0.73333335
      value: {fileID: 6121801398101978347, guid: cccd36e22e3b0d6428a8f11ec8b2b833,
        type: 3}
    - time: 0.76666665
      value: {fileID: -5244653917110518482, guid: cccd36e22e3b0d6428a8f11ec8b2b833,
        type: 3}
    - time: 0.8
      value: {fileID: -8780065083361039394, guid: cccd36e22e3b0d6428a8f11ec8b2b833,
        type: 3}
    - time: 0.8333333
      value: {fileID: -3265808909050282462, guid: cccd36e22e3b0d6428a8f11ec8b2b833,
        type: 3}
    - time: 0.8666667
      value: {fileID: 6252401567784986578, guid: cccd36e22e3b0d6428a8f11ec8b2b833,
        type: 3}
    - time: 0.9
      value: {fileID: 3935067789994452061, guid: cccd36e22e3b0d6428a8f11ec8b2b833,
        type: 3}
    - time: 0.93333334
      value: {fileID: -3540247200818940413, guid: cccd36e22e3b0d6428a8f11ec8b2b833,
        type: 3}
    - time: 0.96666664
      value: {fileID: -7386011127641265118, guid: cccd36e22e3b0d6428a8f11ec8b2b833,
        type: 3}
    - time: 1
      value: {fileID: -674604154122579790, guid: cccd36e22e3b0d6428a8f11ec8b2b833,
        type: 3}
    - time: 1.0333333
      value: {fileID: 7798670954653291407, guid: cccd36e22e3b0d6428a8f11ec8b2b833,
        type: 3}
    - time: 1.0666667
      value: {fileID: 180518483320183816, guid: cccd36e22e3b0d6428a8f11ec8b2b833,
        type: 3}
    - time: 1.1
      value: {fileID: -7629203931979662621, guid: cccd36e22e3b0d6428a8f11ec8b2b833,
        type: 3}
    - time: 1.1333333
      value: {fileID: 5354817984183386405, guid: cccd36e22e3b0d6428a8f11ec8b2b833,
        type: 3}
    - time: 1.1666666
      value: {fileID: -5225202123665856644, guid: cccd36e22e3b0d6428a8f11ec8b2b833,
        type: 3}
    - time: 1.2
      value: {fileID: 5789771206480620361, guid: cccd36e22e3b0d6428a8f11ec8b2b833,
        type: 3}
    - time: 1.2333333
      value: {fileID: -8657118899885641237, guid: cccd36e22e3b0d6428a8f11ec8b2b833,
        type: 3}
    - time: 1.2666667
      value: {fileID: 570456163294139473, guid: cccd36e22e3b0d6428a8f11ec8b2b833,
        type: 3}
    - time: 1.3
      value: {fileID: 3482269963320222445, guid: cccd36e22e3b0d6428a8f11ec8b2b833,
        type: 3}
    - time: 1.3333334
      value: {fileID: 8101822263088839695, guid: cccd36e22e3b0d6428a8f11ec8b2b833,
        type: 3}
    - time: 1.3666667
      value: {fileID: -3089769685963708569, guid: cccd36e22e3b0d6428a8f11ec8b2b833,
        type: 3}
    - time: 1.4
      value: {fileID: -8148876604126915289, guid: cccd36e22e3b0d6428a8f11ec8b2b833,
        type: 3}
    - time: 1.4333333
      value: {fileID: -2196842662614524321, guid: cccd36e22e3b0d6428a8f11ec8b2b833,
        type: 3}
    - time: 1.4666667
      value: {fileID: 5008046091917938871, guid: cccd36e22e3b0d6428a8f11ec8b2b833,
        type: 3}
    - time: 1.5
      value: {fileID: -7307526318992316158, guid: cccd36e22e3b0d6428a8f11ec8b2b833,
        type: 3}
    - time: 1.5333333
      value: {fileID: 8398549650628823647, guid: cccd36e22e3b0d6428a8f11ec8b2b833,
        type: 3}
    - time: 1.5666667
      value: {fileID: -6840314371258081923, guid: cccd36e22e3b0d6428a8f11ec8b2b833,
        type: 3}
    - time: 1.6
      value: {fileID: 401999720402904424, guid: cccd36e22e3b0d6428a8f11ec8b2b833,
        type: 3}
    - time: 1.6333333
      value: {fileID: 6191386724114470514, guid: cccd36e22e3b0d6428a8f11ec8b2b833,
        type: 3}
    - time: 1.6666666
      value: {fileID: -8221924165119879106, guid: cccd36e22e3b0d6428a8f11ec8b2b833,
        type: 3}
    attribute: m_Sprite
    path: SheepFold_Body_W
    classID: 212
    script: {fileID: 0}
  - curve:
    - time: 0
      value: {fileID: 5455914542968546642, guid: cccd36e22e3b0d6428a8f11ec8b2b833,
        type: 3}
    - time: 0.033333335
      value: {fileID: -920757952276850191, guid: cccd36e22e3b0d6428a8f11ec8b2b833,
        type: 3}
    - time: 0.06666667
      value: {fileID: 2770189312419932377, guid: cccd36e22e3b0d6428a8f11ec8b2b833,
        type: 3}
    - time: 0.1
      value: {fileID: -9086936963805764838, guid: cccd36e22e3b0d6428a8f11ec8b2b833,
        type: 3}
    - time: 0.13333334
      value: {fileID: -4585970211794754709, guid: cccd36e22e3b0d6428a8f11ec8b2b833,
        type: 3}
    - time: 0.16666667
      value: {fileID: -4161501637247307455, guid: cccd36e22e3b0d6428a8f11ec8b2b833,
        type: 3}
    - time: 0.2
      value: {fileID: -7250773500211617747, guid: cccd36e22e3b0d6428a8f11ec8b2b833,
        type: 3}
    - time: 0.23333333
      value: {fileID: 6843791745091888875, guid: cccd36e22e3b0d6428a8f11ec8b2b833,
        type: 3}
    - time: 0.26666668
      value: {fileID: 9020568835531731863, guid: cccd36e22e3b0d6428a8f11ec8b2b833,
        type: 3}
    - time: 0.3
      value: {fileID: 4241331040136699129, guid: cccd36e22e3b0d6428a8f11ec8b2b833,
        type: 3}
    - time: 0.33333334
      value: {fileID: 9026477628846756500, guid: cccd36e22e3b0d6428a8f11ec8b2b833,
        type: 3}
    - time: 0.36666667
      value: {fileID: -8688953832268277259, guid: cccd36e22e3b0d6428a8f11ec8b2b833,
        type: 3}
    - time: 0.4
      value: {fileID: 1934633767865003837, guid: cccd36e22e3b0d6428a8f11ec8b2b833,
        type: 3}
    - time: 0.43333334
      value: {fileID: -6903814737469589920, guid: cccd36e22e3b0d6428a8f11ec8b2b833,
        type: 3}
    - time: 0.46666667
      value: {fileID: -8952187152716110654, guid: cccd36e22e3b0d6428a8f11ec8b2b833,
        type: 3}
    - time: 0.5
      value: {fileID: 1247822853617214303, guid: cccd36e22e3b0d6428a8f11ec8b2b833,
        type: 3}
    - time: 0.53333336
      value: {fileID: -3374946701518119620, guid: cccd36e22e3b0d6428a8f11ec8b2b833,
        type: 3}
    - time: 0.56666666
      value: {fileID: -7678051773442569366, guid: cccd36e22e3b0d6428a8f11ec8b2b833,
        type: 3}
    - time: 0.6
      value: {fileID: -3252877951690613741, guid: cccd36e22e3b0d6428a8f11ec8b2b833,
        type: 3}
    - time: 0.6333333
      value: {fileID: 823031902172280860, guid: cccd36e22e3b0d6428a8f11ec8b2b833,
        type: 3}
    - time: 0.6666667
      value: {fileID: -8888466563082454221, guid: cccd36e22e3b0d6428a8f11ec8b2b833,
        type: 3}
    - time: 0.7
      value: {fileID: 3784342562118472815, guid: cccd36e22e3b0d6428a8f11ec8b2b833,
        type: 3}
    - time: 0.73333335
      value: {fileID: -6732065408224182795, guid: cccd36e22e3b0d6428a8f11ec8b2b833,
        type: 3}
    - time: 0.76666665
      value: {fileID: 930540414735164025, guid: cccd36e22e3b0d6428a8f11ec8b2b833,
        type: 3}
    - time: 0.8
      value: {fileID: 284645272263433051, guid: cccd36e22e3b0d6428a8f11ec8b2b833,
        type: 3}
    - time: 0.8333333
      value: {fileID: -1275042641951773488, guid: cccd36e22e3b0d6428a8f11ec8b2b833,
        type: 3}
    - time: 0.8666667
      value: {fileID: -4125711642485161255, guid: cccd36e22e3b0d6428a8f11ec8b2b833,
        type: 3}
    - time: 0.9
      value: {fileID: -2533216079136893333, guid: cccd36e22e3b0d6428a8f11ec8b2b833,
        type: 3}
    - time: 0.93333334
      value: {fileID: -19906458993874405, guid: cccd36e22e3b0d6428a8f11ec8b2b833,
        type: 3}
    - time: 0.96666664
      value: {fileID: 9160784082617336721, guid: cccd36e22e3b0d6428a8f11ec8b2b833,
        type: 3}
    - time: 1
      value: {fileID: 5930172196049829853, guid: cccd36e22e3b0d6428a8f11ec8b2b833,
        type: 3}
    - time: 1.0333333
      value: {fileID: -1415199965279390874, guid: cccd36e22e3b0d6428a8f11ec8b2b833,
        type: 3}
    - time: 1.0666667
      value: {fileID: 716543182664766009, guid: cccd36e22e3b0d6428a8f11ec8b2b833,
        type: 3}
    - time: 1.1
      value: {fileID: -337547204797895098, guid: cccd36e22e3b0d6428a8f11ec8b2b833,
        type: 3}
    - time: 1.1333333
      value: {fileID: -6580105710844750718, guid: cccd36e22e3b0d6428a8f11ec8b2b833,
        type: 3}
    - time: 1.1666666
      value: {fileID: -7044574800090089877, guid: cccd36e22e3b0d6428a8f11ec8b2b833,
        type: 3}
    - time: 1.2
      value: {fileID: 7880881305669399348, guid: cccd36e22e3b0d6428a8f11ec8b2b833,
        type: 3}
    - time: 1.2333333
      value: {fileID: -2398209668020049424, guid: cccd36e22e3b0d6428a8f11ec8b2b833,
        type: 3}
    - time: 1.2666667
      value: {fileID: 3724430020912934546, guid: cccd36e22e3b0d6428a8f11ec8b2b833,
        type: 3}
    - time: 1.3
      value: {fileID: 8923772802525113186, guid: cccd36e22e3b0d6428a8f11ec8b2b833,
        type: 3}
    - time: 1.3333334
      value: {fileID: -4844304411700992360, guid: cccd36e22e3b0d6428a8f11ec8b2b833,
        type: 3}
    - time: 1.3666667
      value: {fileID: -5088845841080935640, guid: cccd36e22e3b0d6428a8f11ec8b2b833,
        type: 3}
    - time: 1.4
      value: {fileID: -1412297172821965094, guid: cccd36e22e3b0d6428a8f11ec8b2b833,
        type: 3}
    - time: 1.4333333
      value: {fileID: 5926650758261085713, guid: cccd36e22e3b0d6428a8f11ec8b2b833,
        type: 3}
    - time: 1.4666667
      value: {fileID: -7997262269111558792, guid: cccd36e22e3b0d6428a8f11ec8b2b833,
        type: 3}
    - time: 1.5
      value: {fileID: 3325882969439828307, guid: cccd36e22e3b0d6428a8f11ec8b2b833,
        type: 3}
    - time: 1.5333333
      value: {fileID: 5517357930900918038, guid: cccd36e22e3b0d6428a8f11ec8b2b833,
        type: 3}
    - time: 1.5666667
      value: {fileID: -6340972762523033479, guid: cccd36e22e3b0d6428a8f11ec8b2b833,
        type: 3}
    - time: 1.6
      value: {fileID: 8411724100084337477, guid: cccd36e22e3b0d6428a8f11ec8b2b833,
        type: 3}
    - time: 1.6333333
      value: {fileID: 1257872932261380429, guid: cccd36e22e3b0d6428a8f11ec8b2b833,
        type: 3}
    - time: 1.6666666
      value: {fileID: 2433653240706843058, guid: cccd36e22e3b0d6428a8f11ec8b2b833,
        type: 3}
    attribute: m_Sprite
    path: SheepFold_Head_W
    classID: 212
    script: {fileID: 0}
  - curve:
    - time: 0.33333334
      value: {fileID: -916476059405812759, guid: cccd36e22e3b0d6428a8f11ec8b2b833,
        type: 3}
    - time: 0.36666667
      value: {fileID: 2515599880021368686, guid: cccd36e22e3b0d6428a8f11ec8b2b833,
        type: 3}
    - time: 0.4
      value: {fileID: -4582080120869649192, guid: cccd36e22e3b0d6428a8f11ec8b2b833,
        type: 3}
    - time: 0.43333334
      value: {fileID: -4334093884845384305, guid: cccd36e22e3b0d6428a8f11ec8b2b833,
        type: 3}
    - time: 0.46666667
      value: {fileID: 7194682698602433253, guid: cccd36e22e3b0d6428a8f11ec8b2b833,
        type: 3}
    - time: 0.5
      value: {fileID: 3903658591054595727, guid: cccd36e22e3b0d6428a8f11ec8b2b833,
        type: 3}
    - time: 0.53333336
      value: {fileID: 112521757867127478, guid: cccd36e22e3b0d6428a8f11ec8b2b833,
        type: 3}
    - time: 0.56666666
      value: {fileID: -2899967669842169289, guid: cccd36e22e3b0d6428a8f11ec8b2b833,
        type: 3}
    - time: 0.6
      value: {fileID: -6438013161259803602, guid: cccd36e22e3b0d6428a8f11ec8b2b833,
        type: 3}
    - time: 0.6333333
      value: {fileID: 1030631950696336292, guid: cccd36e22e3b0d6428a8f11ec8b2b833,
        type: 3}
    - time: 0.6666667
      value: {fileID: -5229425086561988173, guid: cccd36e22e3b0d6428a8f11ec8b2b833,
        type: 3}
    - time: 0.7
      value: {fileID: -1835466464029886186, guid: cccd36e22e3b0d6428a8f11ec8b2b833,
        type: 3}
    - time: 0.73333335
      value: {fileID: 7699212241335784750, guid: cccd36e22e3b0d6428a8f11ec8b2b833,
        type: 3}
    - time: 0.76666665
      value: {fileID: 5647903226006834910, guid: cccd36e22e3b0d6428a8f11ec8b2b833,
        type: 3}
    - time: 0.8
      value: {fileID: -5251039617855633401, guid: cccd36e22e3b0d6428a8f11ec8b2b833,
        type: 3}
    - time: 0.8333333
      value: {fileID: -2628375946501334184, guid: cccd36e22e3b0d6428a8f11ec8b2b833,
        type: 3}
    - time: 0.8666667
      value: {fileID: 7810937057622159102, guid: cccd36e22e3b0d6428a8f11ec8b2b833,
        type: 3}
    - time: 0.9
      value: {fileID: -8379624215975423390, guid: cccd36e22e3b0d6428a8f11ec8b2b833,
        type: 3}
    - time: 0.93333334
      value: {fileID: -5802749866996030786, guid: cccd36e22e3b0d6428a8f11ec8b2b833,
        type: 3}
    - time: 0.96666664
      value: {fileID: 7220568091010401072, guid: cccd36e22e3b0d6428a8f11ec8b2b833,
        type: 3}
    - time: 1
      value: {fileID: -5502550885983107868, guid: cccd36e22e3b0d6428a8f11ec8b2b833,
        type: 3}
    - time: 1.0333333
      value: {fileID: -1139132584524211932, guid: cccd36e22e3b0d6428a8f11ec8b2b833,
        type: 3}
    - time: 1.0666667
      value: {fileID: -1998903084659181614, guid: cccd36e22e3b0d6428a8f11ec8b2b833,
        type: 3}
    - time: 1.1
      value: {fileID: -8687709012495735916, guid: cccd36e22e3b0d6428a8f11ec8b2b833,
        type: 3}
    - time: 1.1333333
      value: {fileID: 1758479330776762856, guid: cccd36e22e3b0d6428a8f11ec8b2b833,
        type: 3}
    - time: 1.1666666
      value: {fileID: -3213801673890255144, guid: cccd36e22e3b0d6428a8f11ec8b2b833,
        type: 3}
    - time: 1.2
      value: {fileID: 8710987147250517779, guid: cccd36e22e3b0d6428a8f11ec8b2b833,
        type: 3}
    - time: 1.2333333
      value: {fileID: -7123407600345224185, guid: cccd36e22e3b0d6428a8f11ec8b2b833,
        type: 3}
    - time: 1.2666667
      value: {fileID: -1114710788379245068, guid: cccd36e22e3b0d6428a8f11ec8b2b833,
        type: 3}
    - time: 1.3
      value: {fileID: -6905806132796042043, guid: cccd36e22e3b0d6428a8f11ec8b2b833,
        type: 3}
    - time: 1.3333334
      value: {fileID: 6553208543107790862, guid: cccd36e22e3b0d6428a8f11ec8b2b833,
        type: 3}
    - time: 1.3666667
      value: {fileID: 6589343893222483025, guid: cccd36e22e3b0d6428a8f11ec8b2b833,
        type: 3}
    - time: 1.4
      value: {fileID: 5859932910168145526, guid: cccd36e22e3b0d6428a8f11ec8b2b833,
        type: 3}
    - time: 1.4333333
      value: {fileID: 1825393115929950464, guid: cccd36e22e3b0d6428a8f11ec8b2b833,
        type: 3}
    - time: 1.4666667
      value: {fileID: 2269272011985349857, guid: cccd36e22e3b0d6428a8f11ec8b2b833,
        type: 3}
    - time: 1.5
      value: {fileID: -1802884291456385669, guid: cccd36e22e3b0d6428a8f11ec8b2b833,
        type: 3}
    - time: 1.5333333
      value: {fileID: 1152663908600967638, guid: cccd36e22e3b0d6428a8f11ec8b2b833,
        type: 3}
    - time: 1.5666667
      value: {fileID: 1318801914315032695, guid: cccd36e22e3b0d6428a8f11ec8b2b833,
        type: 3}
    - time: 1.6
      value: {fileID: 1680751958640895798, guid: cccd36e22e3b0d6428a8f11ec8b2b833,
        type: 3}
    - time: 1.6333333
      value: {fileID: 7409832564608693150, guid: cccd36e22e3b0d6428a8f11ec8b2b833,
        type: 3}
    - time: 1.6666666
      value: {fileID: 8455475741829621298, guid: cccd36e22e3b0d6428a8f11ec8b2b833,
        type: 3}
    - time: 1.7
      value: {fileID: -9209069207818911546, guid: cccd36e22e3b0d6428a8f11ec8b2b833,
        type: 3}
    - time: 1.7333333
      value: {fileID: -1593210911860108163, guid: cccd36e22e3b0d6428a8f11ec8b2b833,
        type: 3}
    - time: 1.7666667
      value: {fileID: -5397587911279610010, guid: cccd36e22e3b0d6428a8f11ec8b2b833,
        type: 3}
    - time: 1.8
      value: {fileID: -8166631773468401015, guid: cccd36e22e3b0d6428a8f11ec8b2b833,
        type: 3}
    - time: 1.8333334
      value: {fileID: 8513221564419919918, guid: cccd36e22e3b0d6428a8f11ec8b2b833,
        type: 3}
    - time: 1.8666667
      value: {fileID: -3437104185223769662, guid: cccd36e22e3b0d6428a8f11ec8b2b833,
        type: 3}
    - time: 1.9
      value: {fileID: -2043367983760246030, guid: cccd36e22e3b0d6428a8f11ec8b2b833,
        type: 3}
    - time: 1.9333333
      value: {fileID: -7402403978803133231, guid: cccd36e22e3b0d6428a8f11ec8b2b833,
        type: 3}
    - time: 1.9666667
      value: {fileID: -733009142624168887, guid: cccd36e22e3b0d6428a8f11ec8b2b833,
        type: 3}
    - time: 2
      value: {fileID: 1529512574207692538, guid: cccd36e22e3b0d6428a8f11ec8b2b833,
        type: 3}
    attribute: m_Sprite
    path: SheepFold_Head_B
    classID: 212
    script: {fileID: 0}
  m_SampleRate: 30
  m_WrapMode: 2
  m_Bounds:
    m_Center: {x: 0, y: 0, z: 0}
    m_Extent: {x: 0, y: 0, z: 0}
  m_ClipBindingConstant:
    genericBindings:
    - serializedVersion: 2
      path: 1726728476
      attribute: 3
      script: {fileID: 0}
      typeID: 4
      customType: 0
      isPPtrCurve: 0
    - serializedVersion: 2
      path: 1227227803
      attribute: 3
      script: {fileID: 0}
      typeID: 4
      customType: 0
      isPPtrCurve: 0
    - serializedVersion: 2
      path: 3381680625
      attribute: 2086281974
      script: {fileID: 0}
      typeID: 1
      customType: 0
      isPPtrCurve: 0
    - serializedVersion: 2
      path: 1281762054
      attribute: 2086281974
      script: {fileID: 0}
      typeID: 1
      customType: 0
      isPPtrCurve: 0
    - serializedVersion: 2
      path: 1007474569
      attribute: 2086281974
      script: {fileID: 0}
      typeID: 1
      customType: 0
      isPPtrCurve: 0
    - serializedVersion: 2
      path: 2724741674
      attribute: 2086281974
      script: {fileID: 0}
      typeID: 1
      customType: 0
      isPPtrCurve: 0
    - serializedVersion: 2
      path: 1259071263
      attribute: 2086281974
      script: {fileID: 0}
      typeID: 1
      customType: 0
      isPPtrCurve: 0
    - serializedVersion: 2
      path: 3523393189
      attribute: 2086281974
      script: {fileID: 0}
      typeID: 1
      customType: 0
      isPPtrCurve: 0
    - serializedVersion: 2
      path: 2041205191
      attribute: 1087013301
      script: {fileID: 0}
      typeID: 198
      customType: 27
      isPPtrCurve: 0
    - serializedVersion: 2
      path: 2612724678
      attribute: 1087013301
      script: {fileID: 0}
      typeID: 198
      customType: 27
      isPPtrCurve: 0
    - serializedVersion: 2
      path: 1726728476
      attribute: 0
      script: {fileID: 0}
      typeID: 212
      customType: 23
      isPPtrCurve: 1
    - serializedVersion: 2
      path: 1227227803
      attribute: 0
      script: {fileID: 0}
      typeID: 212
      customType: 23
      isPPtrCurve: 1
    - serializedVersion: 2
      path: 2305320947
      attribute: 0
      script: {fileID: 0}
      typeID: 212
      customType: 23
      isPPtrCurve: 1
    - serializedVersion: 2
      path: 3837100824
      attribute: 0
      script: {fileID: 0}
      typeID: 212
      customType: 23
      isPPtrCurve: 1
    - serializedVersion: 2
      path: 750680270
      attribute: 0
      script: {fileID: 0}
      typeID: 212
      customType: 23
      isPPtrCurve: 1
    - serializedVersion: 2
      path: 1097047077
      attribute: 0
      script: {fileID: 0}
      typeID: 212
      customType: 23
      isPPtrCurve: 1
    - serializedVersion: 2
      path: 1281762054
      attribute: 1
      script: {fileID: 0}
      typeID: 4
      customType: 0
      isPPtrCurve: 0
    - serializedVersion: 2
      path: 1259071263
      attribute: 1
      script: {fileID: 0}
      typeID: 4
      customType: 0
      isPPtrCurve: 0
    - serializedVersion: 2
      path: 3523393189
      attribute: 1
      script: {fileID: 0}
      typeID: 4
      customType: 0
      isPPtrCurve: 0
    - serializedVersion: 2
      path: 2882647914
      attribute: 3
      script: {fileID: 0}
      typeID: 4
      customType: 0
      isPPtrCurve: 0
    - serializedVersion: 2
      path: 3423998151
      attribute: 3
      script: {fileID: 0}
      typeID: 4
      customType: 0
      isPPtrCurve: 0
    - serializedVersion: 2
      path: 2706928783
      attribute: 2883525743
      script: {fileID: 0}
      typeID: 198
      customType: 27
      isPPtrCurve: 0
    - serializedVersion: 2
      path: 3523393189
      attribute: 2883525743
      script: {fileID: 0}
      typeID: 198
      customType: 27
      isPPtrCurve: 0
    pptrCurveMapping:
    - {fileID: -5725424381099731693, guid: cccd36e22e3b0d6428a8f11ec8b2b833, type: 3}
    - {fileID: 896160635767706108, guid: cccd36e22e3b0d6428a8f11ec8b2b833, type: 3}
    - {fileID: -2521226081411251585, guid: cccd36e22e3b0d6428a8f11ec8b2b833, type: 3}
    - {fileID: -4124824511022205402, guid: cccd36e22e3b0d6428a8f11ec8b2b833, type: 3}
    - {fileID: -1003410155433589155, guid: cccd36e22e3b0d6428a8f11ec8b2b833, type: 3}
    - {fileID: -9065354538937511680, guid: cccd36e22e3b0d6428a8f11ec8b2b833, type: 3}
    - {fileID: 8512863626083645953, guid: cccd36e22e3b0d6428a8f11ec8b2b833, type: 3}
    - {fileID: 3744158436303246284, guid: cccd36e22e3b0d6428a8f11ec8b2b833, type: 3}
    - {fileID: -7327094968393131763, guid: cccd36e22e3b0d6428a8f11ec8b2b833, type: 3}
    - {fileID: -6580177700813447941, guid: cccd36e22e3b0d6428a8f11ec8b2b833, type: 3}
    - {fileID: -7024182147372186724, guid: cccd36e22e3b0d6428a8f11ec8b2b833, type: 3}
    - {fileID: -392159885322551280, guid: cccd36e22e3b0d6428a8f11ec8b2b833, type: 3}
    - {fileID: -3498805382825341647, guid: cccd36e22e3b0d6428a8f11ec8b2b833, type: 3}
    - {fileID: 6739794845961079856, guid: cccd36e22e3b0d6428a8f11ec8b2b833, type: 3}
    - {fileID: -7874453474051516134, guid: cccd36e22e3b0d6428a8f11ec8b2b833, type: 3}
    - {fileID: 2121222331045367835, guid: cccd36e22e3b0d6428a8f11ec8b2b833, type: 3}
    - {fileID: 6662036580606945159, guid: cccd36e22e3b0d6428a8f11ec8b2b833, type: 3}
    - {fileID: 5809268425885906080, guid: cccd36e22e3b0d6428a8f11ec8b2b833, type: 3}
    - {fileID: 2098298265573369756, guid: cccd36e22e3b0d6428a8f11ec8b2b833, type: 3}
    - {fileID: 7828737409386256695, guid: cccd36e22e3b0d6428a8f11ec8b2b833, type: 3}
    - {fileID: 5277323155534336458, guid: cccd36e22e3b0d6428a8f11ec8b2b833, type: 3}
    - {fileID: -8621960944102831449, guid: cccd36e22e3b0d6428a8f11ec8b2b833, type: 3}
    - {fileID: 3016389621788373650, guid: cccd36e22e3b0d6428a8f11ec8b2b833, type: 3}
    - {fileID: -2012520084961540187, guid: cccd36e22e3b0d6428a8f11ec8b2b833, type: 3}
    - {fileID: 6121801398101978347, guid: cccd36e22e3b0d6428a8f11ec8b2b833, type: 3}
    - {fileID: -5244653917110518482, guid: cccd36e22e3b0d6428a8f11ec8b2b833, type: 3}
    - {fileID: -8780065083361039394, guid: cccd36e22e3b0d6428a8f11ec8b2b833, type: 3}
    - {fileID: -3265808909050282462, guid: cccd36e22e3b0d6428a8f11ec8b2b833, type: 3}
    - {fileID: 6252401567784986578, guid: cccd36e22e3b0d6428a8f11ec8b2b833, type: 3}
    - {fileID: 3935067789994452061, guid: cccd36e22e3b0d6428a8f11ec8b2b833, type: 3}
    - {fileID: -3540247200818940413, guid: cccd36e22e3b0d6428a8f11ec8b2b833, type: 3}
    - {fileID: -7386011127641265118, guid: cccd36e22e3b0d6428a8f11ec8b2b833, type: 3}
    - {fileID: -674604154122579790, guid: cccd36e22e3b0d6428a8f11ec8b2b833, type: 3}
    - {fileID: 7798670954653291407, guid: cccd36e22e3b0d6428a8f11ec8b2b833, type: 3}
    - {fileID: 180518483320183816, guid: cccd36e22e3b0d6428a8f11ec8b2b833, type: 3}
    - {fileID: -7629203931979662621, guid: cccd36e22e3b0d6428a8f11ec8b2b833, type: 3}
    - {fileID: 5354817984183386405, guid: cccd36e22e3b0d6428a8f11ec8b2b833, type: 3}
    - {fileID: -5225202123665856644, guid: cccd36e22e3b0d6428a8f11ec8b2b833, type: 3}
    - {fileID: 5789771206480620361, guid: cccd36e22e3b0d6428a8f11ec8b2b833, type: 3}
    - {fileID: -8657118899885641237, guid: cccd36e22e3b0d6428a8f11ec8b2b833, type: 3}
    - {fileID: 570456163294139473, guid: cccd36e22e3b0d6428a8f11ec8b2b833, type: 3}
    - {fileID: 3482269963320222445, guid: cccd36e22e3b0d6428a8f11ec8b2b833, type: 3}
    - {fileID: 8101822263088839695, guid: cccd36e22e3b0d6428a8f11ec8b2b833, type: 3}
    - {fileID: -3089769685963708569, guid: cccd36e22e3b0d6428a8f11ec8b2b833, type: 3}
    - {fileID: -8148876604126915289, guid: cccd36e22e3b0d6428a8f11ec8b2b833, type: 3}
    - {fileID: -2196842662614524321, guid: cccd36e22e3b0d6428a8f11ec8b2b833, type: 3}
    - {fileID: 5008046091917938871, guid: cccd36e22e3b0d6428a8f11ec8b2b833, type: 3}
    - {fileID: -7307526318992316158, guid: cccd36e22e3b0d6428a8f11ec8b2b833, type: 3}
    - {fileID: 8398549650628823647, guid: cccd36e22e3b0d6428a8f11ec8b2b833, type: 3}
    - {fileID: -6840314371258081923, guid: cccd36e22e3b0d6428a8f11ec8b2b833, type: 3}
    - {fileID: 401999720402904424, guid: cccd36e22e3b0d6428a8f11ec8b2b833, type: 3}
    - {fileID: 6191386724114470514, guid: cccd36e22e3b0d6428a8f11ec8b2b833, type: 3}
    - {fileID: -8221924165119879106, guid: cccd36e22e3b0d6428a8f11ec8b2b833, type: 3}
    - {fileID: -2521226081411251585, guid: cccd36e22e3b0d6428a8f11ec8b2b833, type: 3}
    - {fileID: -4124824511022205402, guid: cccd36e22e3b0d6428a8f11ec8b2b833, type: 3}
    - {fileID: -1003410155433589155, guid: cccd36e22e3b0d6428a8f11ec8b2b833, type: 3}
    - {fileID: -9065354538937511680, guid: cccd36e22e3b0d6428a8f11ec8b2b833, type: 3}
    - {fileID: 8512863626083645953, guid: cccd36e22e3b0d6428a8f11ec8b2b833, type: 3}
    - {fileID: 3744158436303246284, guid: cccd36e22e3b0d6428a8f11ec8b2b833, type: 3}
    - {fileID: -7327094968393131763, guid: cccd36e22e3b0d6428a8f11ec8b2b833, type: 3}
    - {fileID: -6580177700813447941, guid: cccd36e22e3b0d6428a8f11ec8b2b833, type: 3}
    - {fileID: -7024182147372186724, guid: cccd36e22e3b0d6428a8f11ec8b2b833, type: 3}
    - {fileID: -392159885322551280, guid: cccd36e22e3b0d6428a8f11ec8b2b833, type: 3}
    - {fileID: -3498805382825341647, guid: cccd36e22e3b0d6428a8f11ec8b2b833, type: 3}
    - {fileID: 6739794845961079856, guid: cccd36e22e3b0d6428a8f11ec8b2b833, type: 3}
    - {fileID: -7874453474051516134, guid: cccd36e22e3b0d6428a8f11ec8b2b833, type: 3}
    - {fileID: 2121222331045367835, guid: cccd36e22e3b0d6428a8f11ec8b2b833, type: 3}
    - {fileID: 6662036580606945159, guid: cccd36e22e3b0d6428a8f11ec8b2b833, type: 3}
    - {fileID: 5809268425885906080, guid: cccd36e22e3b0d6428a8f11ec8b2b833, type: 3}
    - {fileID: 2098298265573369756, guid: cccd36e22e3b0d6428a8f11ec8b2b833, type: 3}
    - {fileID: 7828737409386256695, guid: cccd36e22e3b0d6428a8f11ec8b2b833, type: 3}
    - {fileID: 5277323155534336458, guid: cccd36e22e3b0d6428a8f11ec8b2b833, type: 3}
    - {fileID: -8621960944102831449, guid: cccd36e22e3b0d6428a8f11ec8b2b833, type: 3}
    - {fileID: 3016389621788373650, guid: cccd36e22e3b0d6428a8f11ec8b2b833, type: 3}
    - {fileID: -2012520084961540187, guid: cccd36e22e3b0d6428a8f11ec8b2b833, type: 3}
    - {fileID: 6121801398101978347, guid: cccd36e22e3b0d6428a8f11ec8b2b833, type: 3}
    - {fileID: -5244653917110518482, guid: cccd36e22e3b0d6428a8f11ec8b2b833, type: 3}
    - {fileID: -8780065083361039394, guid: cccd36e22e3b0d6428a8f11ec8b2b833, type: 3}
    - {fileID: -3265808909050282462, guid: cccd36e22e3b0d6428a8f11ec8b2b833, type: 3}
    - {fileID: 6252401567784986578, guid: cccd36e22e3b0d6428a8f11ec8b2b833, type: 3}
    - {fileID: 3935067789994452061, guid: cccd36e22e3b0d6428a8f11ec8b2b833, type: 3}
    - {fileID: -3540247200818940413, guid: cccd36e22e3b0d6428a8f11ec8b2b833, type: 3}
    - {fileID: -7386011127641265118, guid: cccd36e22e3b0d6428a8f11ec8b2b833, type: 3}
    - {fileID: -674604154122579790, guid: cccd36e22e3b0d6428a8f11ec8b2b833, type: 3}
    - {fileID: 7798670954653291407, guid: cccd36e22e3b0d6428a8f11ec8b2b833, type: 3}
    - {fileID: 180518483320183816, guid: cccd36e22e3b0d6428a8f11ec8b2b833, type: 3}
    - {fileID: -7629203931979662621, guid: cccd36e22e3b0d6428a8f11ec8b2b833, type: 3}
    - {fileID: 5354817984183386405, guid: cccd36e22e3b0d6428a8f11ec8b2b833, type: 3}
    - {fileID: -5225202123665856644, guid: cccd36e22e3b0d6428a8f11ec8b2b833, type: 3}
    - {fileID: 5789771206480620361, guid: cccd36e22e3b0d6428a8f11ec8b2b833, type: 3}
    - {fileID: -8657118899885641237, guid: cccd36e22e3b0d6428a8f11ec8b2b833, type: 3}
    - {fileID: 570456163294139473, guid: cccd36e22e3b0d6428a8f11ec8b2b833, type: 3}
    - {fileID: 3482269963320222445, guid: cccd36e22e3b0d6428a8f11ec8b2b833, type: 3}
    - {fileID: 8101822263088839695, guid: cccd36e22e3b0d6428a8f11ec8b2b833, type: 3}
    - {fileID: -3089769685963708569, guid: cccd36e22e3b0d6428a8f11ec8b2b833, type: 3}
    - {fileID: -8148876604126915289, guid: cccd36e22e3b0d6428a8f11ec8b2b833, type: 3}
    - {fileID: -2196842662614524321, guid: cccd36e22e3b0d6428a8f11ec8b2b833, type: 3}
    - {fileID: 5008046091917938871, guid: cccd36e22e3b0d6428a8f11ec8b2b833, type: 3}
    - {fileID: -7307526318992316158, guid: cccd36e22e3b0d6428a8f11ec8b2b833, type: 3}
    - {fileID: 8398549650628823647, guid: cccd36e22e3b0d6428a8f11ec8b2b833, type: 3}
    - {fileID: -6840314371258081923, guid: cccd36e22e3b0d6428a8f11ec8b2b833, type: 3}
    - {fileID: 401999720402904424, guid: cccd36e22e3b0d6428a8f11ec8b2b833, type: 3}
    - {fileID: 6191386724114470514, guid: cccd36e22e3b0d6428a8f11ec8b2b833, type: 3}
    - {fileID: -8221924165119879106, guid: cccd36e22e3b0d6428a8f11ec8b2b833, type: 3}
    - {fileID: 5455914542968546642, guid: cccd36e22e3b0d6428a8f11ec8b2b833, type: 3}
    - {fileID: -920757952276850191, guid: cccd36e22e3b0d6428a8f11ec8b2b833, type: 3}
    - {fileID: 2770189312419932377, guid: cccd36e22e3b0d6428a8f11ec8b2b833, type: 3}
    - {fileID: -9086936963805764838, guid: cccd36e22e3b0d6428a8f11ec8b2b833, type: 3}
    - {fileID: -4585970211794754709, guid: cccd36e22e3b0d6428a8f11ec8b2b833, type: 3}
    - {fileID: -4161501637247307455, guid: cccd36e22e3b0d6428a8f11ec8b2b833, type: 3}
    - {fileID: -7250773500211617747, guid: cccd36e22e3b0d6428a8f11ec8b2b833, type: 3}
    - {fileID: 6843791745091888875, guid: cccd36e22e3b0d6428a8f11ec8b2b833, type: 3}
    - {fileID: 9020568835531731863, guid: cccd36e22e3b0d6428a8f11ec8b2b833, type: 3}
    - {fileID: 4241331040136699129, guid: cccd36e22e3b0d6428a8f11ec8b2b833, type: 3}
    - {fileID: 9026477628846756500, guid: cccd36e22e3b0d6428a8f11ec8b2b833, type: 3}
    - {fileID: -8688953832268277259, guid: cccd36e22e3b0d6428a8f11ec8b2b833, type: 3}
    - {fileID: 1934633767865003837, guid: cccd36e22e3b0d6428a8f11ec8b2b833, type: 3}
    - {fileID: -6903814737469589920, guid: cccd36e22e3b0d6428a8f11ec8b2b833, type: 3}
    - {fileID: -8952187152716110654, guid: cccd36e22e3b0d6428a8f11ec8b2b833, type: 3}
    - {fileID: 1247822853617214303, guid: cccd36e22e3b0d6428a8f11ec8b2b833, type: 3}
    - {fileID: -3374946701518119620, guid: cccd36e22e3b0d6428a8f11ec8b2b833, type: 3}
    - {fileID: -7678051773442569366, guid: cccd36e22e3b0d6428a8f11ec8b2b833, type: 3}
    - {fileID: -3252877951690613741, guid: cccd36e22e3b0d6428a8f11ec8b2b833, type: 3}
    - {fileID: 823031902172280860, guid: cccd36e22e3b0d6428a8f11ec8b2b833, type: 3}
    - {fileID: -8888466563082454221, guid: cccd36e22e3b0d6428a8f11ec8b2b833, type: 3}
    - {fileID: 3784342562118472815, guid: cccd36e22e3b0d6428a8f11ec8b2b833, type: 3}
    - {fileID: -6732065408224182795, guid: cccd36e22e3b0d6428a8f11ec8b2b833, type: 3}
    - {fileID: 930540414735164025, guid: cccd36e22e3b0d6428a8f11ec8b2b833, type: 3}
    - {fileID: 284645272263433051, guid: cccd36e22e3b0d6428a8f11ec8b2b833, type: 3}
    - {fileID: -1275042641951773488, guid: cccd36e22e3b0d6428a8f11ec8b2b833, type: 3}
    - {fileID: -4125711642485161255, guid: cccd36e22e3b0d6428a8f11ec8b2b833, type: 3}
    - {fileID: -2533216079136893333, guid: cccd36e22e3b0d6428a8f11ec8b2b833, type: 3}
    - {fileID: -19906458993874405, guid: cccd36e22e3b0d6428a8f11ec8b2b833, type: 3}
    - {fileID: 9160784082617336721, guid: cccd36e22e3b0d6428a8f11ec8b2b833, type: 3}
    - {fileID: 5930172196049829853, guid: cccd36e22e3b0d6428a8f11ec8b2b833, type: 3}
    - {fileID: -1415199965279390874, guid: cccd36e22e3b0d6428a8f11ec8b2b833, type: 3}
    - {fileID: 716543182664766009, guid: cccd36e22e3b0d6428a8f11ec8b2b833, type: 3}
    - {fileID: -337547204797895098, guid: cccd36e22e3b0d6428a8f11ec8b2b833, type: 3}
    - {fileID: -6580105710844750718, guid: cccd36e22e3b0d6428a8f11ec8b2b833, type: 3}
    - {fileID: -7044574800090089877, guid: cccd36e22e3b0d6428a8f11ec8b2b833, type: 3}
    - {fileID: 7880881305669399348, guid: cccd36e22e3b0d6428a8f11ec8b2b833, type: 3}
    - {fileID: -2398209668020049424, guid: cccd36e22e3b0d6428a8f11ec8b2b833, type: 3}
    - {fileID: 3724430020912934546, guid: cccd36e22e3b0d6428a8f11ec8b2b833, type: 3}
    - {fileID: 8923772802525113186, guid: cccd36e22e3b0d6428a8f11ec8b2b833, type: 3}
    - {fileID: -4844304411700992360, guid: cccd36e22e3b0d6428a8f11ec8b2b833, type: 3}
    - {fileID: -5088845841080935640, guid: cccd36e22e3b0d6428a8f11ec8b2b833, type: 3}
    - {fileID: -1412297172821965094, guid: cccd36e22e3b0d6428a8f11ec8b2b833, type: 3}
    - {fileID: 5926650758261085713, guid: cccd36e22e3b0d6428a8f11ec8b2b833, type: 3}
    - {fileID: -7997262269111558792, guid: cccd36e22e3b0d6428a8f11ec8b2b833, type: 3}
    - {fileID: 3325882969439828307, guid: cccd36e22e3b0d6428a8f11ec8b2b833, type: 3}
    - {fileID: 5517357930900918038, guid: cccd36e22e3b0d6428a8f11ec8b2b833, type: 3}
    - {fileID: -6340972762523033479, guid: cccd36e22e3b0d6428a8f11ec8b2b833, type: 3}
    - {fileID: 8411724100084337477, guid: cccd36e22e3b0d6428a8f11ec8b2b833, type: 3}
    - {fileID: 1257872932261380429, guid: cccd36e22e3b0d6428a8f11ec8b2b833, type: 3}
    - {fileID: 2433653240706843058, guid: cccd36e22e3b0d6428a8f11ec8b2b833, type: 3}
    - {fileID: -916476059405812759, guid: cccd36e22e3b0d6428a8f11ec8b2b833, type: 3}
    - {fileID: 2515599880021368686, guid: cccd36e22e3b0d6428a8f11ec8b2b833, type: 3}
    - {fileID: -4582080120869649192, guid: cccd36e22e3b0d6428a8f11ec8b2b833, type: 3}
    - {fileID: -4334093884845384305, guid: cccd36e22e3b0d6428a8f11ec8b2b833, type: 3}
    - {fileID: 7194682698602433253, guid: cccd36e22e3b0d6428a8f11ec8b2b833, type: 3}
    - {fileID: 3903658591054595727, guid: cccd36e22e3b0d6428a8f11ec8b2b833, type: 3}
    - {fileID: 112521757867127478, guid: cccd36e22e3b0d6428a8f11ec8b2b833, type: 3}
    - {fileID: -2899967669842169289, guid: cccd36e22e3b0d6428a8f11ec8b2b833, type: 3}
    - {fileID: -6438013161259803602, guid: cccd36e22e3b0d6428a8f11ec8b2b833, type: 3}
    - {fileID: 1030631950696336292, guid: cccd36e22e3b0d6428a8f11ec8b2b833, type: 3}
    - {fileID: -5229425086561988173, guid: cccd36e22e3b0d6428a8f11ec8b2b833, type: 3}
    - {fileID: -1835466464029886186, guid: cccd36e22e3b0d6428a8f11ec8b2b833, type: 3}
    - {fileID: 7699212241335784750, guid: cccd36e22e3b0d6428a8f11ec8b2b833, type: 3}
    - {fileID: 5647903226006834910, guid: cccd36e22e3b0d6428a8f11ec8b2b833, type: 3}
    - {fileID: -5251039617855633401, guid: cccd36e22e3b0d6428a8f11ec8b2b833, type: 3}
    - {fileID: -2628375946501334184, guid: cccd36e22e3b0d6428a8f11ec8b2b833, type: 3}
    - {fileID: 7810937057622159102, guid: cccd36e22e3b0d6428a8f11ec8b2b833, type: 3}
    - {fileID: -8379624215975423390, guid: cccd36e22e3b0d6428a8f11ec8b2b833, type: 3}
    - {fileID: -5802749866996030786, guid: cccd36e22e3b0d6428a8f11ec8b2b833, type: 3}
    - {fileID: 7220568091010401072, guid: cccd36e22e3b0d6428a8f11ec8b2b833, type: 3}
    - {fileID: -5502550885983107868, guid: cccd36e22e3b0d6428a8f11ec8b2b833, type: 3}
    - {fileID: -1139132584524211932, guid: cccd36e22e3b0d6428a8f11ec8b2b833, type: 3}
    - {fileID: -1998903084659181614, guid: cccd36e22e3b0d6428a8f11ec8b2b833, type: 3}
    - {fileID: -8687709012495735916, guid: cccd36e22e3b0d6428a8f11ec8b2b833, type: 3}
    - {fileID: 1758479330776762856, guid: cccd36e22e3b0d6428a8f11ec8b2b833, type: 3}
    - {fileID: -3213801673890255144, guid: cccd36e22e3b0d6428a8f11ec8b2b833, type: 3}
    - {fileID: 8710987147250517779, guid: cccd36e22e3b0d6428a8f11ec8b2b833, type: 3}
    - {fileID: -7123407600345224185, guid: cccd36e22e3b0d6428a8f11ec8b2b833, type: 3}
    - {fileID: -1114710788379245068, guid: cccd36e22e3b0d6428a8f11ec8b2b833, type: 3}
    - {fileID: -6905806132796042043, guid: cccd36e22e3b0d6428a8f11ec8b2b833, type: 3}
    - {fileID: 6553208543107790862, guid: cccd36e22e3b0d6428a8f11ec8b2b833, type: 3}
    - {fileID: 6589343893222483025, guid: cccd36e22e3b0d6428a8f11ec8b2b833, type: 3}
    - {fileID: 5859932910168145526, guid: cccd36e22e3b0d6428a8f11ec8b2b833, type: 3}
    - {fileID: 1825393115929950464, guid: cccd36e22e3b0d6428a8f11ec8b2b833, type: 3}
    - {fileID: 2269272011985349857, guid: cccd36e22e3b0d6428a8f11ec8b2b833, type: 3}
    - {fileID: -1802884291456385669, guid: cccd36e22e3b0d6428a8f11ec8b2b833, type: 3}
    - {fileID: 1152663908600967638, guid: cccd36e22e3b0d6428a8f11ec8b2b833, type: 3}
    - {fileID: 1318801914315032695, guid: cccd36e22e3b0d6428a8f11ec8b2b833, type: 3}
    - {fileID: 1680751958640895798, guid: cccd36e22e3b0d6428a8f11ec8b2b833, type: 3}
    - {fileID: 7409832564608693150, guid: cccd36e22e3b0d6428a8f11ec8b2b833, type: 3}
    - {fileID: 8455475741829621298, guid: cccd36e22e3b0d6428a8f11ec8b2b833, type: 3}
    - {fileID: -9209069207818911546, guid: cccd36e22e3b0d6428a8f11ec8b2b833, type: 3}
    - {fileID: -1593210911860108163, guid: cccd36e22e3b0d6428a8f11ec8b2b833, type: 3}
    - {fileID: -5397587911279610010, guid: cccd36e22e3b0d6428a8f11ec8b2b833, type: 3}
    - {fileID: -8166631773468401015, guid: cccd36e22e3b0d6428a8f11ec8b2b833, type: 3}
    - {fileID: 8513221564419919918, guid: cccd36e22e3b0d6428a8f11ec8b2b833, type: 3}
    - {fileID: -3437104185223769662, guid: cccd36e22e3b0d6428a8f11ec8b2b833, type: 3}
    - {fileID: -2043367983760246030, guid: cccd36e22e3b0d6428a8f11ec8b2b833, type: 3}
    - {fileID: -7402403978803133231, guid: cccd36e22e3b0d6428a8f11ec8b2b833, type: 3}
    - {fileID: -733009142624168887, guid: cccd36e22e3b0d6428a8f11ec8b2b833, type: 3}
    - {fileID: 1529512574207692538, guid: cccd36e22e3b0d6428a8f11ec8b2b833, type: 3}
  m_AnimationClipSettings:
    serializedVersion: 2
    m_AdditiveReferencePoseClip: {fileID: 0}
    m_AdditiveReferencePoseTime: 0
    m_StartTime: 0
    m_StopTime: 2.0333333
    m_OrientationOffsetY: 0
    m_Level: 0
    m_CycleOffset: 0
    m_HasAdditiveReferencePose: 0
    m_LoopTime: 1
    m_LoopBlend: 0
    m_LoopBlendOrientation: 0
    m_LoopBlendPositionY: 0
    m_LoopBlendPositionXZ: 0
    m_KeepOriginalOrientation: 0
    m_KeepOriginalPositionY: 1
    m_KeepOriginalPositionXZ: 0
    m_HeightFromFeet: 0
    m_Mirror: 0
  m_EditorCurves:
  - curve:
      serializedVersion: 2
      m_Curve:
      - serializedVersion: 3
        time: 0
        value: 0
        inSlope: Infinity
        outSlope: Infinity
        tangentMode: 103
        weightedMode: 0
        inWeight: 0
        outWeight: 0
      m_PreInfinity: 2
      m_PostInfinity: 2
      m_RotationOrder: 4
    attribute: m_IsActive
    path: VFX_Holder
    classID: 1
    script: {fileID: 0}
  - curve:
      serializedVersion: 2
      m_Curve:
      - serializedVersion: 3
        time: 0
        value: 0.118
        inSlope: 0
        outSlope: 0
        tangentMode: 136
        weightedMode: 0
        inWeight: 0.33333334
        outWeight: 0.33333334
      m_PreInfinity: 2
      m_PostInfinity: 2
      m_RotationOrder: 4
    attribute: m_LocalPosition.x
    path: VFX_Holder/FX_Hay_01
    classID: 4
    script: {fileID: 0}
  - curve:
      serializedVersion: 2
      m_Curve:
      - serializedVersion: 3
        time: 0
        value: 0.82
        inSlope: 0
        outSlope: 0
        tangentMode: 136
        weightedMode: 0
        inWeight: 0.33333334
        outWeight: 0.33333334
      m_PreInfinity: 2
      m_PostInfinity: 2
      m_RotationOrder: 4
    attribute: m_LocalPosition.y
    path: VFX_Holder/FX_Hay_01
    classID: 4
    script: {fileID: 0}
  - curve:
      serializedVersion: 2
      m_Curve:
      - serializedVersion: 3
        time: 0
        value: -0.012
        inSlope: 0
        outSlope: 0
        tangentMode: 136
        weightedMode: 0
        inWeight: 0.33333334
        outWeight: 0.33333334
      m_PreInfinity: 2
      m_PostInfinity: 2
      m_RotationOrder: 4
    attribute: m_LocalPosition.z
    path: VFX_Holder/FX_Hay_01
    classID: 4
    script: {fileID: 0}
  - curve:
      serializedVersion: 2
      m_Curve:
      - serializedVersion: 3
        time: 0
        value: 0
        inSlope: Infinity
        outSlope: Infinity
        tangentMode: 103
        weightedMode: 0
        inWeight: 0
        outWeight: 0
      m_PreInfinity: 2
      m_PostInfinity: 2
      m_RotationOrder: 4
    attribute: m_IsActive
    path: VFX_Holder/FX_Hay_01
    classID: 1
    script: {fileID: 0}
  - curve:
      serializedVersion: 2
      m_Curve:
      - serializedVersion: 3
        time: 0
        value: 176.80676
        inSlope: 0
        outSlope: 0
        tangentMode: 136
        weightedMode: 0
        inWeight: 0.33333334
        outWeight: 0.33333334
      m_PreInfinity: 2
      m_PostInfinity: 2
      m_RotationOrder: 4
    attribute: EmissionModule.rateOverTime.scalar
    path: VFX_Holder/FX_Hay_01/FX_Hay_02
    classID: 198
    script: {fileID: 0}
  - curve:
      serializedVersion: 2
      m_Curve:
      - serializedVersion: 3
        time: 0
        value: 0
        inSlope: Infinity
        outSlope: Infinity
        tangentMode: 103
        weightedMode: 0
        inWeight: 0
        outWeight: 0
      m_PreInfinity: 2
      m_PostInfinity: 2
      m_RotationOrder: 4
    attribute: m_IsActive
    path: VFX_Holder/FX_Hay_04
    classID: 1
    script: {fileID: 0}
  - curve:
      serializedVersion: 2
      m_Curve:
      - serializedVersion: 3
        time: 0
        value: 0
        inSlope: Infinity
        outSlope: Infinity
        tangentMode: 103
        weightedMode: 0
        inWeight: 0
        outWeight: 0
      m_PreInfinity: 2
      m_PostInfinity: 2
      m_RotationOrder: 4
    attribute: m_IsActive
    path: VFX_Holder/FX_Hay_03
    classID: 1
    script: {fileID: 0}
  - curve:
      serializedVersion: 2
      m_Curve:
      - serializedVersion: 3
        time: 0
        value: 0
        inSlope: Infinity
        outSlope: Infinity
        tangentMode: 103
        weightedMode: 0
        inWeight: 0
        outWeight: 0
      m_PreInfinity: 2
      m_PostInfinity: 2
      m_RotationOrder: 4
    attribute: m_IsActive
    path: VFX_Holder/FX_Hay_05
    classID: 1
    script: {fileID: 0}
  - curve:
      serializedVersion: 2
      m_Curve:
      - serializedVersion: 3
        time: 0
        value: 0.326
        inSlope: 0
        outSlope: 0
        tangentMode: 136
        weightedMode: 0
        inWeight: 0.33333334
        outWeight: 0.33333334
      m_PreInfinity: 2
      m_PostInfinity: 2
      m_RotationOrder: 4
    attribute: m_LocalPosition.x
    path: VFX_Holder/FX_Hay_05
    classID: 4
    script: {fileID: 0}
  - curve:
      serializedVersion: 2
      m_Curve:
      - serializedVersion: 3
        time: 0
        value: 1.677
        inSlope: 0
        outSlope: 0
        tangentMode: 136
        weightedMode: 0
        inWeight: 0.33333334
        outWeight: 0.33333334
      m_PreInfinity: 2
      m_PostInfinity: 2
      m_RotationOrder: 4
    attribute: m_LocalPosition.y
    path: VFX_Holder/FX_Hay_05
    classID: 4
    script: {fileID: 0}
  - curve:
      serializedVersion: 2
      m_Curve:
      - serializedVersion: 3
        time: 0
        value: -0.1
        inSlope: 0
        outSlope: 0
        tangentMode: 136
        weightedMode: 0
        inWeight: 0.33333334
        outWeight: 0.33333334
      m_PreInfinity: 2
      m_PostInfinity: 2
      m_RotationOrder: 4
    attribute: m_LocalPosition.z
    path: VFX_Holder/FX_Hay_05
    classID: 4
    script: {fileID: 0}
  - curve:
      serializedVersion: 2
      m_Curve:
      - serializedVersion: 3
        time: 0
        value: 0
        inSlope: Infinity
        outSlope: Infinity
        tangentMode: 103
        weightedMode: 0
        inWeight: 0
        outWeight: 0
      m_PreInfinity: 2
      m_PostInfinity: 2
      m_RotationOrder: 4
    attribute: m_IsActive
    path: VFX_Holder/FX_Hay_06
    classID: 1
    script: {fileID: 0}
  - curve:
      serializedVersion: 2
      m_Curve:
      - serializedVersion: 3
        time: 0
        value: 55
        inSlope: 0
        outSlope: 0
        tangentMode: 136
        weightedMode: 0
        inWeight: 0.33333334
        outWeight: 0.33333334
      m_PreInfinity: 2
      m_PostInfinity: 2
      m_RotationOrder: 4
    attribute: EmissionModule.rateOverTime.scalar
    path: VFX_Holder/FX_Hay_06
    classID: 198
    script: {fileID: 0}
  - curve:
      serializedVersion: 2
      m_Curve:
      - serializedVersion: 3
        time: 0
        value: 0.925
        inSlope: 0
        outSlope: 0
        tangentMode: 136
        weightedMode: 0
        inWeight: 0.33333334
        outWeight: 0.33333334
      m_PreInfinity: 2
      m_PostInfinity: 2
      m_RotationOrder: 4
    attribute: m_LocalPosition.x
    path: VFX_Holder/FX_Hay_06
    classID: 4
    script: {fileID: 0}
  - curve:
      serializedVersion: 2
      m_Curve:
      - serializedVersion: 3
        time: 0
        value: 1.442
        inSlope: 0
        outSlope: 0
        tangentMode: 136
        weightedMode: 0
        inWeight: 0.33333334
        outWeight: 0.33333334
      m_PreInfinity: 2
      m_PostInfinity: 2
      m_RotationOrder: 4
    attribute: m_LocalPosition.y
    path: VFX_Holder/FX_Hay_06
    classID: 4
    script: {fileID: 0}
  - curve:
      serializedVersion: 2
      m_Curve:
      - serializedVersion: 3
        time: 0
        value: -0.1
        inSlope: 0
        outSlope: 0
        tangentMode: 136
        weightedMode: 0
        inWeight: 0.33333334
        outWeight: 0.33333334
      m_PreInfinity: 2
      m_PostInfinity: 2
      m_RotationOrder: 4
    attribute: m_LocalPosition.z
    path: VFX_Holder/FX_Hay_06
    classID: 4
    script: {fileID: 0}
  - curve:
      serializedVersion: 2
      m_Curve:
      - serializedVersion: 3
        time: 0
        value: 1
        inSlope: 0
        outSlope: 0
        tangentMode: 136
        weightedMode: 0
        inWeight: 0.33333334
        outWeight: 0.33333334
      - serializedVersion: 3
        time: 0.33333334
        value: 0
        inSlope: 0
        outSlope: 0
        tangentMode: 136
        weightedMode: 0
        inWeight: 0.33333334
        outWeight: 0.33333334
      m_PreInfinity: 2
      m_PostInfinity: 2
      m_RotationOrder: 4
    attribute: m_LocalScale.x
    path: SheepFold_ShovelMan
    classID: 4
    script: {fileID: 0}
  - curve:
      serializedVersion: 2
      m_Curve:
      - serializedVersion: 3
        time: 0
        value: 1
        inSlope: 0
        outSlope: 0
        tangentMode: 136
        weightedMode: 0
        inWeight: 0.33333334
        outWeight: 0.33333334
      - serializedVersion: 3
        time: 0.33333334
        value: 0
        inSlope: 0
        outSlope: 0
        tangentMode: 136
        weightedMode: 0
        inWeight: 0.33333334
        outWeight: 0.33333334
      m_PreInfinity: 2
      m_PostInfinity: 2
      m_RotationOrder: 4
    attribute: m_LocalScale.y
    path: SheepFold_ShovelMan
    classID: 4
    script: {fileID: 0}
  - curve:
      serializedVersion: 2
      m_Curve:
      - serializedVersion: 3
        time: 0
        value: 1
        inSlope: 0
        outSlope: 0
        tangentMode: 136
        weightedMode: 0
        inWeight: 0.33333334
        outWeight: 0.33333334
      - serializedVersion: 3
        time: 0.33333334
        value: 0
        inSlope: 0
        outSlope: 0
        tangentMode: 136
        weightedMode: 0
        inWeight: 0.33333334
        outWeight: 0.33333334
      m_PreInfinity: 2
      m_PostInfinity: 2
      m_RotationOrder: 4
    attribute: m_LocalScale.z
    path: SheepFold_ShovelMan
    classID: 4
    script: {fileID: 0}
  - curve:
      serializedVersion: 2
      m_Curve:
      - serializedVersion: 3
        time: 0.23333333
        value: 1
        inSlope: 0
        outSlope: 0
        tangentMode: 136
        weightedMode: 0
        inWeight: 0.33333334
        outWeight: 0.33333334
      - serializedVersion: 3
        time: 0.53333336
        value: 0
        inSlope: 0
        outSlope: 0
        tangentMode: 136
        weightedMode: 0
        inWeight: 0.33333334
        outWeight: 0.33333334
      m_PreInfinity: 2
      m_PostInfinity: 2
      m_RotationOrder: 4
    attribute: m_LocalScale.x
    path: SheepFold_PipeCleaner
    classID: 4
    script: {fileID: 0}
  - curve:
      serializedVersion: 2
      m_Curve:
      - serializedVersion: 3
        time: 0.23333333
        value: 1
        inSlope: 0
        outSlope: 0
        tangentMode: 136
        weightedMode: 0
        inWeight: 0.33333334
        outWeight: 0.33333334
      - serializedVersion: 3
        time: 0.53333336
        value: 0
        inSlope: 0
        outSlope: 0
        tangentMode: 136
        weightedMode: 0
        inWeight: 0.33333334
        outWeight: 0.33333334
      m_PreInfinity: 2
      m_PostInfinity: 2
      m_RotationOrder: 4
    attribute: m_LocalScale.y
    path: SheepFold_PipeCleaner
    classID: 4
    script: {fileID: 0}
  - curve:
      serializedVersion: 2
      m_Curve:
      - serializedVersion: 3
        time: 0.23333333
        value: 1
        inSlope: 0
        outSlope: 0
        tangentMode: 136
        weightedMode: 0
        inWeight: 0.33333334
        outWeight: 0.33333334
      - serializedVersion: 3
        time: 0.53333336
        value: 0
        inSlope: 0
        outSlope: 0
        tangentMode: 136
        weightedMode: 0
        inWeight: 0.33333334
        outWeight: 0.33333334
      m_PreInfinity: 2
      m_PostInfinity: 2
      m_RotationOrder: 4
    attribute: m_LocalScale.z
    path: SheepFold_PipeCleaner
    classID: 4
    script: {fileID: 0}
  - curve:
      serializedVersion: 2
      m_Curve:
      - serializedVersion: 3
        time: 0
        value: 0
        inSlope: Infinity
        outSlope: Infinity
        tangentMode: 103
        weightedMode: 0
        inWeight: 0
        outWeight: 0
      m_PreInfinity: 2
      m_PostInfinity: 2
      m_RotationOrder: 4
    attribute: EmissionModule.enabled
    path: SheepWHay/FX_Hay_05
    classID: 198
    script: {fileID: 0}
  - curve:
      serializedVersion: 2
      m_Curve:
      - serializedVersion: 3
        time: 0
        value: 0
        inSlope: Infinity
        outSlope: Infinity
        tangentMode: 103
        weightedMode: 0
        inWeight: 0
        outWeight: 0
      m_PreInfinity: 2
      m_PostInfinity: 2
      m_RotationOrder: 4
    attribute: EmissionModule.enabled
    path: SheepBHay/FX_Hay_05
    classID: 198
    script: {fileID: 0}
  - curve:
      serializedVersion: 2
      m_Curve:
      - serializedVersion: 3
        time: 0
        value: 0
        inSlope: 0
        outSlope: 0
        tangentMode: 136
        weightedMode: 0
        inWeight: 0
        outWeight: 0
      m_PreInfinity: 2
      m_PostInfinity: 2
      m_RotationOrder: 4
    attribute: m_LocalScale.x
    path: SheepWHay
    classID: 4
    script: {fileID: 0}
  - curve:
      serializedVersion: 2
      m_Curve:
      - serializedVersion: 3
        time: 0
        value: 0
        inSlope: 0
        outSlope: 0
        tangentMode: 136
        weightedMode: 0
        inWeight: 0
        outWeight: 0
      m_PreInfinity: 2
      m_PostInfinity: 2
      m_RotationOrder: 4
    attribute: m_LocalScale.y
    path: SheepWHay
    classID: 4
    script: {fileID: 0}
  - curve:
      serializedVersion: 2
      m_Curve:
      - serializedVersion: 3
        time: 0
        value: 0
        inSlope: 0
        outSlope: 0
        tangentMode: 136
        weightedMode: 0
        inWeight: 0
        outWeight: 0
      m_PreInfinity: 2
      m_PostInfinity: 2
      m_RotationOrder: 4
    attribute: m_LocalScale.z
    path: SheepWHay
    classID: 4
    script: {fileID: 0}
  - curve:
      serializedVersion: 2
      m_Curve:
      - serializedVersion: 3
        time: 0
        value: 0
        inSlope: 0
        outSlope: 0
        tangentMode: 136
        weightedMode: 0
        inWeight: 0
        outWeight: 0
      m_PreInfinity: 2
      m_PostInfinity: 2
      m_RotationOrder: 4
    attribute: m_LocalScale.x
    path: SheepBHay
    classID: 4
    script: {fileID: 0}
  - curve:
      serializedVersion: 2
      m_Curve:
      - serializedVersion: 3
        time: 0
        value: 0
        inSlope: 0
        outSlope: 0
        tangentMode: 136
        weightedMode: 0
        inWeight: 0
        outWeight: 0
      m_PreInfinity: 2
      m_PostInfinity: 2
      m_RotationOrder: 4
    attribute: m_LocalScale.y
    path: SheepBHay
    classID: 4
    script: {fileID: 0}
  - curve:
      serializedVersion: 2
      m_Curve:
      - serializedVersion: 3
        time: 0
        value: 0
        inSlope: 0
        outSlope: 0
        tangentMode: 136
        weightedMode: 0
        inWeight: 0
        outWeight: 0
      m_PreInfinity: 2
      m_PostInfinity: 2
      m_RotationOrder: 4
    attribute: m_LocalScale.z
    path: SheepBHay
    classID: 4
    script: {fileID: 0}
  m_EulerEditorCurves: []
  m_HasGenericRootTransform: 0
  m_HasMotionFloatCurves: 0
  m_Events: []
