%YAML 1.1
%TAG !u! tag:unity3d.com,2011:
--- !u!21 &2100000
Material:
  serializedVersion: 6
  m_ObjectHideFlags: 0
  m_CorrespondingSourceObject: {fileID: 0}
  m_PrefabInstance: {fileID: 0}
  m_PrefabAsset: {fileID: 0}
  m_Name: CWash
  m_Shader: {fileID: 4800000, guid: f05a47157ac641246aa6d57f9f48893d, type: 3}
  m_ShaderKeywords: SHOW_TEST_GRID
  m_LightmapFlags: 4
  m_EnableInstancingVariants: 0
  m_DoubleSidedGI: 0
  m_CustomRenderQueue: 3000
  stringTagMap: {}
  disabledShaderPasses: []
  m_SavedProperties:
    serializedVersion: 3
    m_TexEnvs:
    - _BumpMap:
        m_Texture: {fileID: 0}
        m_Scale: {x: 1, y: 1}
        m_Offset: {x: 0, y: 0}
    - _Cube:
        m_Texture: {fileID: 8900000, guid: d9270e711d089fc4ba39607e1110af5e, type: 2}
        m_Scale: {x: 1, y: 1}
        m_Offset: {x: 0, y: 0}
    - _GrabPassTex:
        m_Texture: {fileID: 2800000, guid: 6227f9b396da81642baf85f30cc60813, type: 3}
        m_Scale: {x: 1, y: 1}
        m_Offset: {x: 0, y: 0}
    - _MainTex:
        m_Texture: {fileID: 0}
        m_Scale: {x: 1, y: 1}
        m_Offset: {x: 0, y: 0}
    - _Normal:
        m_Texture: {fileID: 2800000, guid: 599acee9de51efb4997a54cfbb701414, type: 3}
        m_Scale: {x: 4, y: 4}
        m_Offset: {x: 0, y: 0}
    - _ReflactionsAndMask:
        m_Texture: {fileID: 0}
        m_Scale: {x: 1, y: 1}
        m_Offset: {x: 0, y: 0}
    - _UnderWater:
        m_Texture: {fileID: 0}
        m_Scale: {x: 1, y: 1}
        m_Offset: {x: 0, y: 0}
    - _WavesShape:
        m_Texture: {fileID: 2800000, guid: c4a6892eae6205b45aec6c27c45bd299, type: 3}
        m_Scale: {x: 1, y: 1}
        m_Offset: {x: 0, y: 0}
    m_Floats:
    - _FoamIntencity: 0.5
    - _Perspective: 1
    - _ReflactCenter: 0.08
    - _ReflactDistortion: 15
    - _ReflactIntencity: 0.72
    - _ReflactYFader: -0.5
    - _ScaleX: 1
    - _ScaleY: 1
    - _SeparateWawesLightWidth: 0.9
    - _Show_test_grid: 1
    - _SkyBlender: 0.05
    - _Speed: 3
    - _SurfaceIntencity: 0.5
    - _UnderWaterIntencity: 1
    - _UseGrabpass: 0
    - _VerticalOffset: 0.5
    - _WavesHeight: 1
    - _WavesWidth: -0.5
    - _XYRatio: 1
    m_Colors:
    - _Color1: {r: 0.7877358, g: 1, b: 0.97670275, a: 1}
    - _Color2: {r: 0.332242, g: 0.44688317, b: 0.587, a: 1}
