%YAML 1.1
%TAG !u! tag:unity3d.com,2011:
--- !u!221 &22100000
AnimatorOverrideController:
  m_ObjectHideFlags: 0
  m_CorrespondingSourceObject: {fileID: 0}
  m_PrefabInstance: {fileID: 0}
  m_PrefabAsset: {fileID: 0}
  m_Name: 98_ToolsFactory
  m_Controller: {fileID: 9100000, guid: 2d8f4738d2569f349823e1c9a4249273, type: 2}
  m_Clips:
  - m_OriginalClip: {fileID: 7400000, guid: 23682fa9710a19248a2b2d883cdfbc2e, type: 2}
    m_OverrideClip: {fileID: 7400000, guid: 3e9ce9f9dc86d104ea7a5be88de27fb4, type: 2}
  - m_OriginalClip: {fileID: 7400000, guid: e46a574ca3a5658418c138255f01a923, type: 2}
    m_OverrideClip: {fileID: 7400000, guid: 9eb2e3006a252454789cc16e990033c4, type: 2}
  - m_OriginalClip: {fileID: 7400000, guid: 5f37adde95dda8342a649688cd450054, type: 2}
    m_OverrideClip: {fileID: 7400000, guid: 985783782d5955d479574b13ad2b4824, type: 2}
