%YAML 1.1
%TAG !u! tag:unity3d.com,2011:
--- !u!223 &8938299926303703534
Canvas:
  m_ObjectHideFlags: 0
  m_CorrespondingSourceObject: {fileID: 0}
  m_PrefabInstance: {fileID: 0}
  m_PrefabAsset: {fileID: 0}
  m_GameObject: {fileID: 2422057841550079946}
  m_Enabled: 1
  serializedVersion: 3
  m_RenderMode: 2
  m_Camera: {fileID: 0}
  m_PlaneDistance: 100
  m_PixelPerfect: 0
  m_ReceivesEvents: 1
  m_OverrideSorting: 0
  m_OverridePixelPerfect: 0
  m_SortingBucketNormalizedSize: 0
  m_AdditionalShaderChannelsFlag: 25
  m_SortingLayerID: 0
  m_SortingOrder: 0
  m_TargetDisplay: 0
--- !u!114 &1799140444214080996
MonoBehaviour:
  m_ObjectHideFlags: 0
  m_CorrespondingSourceObject: {fileID: 0}
  m_PrefabInstance: {fileID: 0}
  m_PrefabAsset: {fileID: 0}
  m_GameObject: {fileID: 2422057841550079946}
  m_Enabled: 1
  m_EditorHideFlags: 0
  m_Script: {fileID: 11500000, guid: b0d6d434db8646b1bf36eff49be04850, type: 3}
  m_Name: 
  m_EditorClassIdentifier: 
  _requirmentPanel: {fileID: 2308779945104715204}
  _canvas: {fileID: 8938299926303703534}
--- !u!1001 &2422775277644936356
PrefabInstance:
  m_ObjectHideFlags: 0
  serializedVersion: 2
  m_Modification:
    m_TransformParent: {fileID: 0}
    m_Modifications:
    - target: {fileID: 1000011824710510, guid: 8f6e3ee989c600140800535b95c35527, type: 3}
      propertyPath: m_Name
      value: RequirementsPanelOptimizedHide
      objectReference: {fileID: 0}
    - target: {fileID: 1000011824710510, guid: 8f6e3ee989c600140800535b95c35527, type: 3}
      propertyPath: m_IsActive
      value: 1
      objectReference: {fileID: 0}
    - target: {fileID: 114000010875931860, guid: 8f6e3ee989c600140800535b95c35527,
        type: 3}
      propertyPath: SpacingX
      value: 12
      objectReference: {fileID: 0}
    - target: {fileID: 114000011236006240, guid: 8f6e3ee989c600140800535b95c35527,
        type: 3}
      propertyPath: _borders
      value: 50
      objectReference: {fileID: 0}
    - target: {fileID: 114000011236006240, guid: 8f6e3ee989c600140800535b95c35527,
        type: 3}
      propertyPath: _maxXPosition
      value: 1000
      objectReference: {fileID: 0}
    - target: {fileID: 114000011236006240, guid: 8f6e3ee989c600140800535b95c35527,
        type: 3}
      propertyPath: _minPanelSize
      value: 450
      objectReference: {fileID: 0}
    - target: {fileID: 114000011236006240, guid: 8f6e3ee989c600140800535b95c35527,
        type: 3}
      propertyPath: _minXPosition
      value: -1000
      objectReference: {fileID: 0}
    - target: {fileID: 114000014274864096, guid: 8f6e3ee989c600140800535b95c35527,
        type: 3}
      propertyPath: m_Sprite
      value: 
      objectReference: {fileID: 21300000, guid: 0ccd6c5428a1470449af450a7b8882b3,
        type: 3}
    - target: {fileID: 114000014274864096, guid: 8f6e3ee989c600140800535b95c35527,
        type: 3}
      propertyPath: m_PreserveAspect
      value: 1
      objectReference: {fileID: 0}
    - target: {fileID: 114431100797156996, guid: 8f6e3ee989c600140800535b95c35527,
        type: 3}
      propertyPath: m_fontAsset
      value: 
      objectReference: {fileID: 11400000, guid: 92bbcf9797df6cd498f7973814f2f56f,
        type: 2}
    - target: {fileID: 114431100797156996, guid: 8f6e3ee989c600140800535b95c35527,
        type: 3}
      propertyPath: m_sharedMaterial
      value: 
      objectReference: {fileID: -6965380929994352039, guid: 92bbcf9797df6cd498f7973814f2f56f,
        type: 2}
    - target: {fileID: 114431100797156996, guid: 8f6e3ee989c600140800535b95c35527,
        type: 3}
      propertyPath: m_VerticalAlignment
      value: 1024
      objectReference: {fileID: 0}
    - target: {fileID: 114490710646847856, guid: 8f6e3ee989c600140800535b95c35527,
        type: 3}
      propertyPath: m_fontAsset
      value: 
      objectReference: {fileID: 11400000, guid: 92bbcf9797df6cd498f7973814f2f56f,
        type: 2}
    - target: {fileID: 114490710646847856, guid: 8f6e3ee989c600140800535b95c35527,
        type: 3}
      propertyPath: m_sharedMaterial
      value: 
      objectReference: {fileID: -6965380929994352039, guid: 92bbcf9797df6cd498f7973814f2f56f,
        type: 2}
    - target: {fileID: 114696901689392470, guid: 8f6e3ee989c600140800535b95c35527,
        type: 3}
      propertyPath: m_fontSize
      value: 26
      objectReference: {fileID: 0}
    - target: {fileID: 114696901689392470, guid: 8f6e3ee989c600140800535b95c35527,
        type: 3}
      propertyPath: m_fontAsset
      value: 
      objectReference: {fileID: 11400000, guid: 92bbcf9797df6cd498f7973814f2f56f,
        type: 2}
    - target: {fileID: 114696901689392470, guid: 8f6e3ee989c600140800535b95c35527,
        type: 3}
      propertyPath: m_fontSizeBase
      value: 26
      objectReference: {fileID: 0}
    - target: {fileID: 114696901689392470, guid: 8f6e3ee989c600140800535b95c35527,
        type: 3}
      propertyPath: m_sharedMaterial
      value: 
      objectReference: {fileID: -6965380929994352039, guid: 92bbcf9797df6cd498f7973814f2f56f,
        type: 2}
    - target: {fileID: 114696901689392470, guid: 8f6e3ee989c600140800535b95c35527,
        type: 3}
      propertyPath: m_enableAutoSizing
      value: 0
      objectReference: {fileID: 0}
    - target: {fileID: 114696901689392470, guid: 8f6e3ee989c600140800535b95c35527,
        type: 3}
      propertyPath: m_VerticalAlignment
      value: 512
      objectReference: {fileID: 0}
    - target: {fileID: 114748680704412500, guid: 8f6e3ee989c600140800535b95c35527,
        type: 3}
      propertyPath: m_Sprite
      value: 
      objectReference: {fileID: 21300000, guid: 1ef988526c5eaff4ea5db1b859b198c1,
        type: 3}
    - target: {fileID: 224000010238953512, guid: 8f6e3ee989c600140800535b95c35527,
        type: 3}
      propertyPath: m_SizeDelta.y
      value: 0
      objectReference: {fileID: 0}
    - target: {fileID: 224000010656160108, guid: 8f6e3ee989c600140800535b95c35527,
        type: 3}
      propertyPath: m_SizeDelta.x
      value: 0.5
      objectReference: {fileID: 0}
    - target: {fileID: 224000010656160108, guid: 8f6e3ee989c600140800535b95c35527,
        type: 3}
      propertyPath: m_AnchoredPosition.x
      value: -0.25
      objectReference: {fileID: 0}
    - target: {fileID: 224000011674480352, guid: 8f6e3ee989c600140800535b95c35527,
        type: 3}
      propertyPath: m_AnchorMax.y
      value: 0
      objectReference: {fileID: 0}
    - target: {fileID: 224000011674480352, guid: 8f6e3ee989c600140800535b95c35527,
        type: 3}
      propertyPath: m_AnchorMin.y
      value: 0
      objectReference: {fileID: 0}
    - target: {fileID: 224000011674480352, guid: 8f6e3ee989c600140800535b95c35527,
        type: 3}
      propertyPath: m_SizeDelta.x
      value: 0
      objectReference: {fileID: 0}
    - target: {fileID: 224000011674480352, guid: 8f6e3ee989c600140800535b95c35527,
        type: 3}
      propertyPath: m_SizeDelta.y
      value: 0
      objectReference: {fileID: 0}
    - target: {fileID: 224000011674480352, guid: 8f6e3ee989c600140800535b95c35527,
        type: 3}
      propertyPath: m_AnchoredPosition.x
      value: 0
      objectReference: {fileID: 0}
    - target: {fileID: 224000011674480352, guid: 8f6e3ee989c600140800535b95c35527,
        type: 3}
      propertyPath: m_AnchoredPosition.y
      value: 0
      objectReference: {fileID: 0}
    - target: {fileID: 224000012097006796, guid: 8f6e3ee989c600140800535b95c35527,
        type: 3}
      propertyPath: m_AnchorMax.y
      value: 0
      objectReference: {fileID: 0}
    - target: {fileID: 224000012097006796, guid: 8f6e3ee989c600140800535b95c35527,
        type: 3}
      propertyPath: m_AnchorMin.y
      value: 0
      objectReference: {fileID: 0}
    - target: {fileID: 224000012097006796, guid: 8f6e3ee989c600140800535b95c35527,
        type: 3}
      propertyPath: m_SizeDelta.x
      value: 0
      objectReference: {fileID: 0}
    - target: {fileID: 224000012097006796, guid: 8f6e3ee989c600140800535b95c35527,
        type: 3}
      propertyPath: m_SizeDelta.y
      value: 0
      objectReference: {fileID: 0}
    - target: {fileID: 224000012097006796, guid: 8f6e3ee989c600140800535b95c35527,
        type: 3}
      propertyPath: m_AnchoredPosition.x
      value: 0
      objectReference: {fileID: 0}
    - target: {fileID: 224000012097006796, guid: 8f6e3ee989c600140800535b95c35527,
        type: 3}
      propertyPath: m_AnchoredPosition.y
      value: 0
      objectReference: {fileID: 0}
    - target: {fileID: 224000012341141474, guid: 8f6e3ee989c600140800535b95c35527,
        type: 3}
      propertyPath: m_AnchoredPosition.x
      value: 5.099945
      objectReference: {fileID: 0}
    - target: {fileID: 224000013144008006, guid: 8f6e3ee989c600140800535b95c35527,
        type: 3}
      propertyPath: m_AnchoredPosition.x
      value: -5.899933
      objectReference: {fileID: 0}
    - target: {fileID: 224000013336727488, guid: 8f6e3ee989c600140800535b95c35527,
        type: 3}
      propertyPath: m_AnchorMax.y
      value: 0
      objectReference: {fileID: 0}
    - target: {fileID: 224000013336727488, guid: 8f6e3ee989c600140800535b95c35527,
        type: 3}
      propertyPath: m_AnchorMin.y
      value: 0
      objectReference: {fileID: 0}
    - target: {fileID: 224000013336727488, guid: 8f6e3ee989c600140800535b95c35527,
        type: 3}
      propertyPath: m_SizeDelta.x
      value: 0
      objectReference: {fileID: 0}
    - target: {fileID: 224000013336727488, guid: 8f6e3ee989c600140800535b95c35527,
        type: 3}
      propertyPath: m_SizeDelta.y
      value: 0
      objectReference: {fileID: 0}
    - target: {fileID: 224000013336727488, guid: 8f6e3ee989c600140800535b95c35527,
        type: 3}
      propertyPath: m_AnchoredPosition.x
      value: 0
      objectReference: {fileID: 0}
    - target: {fileID: 224000013336727488, guid: 8f6e3ee989c600140800535b95c35527,
        type: 3}
      propertyPath: m_AnchoredPosition.y
      value: 0
      objectReference: {fileID: 0}
    - target: {fileID: 224000013547455226, guid: 8f6e3ee989c600140800535b95c35527,
        type: 3}
      propertyPath: m_Pivot.x
      value: 0.5
      objectReference: {fileID: 0}
    - target: {fileID: 224000013547455226, guid: 8f6e3ee989c600140800535b95c35527,
        type: 3}
      propertyPath: m_Pivot.y
      value: 0.5
      objectReference: {fileID: 0}
    - target: {fileID: 224000013547455226, guid: 8f6e3ee989c600140800535b95c35527,
        type: 3}
      propertyPath: m_RootOrder
      value: 0
      objectReference: {fileID: 0}
    - target: {fileID: 224000013547455226, guid: 8f6e3ee989c600140800535b95c35527,
        type: 3}
      propertyPath: m_AnchorMax.x
      value: 0.5
      objectReference: {fileID: 0}
    - target: {fileID: 224000013547455226, guid: 8f6e3ee989c600140800535b95c35527,
        type: 3}
      propertyPath: m_AnchorMax.y
      value: 0.5
      objectReference: {fileID: 0}
    - target: {fileID: 224000013547455226, guid: 8f6e3ee989c600140800535b95c35527,
        type: 3}
      propertyPath: m_AnchorMin.x
      value: 0.5
      objectReference: {fileID: 0}
    - target: {fileID: 224000013547455226, guid: 8f6e3ee989c600140800535b95c35527,
        type: 3}
      propertyPath: m_AnchorMin.y
      value: 0.5
      objectReference: {fileID: 0}
    - target: {fileID: 224000013547455226, guid: 8f6e3ee989c600140800535b95c35527,
        type: 3}
      propertyPath: m_SizeDelta.x
      value: 598
      objectReference: {fileID: 0}
    - target: {fileID: 224000013547455226, guid: 8f6e3ee989c600140800535b95c35527,
        type: 3}
      propertyPath: m_SizeDelta.y
      value: 478
      objectReference: {fileID: 0}
    - target: {fileID: 224000013547455226, guid: 8f6e3ee989c600140800535b95c35527,
        type: 3}
      propertyPath: m_LocalPosition.x
      value: 0
      objectReference: {fileID: 0}
    - target: {fileID: 224000013547455226, guid: 8f6e3ee989c600140800535b95c35527,
        type: 3}
      propertyPath: m_LocalPosition.y
      value: 0
      objectReference: {fileID: 0}
    - target: {fileID: 224000013547455226, guid: 8f6e3ee989c600140800535b95c35527,
        type: 3}
      propertyPath: m_LocalPosition.z
      value: 0
      objectReference: {fileID: 0}
    - target: {fileID: 224000013547455226, guid: 8f6e3ee989c600140800535b95c35527,
        type: 3}
      propertyPath: m_LocalRotation.w
      value: 1
      objectReference: {fileID: 0}
    - target: {fileID: 224000013547455226, guid: 8f6e3ee989c600140800535b95c35527,
        type: 3}
      propertyPath: m_LocalRotation.x
      value: -0
      objectReference: {fileID: 0}
    - target: {fileID: 224000013547455226, guid: 8f6e3ee989c600140800535b95c35527,
        type: 3}
      propertyPath: m_LocalRotation.y
      value: -0
      objectReference: {fileID: 0}
    - target: {fileID: 224000013547455226, guid: 8f6e3ee989c600140800535b95c35527,
        type: 3}
      propertyPath: m_LocalRotation.z
      value: -0
      objectReference: {fileID: 0}
    - target: {fileID: 224000013547455226, guid: 8f6e3ee989c600140800535b95c35527,
        type: 3}
      propertyPath: m_AnchoredPosition.x
      value: -8.549999
      objectReference: {fileID: 0}
    - target: {fileID: 224000013547455226, guid: 8f6e3ee989c600140800535b95c35527,
        type: 3}
      propertyPath: m_AnchoredPosition.y
      value: 340
      objectReference: {fileID: 0}
    - target: {fileID: 224000013547455226, guid: 8f6e3ee989c600140800535b95c35527,
        type: 3}
      propertyPath: m_LocalEulerAnglesHint.x
      value: 0
      objectReference: {fileID: 0}
    - target: {fileID: 224000013547455226, guid: 8f6e3ee989c600140800535b95c35527,
        type: 3}
      propertyPath: m_LocalEulerAnglesHint.y
      value: 0
      objectReference: {fileID: 0}
    - target: {fileID: 224000013547455226, guid: 8f6e3ee989c600140800535b95c35527,
        type: 3}
      propertyPath: m_LocalEulerAnglesHint.z
      value: 0
      objectReference: {fileID: 0}
    - target: {fileID: 224000013588326098, guid: 8f6e3ee989c600140800535b95c35527,
        type: 3}
      propertyPath: m_AnchorMax.y
      value: 0
      objectReference: {fileID: 0}
    - target: {fileID: 224000013588326098, guid: 8f6e3ee989c600140800535b95c35527,
        type: 3}
      propertyPath: m_AnchorMin.y
      value: 0
      objectReference: {fileID: 0}
    - target: {fileID: 224000013588326098, guid: 8f6e3ee989c600140800535b95c35527,
        type: 3}
      propertyPath: m_SizeDelta.x
      value: 0
      objectReference: {fileID: 0}
    - target: {fileID: 224000013588326098, guid: 8f6e3ee989c600140800535b95c35527,
        type: 3}
      propertyPath: m_SizeDelta.y
      value: 0
      objectReference: {fileID: 0}
    - target: {fileID: 224000013588326098, guid: 8f6e3ee989c600140800535b95c35527,
        type: 3}
      propertyPath: m_AnchoredPosition.x
      value: 0
      objectReference: {fileID: 0}
    - target: {fileID: 224000013588326098, guid: 8f6e3ee989c600140800535b95c35527,
        type: 3}
      propertyPath: m_AnchoredPosition.y
      value: 0
      objectReference: {fileID: 0}
    - target: {fileID: 224381353012706678, guid: 8f6e3ee989c600140800535b95c35527,
        type: 3}
      propertyPath: m_AnchoredPosition.x
      value: 5.599945
      objectReference: {fileID: 0}
    - target: {fileID: 224392061336730808, guid: 8f6e3ee989c600140800535b95c35527,
        type: 3}
      propertyPath: m_SizeDelta.y
      value: -7.901
      objectReference: {fileID: 0}
    - target: {fileID: 224392061336730808, guid: 8f6e3ee989c600140800535b95c35527,
        type: 3}
      propertyPath: m_AnchoredPosition.y
      value: -1.864
      objectReference: {fileID: 0}
    - target: {fileID: 224485392736303914, guid: 8f6e3ee989c600140800535b95c35527,
        type: 3}
      propertyPath: m_SizeDelta.x
      value: 0
      objectReference: {fileID: 0}
    - target: {fileID: 224595357731702826, guid: 8f6e3ee989c600140800535b95c35527,
        type: 3}
      propertyPath: m_AnchoredPosition.x
      value: -4.599945
      objectReference: {fileID: 0}
    - target: {fileID: 224609669492852508, guid: 8f6e3ee989c600140800535b95c35527,
        type: 3}
      propertyPath: m_AnchorMax.y
      value: 0
      objectReference: {fileID: 0}
    - target: {fileID: 224609669492852508, guid: 8f6e3ee989c600140800535b95c35527,
        type: 3}
      propertyPath: m_AnchorMin.y
      value: 0
      objectReference: {fileID: 0}
    - target: {fileID: 224609669492852508, guid: 8f6e3ee989c600140800535b95c35527,
        type: 3}
      propertyPath: m_SizeDelta.x
      value: 0
      objectReference: {fileID: 0}
    - target: {fileID: 224609669492852508, guid: 8f6e3ee989c600140800535b95c35527,
        type: 3}
      propertyPath: m_SizeDelta.y
      value: 0
      objectReference: {fileID: 0}
    - target: {fileID: 224609669492852508, guid: 8f6e3ee989c600140800535b95c35527,
        type: 3}
      propertyPath: m_AnchoredPosition.x
      value: 0
      objectReference: {fileID: 0}
    - target: {fileID: 224609669492852508, guid: 8f6e3ee989c600140800535b95c35527,
        type: 3}
      propertyPath: m_AnchoredPosition.y
      value: 0
      objectReference: {fileID: 0}
    - target: {fileID: 224658188778399246, guid: 8f6e3ee989c600140800535b95c35527,
        type: 3}
      propertyPath: m_SizeDelta.x
      value: -10
      objectReference: {fileID: 0}
    - target: {fileID: 224658188778399246, guid: 8f6e3ee989c600140800535b95c35527,
        type: 3}
      propertyPath: m_SizeDelta.y
      value: -13.323
      objectReference: {fileID: 0}
    - target: {fileID: 224658188778399246, guid: 8f6e3ee989c600140800535b95c35527,
        type: 3}
      propertyPath: m_AnchoredPosition.y
      value: -2.215
      objectReference: {fileID: 0}
    - target: {fileID: 224898821491819564, guid: 8f6e3ee989c600140800535b95c35527,
        type: 3}
      propertyPath: m_AnchorMax.y
      value: 0
      objectReference: {fileID: 0}
    - target: {fileID: 224898821491819564, guid: 8f6e3ee989c600140800535b95c35527,
        type: 3}
      propertyPath: m_AnchorMin.y
      value: 0
      objectReference: {fileID: 0}
    - target: {fileID: 224898821491819564, guid: 8f6e3ee989c600140800535b95c35527,
        type: 3}
      propertyPath: m_SizeDelta.x
      value: 0
      objectReference: {fileID: 0}
    - target: {fileID: 224898821491819564, guid: 8f6e3ee989c600140800535b95c35527,
        type: 3}
      propertyPath: m_AnchoredPosition.x
      value: 0
      objectReference: {fileID: 0}
    - target: {fileID: 224898821491819564, guid: 8f6e3ee989c600140800535b95c35527,
        type: 3}
      propertyPath: m_AnchoredPosition.y
      value: 0
      objectReference: {fileID: 0}
    - target: {fileID: 224917433928228138, guid: 8f6e3ee989c600140800535b95c35527,
        type: 3}
      propertyPath: m_AnchorMax.y
      value: 0
      objectReference: {fileID: 0}
    - target: {fileID: 224917433928228138, guid: 8f6e3ee989c600140800535b95c35527,
        type: 3}
      propertyPath: m_AnchorMin.y
      value: 0
      objectReference: {fileID: 0}
    - target: {fileID: 224917433928228138, guid: 8f6e3ee989c600140800535b95c35527,
        type: 3}
      propertyPath: m_SizeDelta.x
      value: 0
      objectReference: {fileID: 0}
    - target: {fileID: 224917433928228138, guid: 8f6e3ee989c600140800535b95c35527,
        type: 3}
      propertyPath: m_SizeDelta.y
      value: 0
      objectReference: {fileID: 0}
    - target: {fileID: 224917433928228138, guid: 8f6e3ee989c600140800535b95c35527,
        type: 3}
      propertyPath: m_AnchoredPosition.x
      value: 0
      objectReference: {fileID: 0}
    - target: {fileID: 224917433928228138, guid: 8f6e3ee989c600140800535b95c35527,
        type: 3}
      propertyPath: m_AnchoredPosition.y
      value: 0
      objectReference: {fileID: 0}
    m_RemovedComponents: []
  m_SourcePrefab: {fileID: 100100000, guid: 8f6e3ee989c600140800535b95c35527, type: 3}
--- !u!1 &2422057841550079946 stripped
GameObject:
  m_CorrespondingSourceObject: {fileID: 1000011824710510, guid: 8f6e3ee989c600140800535b95c35527,
    type: 3}
  m_PrefabInstance: {fileID: 2422775277644936356}
  m_PrefabAsset: {fileID: 0}
--- !u!114 &2308779945104715204 stripped
MonoBehaviour:
  m_CorrespondingSourceObject: {fileID: 114000011236006240, guid: 8f6e3ee989c600140800535b95c35527,
    type: 3}
  m_PrefabInstance: {fileID: 2422775277644936356}
  m_PrefabAsset: {fileID: 0}
  m_GameObject: {fileID: 2422057841550079946}
  m_Enabled: 1
  m_EditorHideFlags: 0
  m_Script: {fileID: 11500000, guid: 978d1853e3e946040a3d346ae1410ce5, type: 3}
  m_Name: 
  m_EditorClassIdentifier: 
