%YAML 1.1
%TAG !u! tag:unity3d.com,2011:
--- !u!21 &2100000
Material:
  serializedVersion: 6
  m_ObjectHideFlags: 0
  m_CorrespondingSourceObject: {fileID: 0}
  m_PrefabInstance: {fileID: 0}
  m_PrefabAsset: {fileID: 0}
  m_Name: cloudedSprite_SemiTransparent
  m_Shader: {fileID: 4800000, guid: 4a138c880462e2f4b81a170584187024, type: 3}
  m_ShaderKeywords: ETC1_EXTERNAL_ALPHA
  m_LightmapFlags: 4
  m_EnableInstancingVariants: 0
  m_DoubleSidedGI: 0
  m_CustomRenderQueue: 3002
  stringTagMap: {}
  disabledShaderPasses: []
  m_SavedProperties:
    serializedVersion: 3
    m_TexEnvs:
    - _AlphaTex:
        m_Texture: {fileID: 0}
        m_Scale: {x: 1, y: 1}
        m_Offset: {x: 0, y: 0}
    - _BumpMap:
        m_Texture: {fileID: 0}
        m_Scale: {x: 1, y: 1}
        m_Offset: {x: 0, y: 0}
    - _CloudsTex:
        m_Texture: {fileID: 2800000, guid: 94976c22fefbdec459f9085b9ed445ac, type: 3}
        m_Scale: {x: 1, y: 1}
        m_Offset: {x: 0, y: 0}
    - _DetailAlbedoMap:
        m_Texture: {fileID: 0}
        m_Scale: {x: 1, y: 1}
        m_Offset: {x: 0, y: 0}
    - _DetailMask:
        m_Texture: {fileID: 0}
        m_Scale: {x: 1, y: 1}
        m_Offset: {x: 0, y: 0}
    - _DetailNormalMap:
        m_Texture: {fileID: 0}
        m_Scale: {x: 1, y: 1}
        m_Offset: {x: 0, y: 0}
    - _EmissionMap:
        m_Texture: {fileID: 0}
        m_Scale: {x: 1, y: 1}
        m_Offset: {x: 0, y: 0}
    - _MainTex:
        m_Texture: {fileID: 0}
        m_Scale: {x: 1, y: 1}
        m_Offset: {x: 0, y: 0}
    - _MetallicGlossMap:
        m_Texture: {fileID: 0}
        m_Scale: {x: 1, y: 1}
        m_Offset: {x: 0, y: 0}
    - _OcclusionMap:
        m_Texture: {fileID: 0}
        m_Scale: {x: 1, y: 1}
        m_Offset: {x: 0, y: 0}
    - _ParallaxMap:
        m_Texture: {fileID: 0}
        m_Scale: {x: 1, y: 1}
        m_Offset: {x: 0, y: 0}
    m_Floats:
    - PixelSnap: 0
    - _BumpScale: 1
    - _CloudUvX: 0.008
    - _CloudUvY: 0.018
    - _CloudVertOff: 0
    - _CloudsScale: 1
    - _CloudsSpeed: 0
    - _CloudsTwinkleIntensity: 1
    - _CloudsTwinkleScale: 1
    - _CloudsTwinkleSpeed: 1
    - _CloudsWiggleIntensity: -0.02
    - _CloudsWiggleScale: 5
    - _Cutoff: 0.5
    - _DetailNormalMapScale: 1
    - _DstBlend: 0
    - _EnableExternalAlpha: 0
    - _GlossMapScale: 1
    - _Glossiness: 0.5
    - _GlossyReflections: 1
    - _Metallic: 0
    - _Mode: 0
    - _OcclusionStrength: 1
    - _OffsetProgress: 0
    - _Parallax: 0.02
    - _PulseSpeed: 5
    - _SmoothnessTextureChannel: 0
    - _SpecularHighlights: 1
    - _SrcBlend: 1
    - _TurnW: 0
    - _TurnX: 0
    - _TurnY: -45
    - _TurnZ: -30
    - _UVSec: 0
    - _ZWrite: 1
    m_Colors:
    - _CloudsCol: {r: 0, g: 0.14117648, b: 1, a: 0.39215687}
    - _Color: {r: 1, g: 1, b: 1, a: 0.7764706}
    - _EmissionColor: {r: 0, g: 0, b: 0, a: 1}
    - _Flip: {r: 1, g: 1, b: 1, a: 1}
    - _RendererColor: {r: 1, g: 1, b: 1, a: 1}
    - _SemiTransparentModeColor: {r: 1, g: 1, b: 1, a: 1}
  m_BuildTextureStacks: []
