%YAML 1.1
%TAG !u! tag:unity3d.com,2011:
--- !u!74 &7400000
AnimationClip:
  m_ObjectHideFlags: 0
  m_PrefabParentObject: {fileID: 0}
  m_PrefabInternal: {fileID: 0}
  m_Name: CoinsIconBounce
  serializedVersion: 6
  m_Legacy: 1
  m_Compressed: 0
  m_UseHighQualityCurve: 1
  m_RotationCurves: []
  m_CompressedRotationCurves: []
  m_EulerCurves: []
  m_PositionCurves: []
  m_ScaleCurves:
  - curve:
      serializedVersion: 2
      m_Curve:
      - time: 0
        value: {x: 1, y: 1, z: 1}
        inSlope: {x: 0.30000007, y: 0.30000007, z: 0.30000007}
        outSlope: {x: 0.30000007, y: 0.30000007, z: 0.30000007}
        tangentMode: 0
      - time: 0.33333334
        value: {x: 1.1, y: 1.1, z: 1.1}
        inSlope: {x: 0, y: 0, z: 0}
        outSlope: {x: 0, y: 0, z: 0}
        tangentMode: 0
      - time: 0.6666667
        value: {x: 1, y: 1, z: 1}
        inSlope: {x: 0.000000014901161, y: 0.000000014901161, z: 0.000000014901161}
        outSlope: {x: 0.000000014901161, y: 0.000000014901161, z: 0.000000014901161}
        tangentMode: 0
      - time: 1
        value: {x: 1.1, y: 1.1, z: 1.1}
        inSlope: {x: 0.000000029802322, y: 0.000000029802322, z: 0.000000029802322}
        outSlope: {x: 0.000000029802322, y: 0.000000029802322, z: 0.000000029802322}
        tangentMode: 0
      - time: 1.3333334
        value: {x: 1, y: 1, z: 1}
        inSlope: {x: 0.000000044703484, y: 0.000000044703484, z: 0.000000044703484}
        outSlope: {x: 0.000000044703484, y: 0.000000044703484, z: 0.000000044703484}
        tangentMode: 0
      - time: 1.6666666
        value: {x: 1.1, y: 1.1, z: 1.1}
        inSlope: {x: 0.000000044703484, y: 0.000000044703484, z: 0.000000044703484}
        outSlope: {x: 0.000000044703484, y: 0.000000044703484, z: 0.000000044703484}
        tangentMode: 0
      - time: 2
        value: {x: 1, y: 1, z: 1}
        inSlope: {x: -0.30000004, y: -0.30000004, z: -0.30000004}
        outSlope: {x: -0.30000004, y: -0.30000004, z: -0.30000004}
        tangentMode: 0
      m_PreInfinity: 2
      m_PostInfinity: 2
      m_RotationOrder: 4
    path: 
  m_FloatCurves: []
  m_PPtrCurves: []
  m_SampleRate: 60
  m_WrapMode: 0
  m_Bounds:
    m_Center: {x: 0, y: 0, z: 0}
    m_Extent: {x: 0, y: 0, z: 0}
  m_ClipBindingConstant:
    genericBindings: []
    pptrCurveMapping: []
  m_AnimationClipSettings:
    serializedVersion: 2
    m_AdditiveReferencePoseClip: {fileID: 0}
    m_AdditiveReferencePoseTime: 0
    m_StartTime: 0
    m_StopTime: 2
    m_OrientationOffsetY: 0
    m_Level: 0
    m_CycleOffset: 0
    m_HasAdditiveReferencePose: 0
    m_LoopTime: 1
    m_LoopBlend: 0
    m_LoopBlendOrientation: 0
    m_LoopBlendPositionY: 0
    m_LoopBlendPositionXZ: 0
    m_KeepOriginalOrientation: 0
    m_KeepOriginalPositionY: 1
    m_KeepOriginalPositionXZ: 0
    m_HeightFromFeet: 0
    m_Mirror: 0
  m_EditorCurves:
  - curve:
      serializedVersion: 2
      m_Curve:
      - time: 0
        value: 1
        inSlope: 0.30000007
        outSlope: 0.30000007
        tangentMode: 10
      - time: 0.33333334
        value: 1.1
        inSlope: 0
        outSlope: 0
        tangentMode: 10
      - time: 0.6666667
        value: 1
        inSlope: 0.000000014901161
        outSlope: 0.000000014901161
        tangentMode: 10
      - time: 1
        value: 1.1
        inSlope: 0.000000029802322
        outSlope: 0.000000029802322
        tangentMode: 10
      - time: 1.3333334
        value: 1
        inSlope: 0.000000044703484
        outSlope: 0.000000044703484
        tangentMode: 10
      - time: 1.6666666
        value: 1.1
        inSlope: 0.000000044703484
        outSlope: 0.000000044703484
        tangentMode: 10
      - time: 2
        value: 1
        inSlope: -0.30000004
        outSlope: -0.30000004
        tangentMode: 10
      m_PreInfinity: 2
      m_PostInfinity: 2
      m_RotationOrder: 4
    attribute: m_LocalScale.x
    path: 
    classID: 224
    script: {fileID: 0}
  - curve:
      serializedVersion: 2
      m_Curve:
      - time: 0
        value: 1
        inSlope: 0.30000007
        outSlope: 0.30000007
        tangentMode: 10
      - time: 0.33333334
        value: 1.1
        inSlope: 0
        outSlope: 0
        tangentMode: 10
      - time: 0.6666667
        value: 1
        inSlope: 0.000000014901161
        outSlope: 0.000000014901161
        tangentMode: 10
      - time: 1
        value: 1.1
        inSlope: 0.000000029802322
        outSlope: 0.000000029802322
        tangentMode: 10
      - time: 1.3333334
        value: 1
        inSlope: 0.000000044703484
        outSlope: 0.000000044703484
        tangentMode: 10
      - time: 1.6666666
        value: 1.1
        inSlope: 0.000000044703484
        outSlope: 0.000000044703484
        tangentMode: 10
      - time: 2
        value: 1
        inSlope: -0.30000004
        outSlope: -0.30000004
        tangentMode: 10
      m_PreInfinity: 2
      m_PostInfinity: 2
      m_RotationOrder: 4
    attribute: m_LocalScale.y
    path: 
    classID: 224
    script: {fileID: 0}
  - curve:
      serializedVersion: 2
      m_Curve:
      - time: 0
        value: 1
        inSlope: 0.30000007
        outSlope: 0.30000007
        tangentMode: 10
      - time: 0.33333334
        value: 1.1
        inSlope: 0
        outSlope: 0
        tangentMode: 10
      - time: 0.6666667
        value: 1
        inSlope: 0.000000014901161
        outSlope: 0.000000014901161
        tangentMode: 10
      - time: 1
        value: 1.1
        inSlope: 0.000000029802322
        outSlope: 0.000000029802322
        tangentMode: 10
      - time: 1.3333334
        value: 1
        inSlope: 0.000000044703484
        outSlope: 0.000000044703484
        tangentMode: 10
      - time: 1.6666666
        value: 1.1
        inSlope: 0.000000044703484
        outSlope: 0.000000044703484
        tangentMode: 10
      - time: 2
        value: 1
        inSlope: -0.30000004
        outSlope: -0.30000004
        tangentMode: 10
      m_PreInfinity: 2
      m_PostInfinity: 2
      m_RotationOrder: 4
    attribute: m_LocalScale.z
    path: 
    classID: 224
    script: {fileID: 0}
  m_EulerEditorCurves: []
  m_HasGenericRootTransform: 0
  m_HasMotionFloatCurves: 0
  m_GenerateMotionCurves: 0
  m_Events: []
