%YAML 1.1
%TAG !u! tag:unity3d.com,2011:
--- !u!74 &7400000
AnimationClip:
  m_ObjectHideFlags: 0
  m_CorrespondingSourceObject: {fileID: 0}
  m_PrefabInstance: {fileID: 0}
  m_PrefabAsset: {fileID: 0}
  m_Name: School_3_3_work
  serializedVersion: 6
  m_Legacy: 0
  m_Compressed: 0
  m_UseHighQualityCurve: 1
  m_RotationCurves: []
  m_CompressedRotationCurves: []
  m_EulerCurves: []
  m_PositionCurves:
  - curve:
      serializedVersion: 2
      m_Curve:
      - serializedVersion: 3
        time: 0
        value: {x: -0.054, y: 2.644, z: -0.0001}
        inSlope: {x: 0, y: 0, z: 0}
        outSlope: {x: 0, y: 0, z: 0}
        tangentMode: 0
        weightedMode: 0
        inWeight: {x: 0.33333334, y: 0.33333334, z: 0.33333334}
        outWeight: {x: 0.33333334, y: 0.33333334, z: 0.33333334}
      - serializedVersion: 3
        time: 7.7
        value: {x: -0.054, y: 2.644, z: -0.0001}
        inSlope: {x: 0, y: 0, z: 0}
        outSlope: {x: 0, y: 0, z: 0}
        tangentMode: 0
        weightedMode: 0
        inWeight: {x: 0.33333334, y: 0.33333334, z: 0.33333334}
        outWeight: {x: 0.33333334, y: 0.33333334, z: 0.33333334}
      - serializedVersion: 3
        time: 7.8333335
        value: {x: -0.094, y: 2.662, z: -0.0001}
        inSlope: {x: 0, y: 0, z: 0}
        outSlope: {x: 0, y: 0, z: 0}
        tangentMode: 0
        weightedMode: 0
        inWeight: {x: 0.33333334, y: 0.33333334, z: 0.33333334}
        outWeight: {x: 0.33333334, y: 0.33333334, z: 0.33333334}
      - serializedVersion: 3
        time: 8.333333
        value: {x: -0.094, y: 2.662, z: -0.0001}
        inSlope: {x: 0, y: 0, z: 0}
        outSlope: {x: 0, y: 0, z: 0}
        tangentMode: 0
        weightedMode: 0
        inWeight: {x: 0.33333334, y: 0.33333334, z: 0.33333334}
        outWeight: {x: 0.33333334, y: 0.33333334, z: 0.33333334}
      - serializedVersion: 3
        time: 8.4
        value: {x: -0.113, y: 2.669, z: -0.0001}
        inSlope: {x: 0, y: 0, z: 0}
        outSlope: {x: 0, y: 0, z: 0}
        tangentMode: 0
        weightedMode: 0
        inWeight: {x: 0.33333334, y: 0.33333334, z: 0.33333334}
        outWeight: {x: 0.33333334, y: 0.33333334, z: 0.33333334}
      - serializedVersion: 3
        time: 8.866667
        value: {x: -0.113, y: 2.669, z: -0.0001}
        inSlope: {x: 0, y: 0, z: 0}
        outSlope: {x: 0, y: 0, z: 0}
        tangentMode: 0
        weightedMode: 0
        inWeight: {x: 0.33333334, y: 0.33333334, z: 0.33333334}
        outWeight: {x: 0.33333334, y: 0.33333334, z: 0.33333334}
      - serializedVersion: 3
        time: 9.5
        value: {x: -0.197, y: 2.703, z: -0.0001}
        inSlope: {x: 0, y: 0, z: 0}
        outSlope: {x: 0, y: 0, z: 0}
        tangentMode: 0
        weightedMode: 0
        inWeight: {x: 0.33333334, y: 0.33333334, z: 0.33333334}
        outWeight: {x: 0.33333334, y: 0.33333334, z: 0.33333334}
      - serializedVersion: 3
        time: 10.233334
        value: {x: -0.197, y: 2.703, z: -0.0001}
        inSlope: {x: 0, y: 0, z: 0}
        outSlope: {x: 0, y: 0, z: 0}
        tangentMode: 0
        weightedMode: 0
        inWeight: {x: 0.33333334, y: 0.33333334, z: 0.33333334}
        outWeight: {x: 0.33333334, y: 0.33333334, z: 0.33333334}
      - serializedVersion: 3
        time: 10.266666
        value: {x: -0.054, y: 2.644, z: -0.0001}
        inSlope: {x: 0, y: 0, z: 0}
        outSlope: {x: 0, y: 0, z: 0}
        tangentMode: 0
        weightedMode: 0
        inWeight: {x: 0.33333334, y: 0.33333334, z: 0.33333334}
        outWeight: {x: 0.33333334, y: 0.33333334, z: 0.33333334}
      m_PreInfinity: 2
      m_PostInfinity: 2
      m_RotationOrder: 4
    path: Desk
  m_ScaleCurves: []
  m_FloatCurves: []
  m_PPtrCurves:
  - curve:
    - time: 0
      value: {fileID: 9028376816077104343, guid: 8d6cf127018166e48b3a36602f005afb,
        type: 3}
    - time: 0.033333335
      value: {fileID: -7091155484267356702, guid: 8d6cf127018166e48b3a36602f005afb,
        type: 3}
    - time: 0.06666667
      value: {fileID: 1273528703996626104, guid: 8d6cf127018166e48b3a36602f005afb,
        type: 3}
    - time: 0.1
      value: {fileID: 7229585267999449845, guid: 8d6cf127018166e48b3a36602f005afb,
        type: 3}
    - time: 0.13333334
      value: {fileID: -3163388228694959018, guid: 8d6cf127018166e48b3a36602f005afb,
        type: 3}
    - time: 0.16666667
      value: {fileID: -5454623311735314763, guid: 8d6cf127018166e48b3a36602f005afb,
        type: 3}
    - time: 0.2
      value: {fileID: -872589095775831691, guid: 8d6cf127018166e48b3a36602f005afb,
        type: 3}
    - time: 0.23333333
      value: {fileID: 8862669440905646777, guid: 8d6cf127018166e48b3a36602f005afb,
        type: 3}
    - time: 0.26666668
      value: {fileID: -6811944400828423953, guid: 8d6cf127018166e48b3a36602f005afb,
        type: 3}
    - time: 0.3
      value: {fileID: -3301675488960491881, guid: 8d6cf127018166e48b3a36602f005afb,
        type: 3}
    - time: 0.33333334
      value: {fileID: -6051409095517373241, guid: 8d6cf127018166e48b3a36602f005afb,
        type: 3}
    - time: 0.36666667
      value: {fileID: -4500018278680191133, guid: 8d6cf127018166e48b3a36602f005afb,
        type: 3}
    - time: 0.4
      value: {fileID: -9124754815768318959, guid: 8d6cf127018166e48b3a36602f005afb,
        type: 3}
    - time: 0.43333334
      value: {fileID: -1167443940316570048, guid: 8d6cf127018166e48b3a36602f005afb,
        type: 3}
    - time: 0.46666667
      value: {fileID: -8335431295828192104, guid: 8d6cf127018166e48b3a36602f005afb,
        type: 3}
    - time: 0.5
      value: {fileID: 2611463226385789286, guid: 8d6cf127018166e48b3a36602f005afb,
        type: 3}
    - time: 0.53333336
      value: {fileID: -5313909165201506138, guid: 8d6cf127018166e48b3a36602f005afb,
        type: 3}
    - time: 0.56666666
      value: {fileID: 6291219792077689303, guid: 8d6cf127018166e48b3a36602f005afb,
        type: 3}
    - time: 0.6
      value: {fileID: 3795884894507148358, guid: 8d6cf127018166e48b3a36602f005afb,
        type: 3}
    - time: 0.6333333
      value: {fileID: -7422500503761735471, guid: 8d6cf127018166e48b3a36602f005afb,
        type: 3}
    - time: 0.6666667
      value: {fileID: -2534299545350955820, guid: 8d6cf127018166e48b3a36602f005afb,
        type: 3}
    - time: 0.7
      value: {fileID: 6694595017359810689, guid: 8d6cf127018166e48b3a36602f005afb,
        type: 3}
    - time: 0.73333335
      value: {fileID: 7515774521829555991, guid: 8d6cf127018166e48b3a36602f005afb,
        type: 3}
    - time: 0.76666665
      value: {fileID: 3483493854180286741, guid: 8d6cf127018166e48b3a36602f005afb,
        type: 3}
    - time: 0.8
      value: {fileID: -5324131269910083080, guid: 8d6cf127018166e48b3a36602f005afb,
        type: 3}
    - time: 0.8333333
      value: {fileID: 4388502580460262630, guid: 8d6cf127018166e48b3a36602f005afb,
        type: 3}
    - time: 0.8666667
      value: {fileID: 3440694956146505581, guid: 8d6cf127018166e48b3a36602f005afb,
        type: 3}
    - time: 0.9
      value: {fileID: -8903610288759039720, guid: 8d6cf127018166e48b3a36602f005afb,
        type: 3}
    - time: 0.93333334
      value: {fileID: 4791719993837293523, guid: 8d6cf127018166e48b3a36602f005afb,
        type: 3}
    - time: 0.96666664
      value: {fileID: -1489980314632971269, guid: 8d6cf127018166e48b3a36602f005afb,
        type: 3}
    - time: 1
      value: {fileID: -3811742533115387722, guid: 8d6cf127018166e48b3a36602f005afb,
        type: 3}
    - time: 1.0333333
      value: {fileID: 2796237689956417812, guid: 8d6cf127018166e48b3a36602f005afb,
        type: 3}
    - time: 1.0666667
      value: {fileID: 8071643766512008534, guid: 8d6cf127018166e48b3a36602f005afb,
        type: 3}
    - time: 1.1
      value: {fileID: -7048265794557299983, guid: 8d6cf127018166e48b3a36602f005afb,
        type: 3}
    - time: 1.1333333
      value: {fileID: 5821056233178430418, guid: 8d6cf127018166e48b3a36602f005afb,
        type: 3}
    - time: 1.1666666
      value: {fileID: -7069573190865062159, guid: 8d6cf127018166e48b3a36602f005afb,
        type: 3}
    - time: 1.2
      value: {fileID: -3243419438989172910, guid: 8d6cf127018166e48b3a36602f005afb,
        type: 3}
    - time: 1.2333333
      value: {fileID: 5289661381789218760, guid: 8d6cf127018166e48b3a36602f005afb,
        type: 3}
    - time: 1.2666667
      value: {fileID: -8539565178285286978, guid: 8d6cf127018166e48b3a36602f005afb,
        type: 3}
    - time: 1.3
      value: {fileID: 7206724536242479977, guid: 8d6cf127018166e48b3a36602f005afb,
        type: 3}
    - time: 1.3333334
      value: {fileID: -8102262654359805333, guid: 8d6cf127018166e48b3a36602f005afb,
        type: 3}
    - time: 1.3666667
      value: {fileID: 7265512126886772252, guid: 8d6cf127018166e48b3a36602f005afb,
        type: 3}
    - time: 1.4
      value: {fileID: 8471249994428055776, guid: 8d6cf127018166e48b3a36602f005afb,
        type: 3}
    - time: 1.4333333
      value: {fileID: 6316579754118405414, guid: 8d6cf127018166e48b3a36602f005afb,
        type: 3}
    - time: 1.4666667
      value: {fileID: -8235839162806626675, guid: 8d6cf127018166e48b3a36602f005afb,
        type: 3}
    - time: 1.5
      value: {fileID: -6215215239233942122, guid: 8d6cf127018166e48b3a36602f005afb,
        type: 3}
    - time: 1.5333333
      value: {fileID: 5956566221187593066, guid: 8d6cf127018166e48b3a36602f005afb,
        type: 3}
    - time: 1.5666667
      value: {fileID: 7181465695666030066, guid: 8d6cf127018166e48b3a36602f005afb,
        type: 3}
    - time: 1.6
      value: {fileID: 6647707567823561920, guid: 8d6cf127018166e48b3a36602f005afb,
        type: 3}
    - time: 1.6333333
      value: {fileID: 3485078460737576493, guid: 8d6cf127018166e48b3a36602f005afb,
        type: 3}
    - time: 1.6666666
      value: {fileID: 7934998562125370533, guid: 8d6cf127018166e48b3a36602f005afb,
        type: 3}
    - time: 1.7
      value: {fileID: 1014275132541440757, guid: 8d6cf127018166e48b3a36602f005afb,
        type: 3}
    - time: 1.7333333
      value: {fileID: 8092278881962933749, guid: 8d6cf127018166e48b3a36602f005afb,
        type: 3}
    - time: 1.7666667
      value: {fileID: -4392913184046082811, guid: 8d6cf127018166e48b3a36602f005afb,
        type: 3}
    - time: 1.8
      value: {fileID: -8835243021881842304, guid: 8d6cf127018166e48b3a36602f005afb,
        type: 3}
    - time: 1.8333334
      value: {fileID: -6666696940646064836, guid: 8d6cf127018166e48b3a36602f005afb,
        type: 3}
    - time: 1.8666667
      value: {fileID: -4216507947235131305, guid: 8d6cf127018166e48b3a36602f005afb,
        type: 3}
    - time: 1.9
      value: {fileID: -8095818404385686071, guid: 8d6cf127018166e48b3a36602f005afb,
        type: 3}
    - time: 1.9333333
      value: {fileID: -5266609524100073809, guid: 8d6cf127018166e48b3a36602f005afb,
        type: 3}
    - time: 1.9666667
      value: {fileID: -3242601276536603865, guid: 8d6cf127018166e48b3a36602f005afb,
        type: 3}
    - time: 2
      value: {fileID: -467064308690442477, guid: 8d6cf127018166e48b3a36602f005afb,
        type: 3}
    - time: 2.0333333
      value: {fileID: -617781117032643287, guid: 8d6cf127018166e48b3a36602f005afb,
        type: 3}
    - time: 2.0666666
      value: {fileID: 8649153480078086354, guid: 8d6cf127018166e48b3a36602f005afb,
        type: 3}
    - time: 2.1
      value: {fileID: -5475867498507551666, guid: 8d6cf127018166e48b3a36602f005afb,
        type: 3}
    - time: 2.1333334
      value: {fileID: 4498833314030190990, guid: 8d6cf127018166e48b3a36602f005afb,
        type: 3}
    - time: 2.1666667
      value: {fileID: 2636848835125955927, guid: 8d6cf127018166e48b3a36602f005afb,
        type: 3}
    - time: 2.2
      value: {fileID: -1867770251230609265, guid: 8d6cf127018166e48b3a36602f005afb,
        type: 3}
    - time: 2.2333333
      value: {fileID: 7385939548303460238, guid: 8d6cf127018166e48b3a36602f005afb,
        type: 3}
    - time: 2.2666667
      value: {fileID: -4471521782640441657, guid: 8d6cf127018166e48b3a36602f005afb,
        type: 3}
    - time: 2.3
      value: {fileID: 8495631488859925979, guid: 8d6cf127018166e48b3a36602f005afb,
        type: 3}
    - time: 2.3333333
      value: {fileID: -895944256427443813, guid: 8d6cf127018166e48b3a36602f005afb,
        type: 3}
    - time: 2.3666666
      value: {fileID: -8291936846530377171, guid: 8d6cf127018166e48b3a36602f005afb,
        type: 3}
    - time: 2.4
      value: {fileID: -6266946434540363880, guid: 8d6cf127018166e48b3a36602f005afb,
        type: 3}
    - time: 2.4333334
      value: {fileID: 3782579096851529541, guid: 8d6cf127018166e48b3a36602f005afb,
        type: 3}
    - time: 2.4666667
      value: {fileID: 4501729629865991054, guid: 8d6cf127018166e48b3a36602f005afb,
        type: 3}
    - time: 2.5
      value: {fileID: 2914426001568507238, guid: 8d6cf127018166e48b3a36602f005afb,
        type: 3}
    - time: 2.5333333
      value: {fileID: -313331708795659986, guid: 8d6cf127018166e48b3a36602f005afb,
        type: 3}
    - time: 2.5666666
      value: {fileID: -7925451422705254757, guid: 8d6cf127018166e48b3a36602f005afb,
        type: 3}
    - time: 2.6
      value: {fileID: 454602423861724424, guid: 8d6cf127018166e48b3a36602f005afb,
        type: 3}
    - time: 2.6333334
      value: {fileID: -7170751411718307635, guid: 8d6cf127018166e48b3a36602f005afb,
        type: 3}
    - time: 2.6666667
      value: {fileID: -3102696092233410915, guid: 8d6cf127018166e48b3a36602f005afb,
        type: 3}
    - time: 2.7
      value: {fileID: -3280534853672478472, guid: 8d6cf127018166e48b3a36602f005afb,
        type: 3}
    - time: 2.7333333
      value: {fileID: 3656035367679739250, guid: 8d6cf127018166e48b3a36602f005afb,
        type: 3}
    - time: 2.7666667
      value: {fileID: 8134460008503822990, guid: 8d6cf127018166e48b3a36602f005afb,
        type: 3}
    - time: 2.8
      value: {fileID: 3294472442758015958, guid: 8d6cf127018166e48b3a36602f005afb,
        type: 3}
    - time: 2.8333333
      value: {fileID: 2330527258139151636, guid: 8d6cf127018166e48b3a36602f005afb,
        type: 3}
    - time: 2.8666666
      value: {fileID: -217000711480045932, guid: 8d6cf127018166e48b3a36602f005afb,
        type: 3}
    - time: 2.9
      value: {fileID: -8263766409291526593, guid: 8d6cf127018166e48b3a36602f005afb,
        type: 3}
    - time: 2.9333334
      value: {fileID: 4654563968882141520, guid: 8d6cf127018166e48b3a36602f005afb,
        type: 3}
    - time: 2.9666667
      value: {fileID: 6507476746879176760, guid: 8d6cf127018166e48b3a36602f005afb,
        type: 3}
    - time: 3
      value: {fileID: -2347358548574968445, guid: 8d6cf127018166e48b3a36602f005afb,
        type: 3}
    - time: 3.0333333
      value: {fileID: 4316016213130295197, guid: 8d6cf127018166e48b3a36602f005afb,
        type: 3}
    - time: 3.0666666
      value: {fileID: -6782070564886196323, guid: 8d6cf127018166e48b3a36602f005afb,
        type: 3}
    - time: 3.1
      value: {fileID: -5917633220638736524, guid: 8d6cf127018166e48b3a36602f005afb,
        type: 3}
    - time: 3.1333334
      value: {fileID: 2623215930654819354, guid: 8d6cf127018166e48b3a36602f005afb,
        type: 3}
    - time: 3.1666667
      value: {fileID: 3150513490239577754, guid: 8d6cf127018166e48b3a36602f005afb,
        type: 3}
    - time: 3.2
      value: {fileID: -7376980773867316798, guid: 8d6cf127018166e48b3a36602f005afb,
        type: 3}
    - time: 3.2333333
      value: {fileID: 7842079764100807835, guid: 8d6cf127018166e48b3a36602f005afb,
        type: 3}
    - time: 3.2666667
      value: {fileID: -7060753193087780463, guid: 8d6cf127018166e48b3a36602f005afb,
        type: 3}
    - time: 3.3
      value: {fileID: 5128009435222149338, guid: 8d6cf127018166e48b3a36602f005afb,
        type: 3}
    - time: 3.3333333
      value: {fileID: 5225446818493216100, guid: 8d6cf127018166e48b3a36602f005afb,
        type: 3}
    - time: 3.3666666
      value: {fileID: 3721363445816055620, guid: 8d6cf127018166e48b3a36602f005afb,
        type: 3}
    - time: 3.4
      value: {fileID: -1538183563789566534, guid: 8d6cf127018166e48b3a36602f005afb,
        type: 3}
    - time: 3.4333334
      value: {fileID: -4817541434095613207, guid: 8d6cf127018166e48b3a36602f005afb,
        type: 3}
    - time: 3.4666667
      value: {fileID: 6761669067744734105, guid: 8d6cf127018166e48b3a36602f005afb,
        type: 3}
    - time: 3.5
      value: {fileID: -3092243218831684046, guid: 8d6cf127018166e48b3a36602f005afb,
        type: 3}
    - time: 3.5333333
      value: {fileID: 5805825874426545242, guid: 8d6cf127018166e48b3a36602f005afb,
        type: 3}
    - time: 3.5666666
      value: {fileID: 4325104180566805057, guid: 8d6cf127018166e48b3a36602f005afb,
        type: 3}
    - time: 3.6
      value: {fileID: -6474238219416403057, guid: 8d6cf127018166e48b3a36602f005afb,
        type: 3}
    - time: 3.6333334
      value: {fileID: -701366709159349794, guid: 8d6cf127018166e48b3a36602f005afb,
        type: 3}
    - time: 3.6666667
      value: {fileID: -7094001871977668797, guid: 8d6cf127018166e48b3a36602f005afb,
        type: 3}
    - time: 3.7
      value: {fileID: 1693360596107391015, guid: 8d6cf127018166e48b3a36602f005afb,
        type: 3}
    - time: 3.7333333
      value: {fileID: -5067062655822722700, guid: 8d6cf127018166e48b3a36602f005afb,
        type: 3}
    - time: 3.7666667
      value: {fileID: 1736788498616557367, guid: 8d6cf127018166e48b3a36602f005afb,
        type: 3}
    - time: 3.8
      value: {fileID: 809160406870101978, guid: 8d6cf127018166e48b3a36602f005afb,
        type: 3}
    - time: 3.8333333
      value: {fileID: -2853372888247112867, guid: 8d6cf127018166e48b3a36602f005afb,
        type: 3}
    - time: 3.8666666
      value: {fileID: 995941374782874977, guid: 8d6cf127018166e48b3a36602f005afb,
        type: 3}
    - time: 3.9
      value: {fileID: 5248519057801221947, guid: 8d6cf127018166e48b3a36602f005afb,
        type: 3}
    - time: 3.9333334
      value: {fileID: 576759941381893016, guid: 8d6cf127018166e48b3a36602f005afb,
        type: 3}
    - time: 3.9666667
      value: {fileID: -6504827342188519190, guid: 8d6cf127018166e48b3a36602f005afb,
        type: 3}
    - time: 4
      value: {fileID: -2322938544806269235, guid: 8d6cf127018166e48b3a36602f005afb,
        type: 3}
    - time: 4.0333333
      value: {fileID: -8758965320705414039, guid: 8d6cf127018166e48b3a36602f005afb,
        type: 3}
    - time: 4.0666666
      value: {fileID: 1255076991706308118, guid: 8d6cf127018166e48b3a36602f005afb,
        type: 3}
    - time: 4.1
      value: {fileID: -6612653525779854777, guid: 8d6cf127018166e48b3a36602f005afb,
        type: 3}
    - time: 4.133333
      value: {fileID: 2034076742383817089, guid: 8d6cf127018166e48b3a36602f005afb,
        type: 3}
    - time: 4.1666665
      value: {fileID: -3262078916215142913, guid: 8d6cf127018166e48b3a36602f005afb,
        type: 3}
    - time: 4.2
      value: {fileID: 3452354581669500566, guid: 8d6cf127018166e48b3a36602f005afb,
        type: 3}
    - time: 4.233333
      value: {fileID: 8995653654769949016, guid: 8d6cf127018166e48b3a36602f005afb,
        type: 3}
    - time: 4.266667
      value: {fileID: -2337366817729416522, guid: 8d6cf127018166e48b3a36602f005afb,
        type: 3}
    - time: 4.3
      value: {fileID: 8945640496798451165, guid: 8d6cf127018166e48b3a36602f005afb,
        type: 3}
    - time: 4.3333335
      value: {fileID: 7303875163290089934, guid: 8d6cf127018166e48b3a36602f005afb,
        type: 3}
    - time: 4.366667
      value: {fileID: -4474877657745635206, guid: 8d6cf127018166e48b3a36602f005afb,
        type: 3}
    - time: 4.4
      value: {fileID: 807761648396029168, guid: 8d6cf127018166e48b3a36602f005afb,
        type: 3}
    - time: 4.4333334
      value: {fileID: 9144638619271704991, guid: 8d6cf127018166e48b3a36602f005afb,
        type: 3}
    - time: 4.4666667
      value: {fileID: -180439615252541760, guid: 8d6cf127018166e48b3a36602f005afb,
        type: 3}
    - time: 4.5
      value: {fileID: 2881503448660280678, guid: 8d6cf127018166e48b3a36602f005afb,
        type: 3}
    - time: 4.5333333
      value: {fileID: 3979702591544164771, guid: 8d6cf127018166e48b3a36602f005afb,
        type: 3}
    - time: 4.5666666
      value: {fileID: -4269369868186921597, guid: 8d6cf127018166e48b3a36602f005afb,
        type: 3}
    - time: 4.6
      value: {fileID: 3372778334514557293, guid: 8d6cf127018166e48b3a36602f005afb,
        type: 3}
    - time: 4.633333
      value: {fileID: 5509768112325781005, guid: 8d6cf127018166e48b3a36602f005afb,
        type: 3}
    - time: 4.6666665
      value: {fileID: 6483770322091655805, guid: 8d6cf127018166e48b3a36602f005afb,
        type: 3}
    - time: 4.7
      value: {fileID: 4032072966110662708, guid: 8d6cf127018166e48b3a36602f005afb,
        type: 3}
    - time: 4.733333
      value: {fileID: -2791728505908363504, guid: 8d6cf127018166e48b3a36602f005afb,
        type: 3}
    - time: 4.766667
      value: {fileID: 3303016031852962363, guid: 8d6cf127018166e48b3a36602f005afb,
        type: 3}
    - time: 4.8
      value: {fileID: -8603975972247517684, guid: 8d6cf127018166e48b3a36602f005afb,
        type: 3}
    - time: 4.8333335
      value: {fileID: 8192137385347918588, guid: 8d6cf127018166e48b3a36602f005afb,
        type: 3}
    - time: 4.866667
      value: {fileID: 716434060052034666, guid: 8d6cf127018166e48b3a36602f005afb,
        type: 3}
    - time: 4.9
      value: {fileID: -6355588160654128591, guid: 8d6cf127018166e48b3a36602f005afb,
        type: 3}
    - time: 4.9333334
      value: {fileID: -1118178295750154902, guid: 8d6cf127018166e48b3a36602f005afb,
        type: 3}
    - time: 4.9666667
      value: {fileID: 1698091701889642531, guid: 8d6cf127018166e48b3a36602f005afb,
        type: 3}
    - time: 5
      value: {fileID: -4502066347732811756, guid: 8d6cf127018166e48b3a36602f005afb,
        type: 3}
    - time: 5.0333333
      value: {fileID: -3210767268706789726, guid: 8d6cf127018166e48b3a36602f005afb,
        type: 3}
    - time: 5.0666666
      value: {fileID: 6481055705435577454, guid: 8d6cf127018166e48b3a36602f005afb,
        type: 3}
    - time: 5.1
      value: {fileID: 6746138820933878298, guid: 8d6cf127018166e48b3a36602f005afb,
        type: 3}
    - time: 5.133333
      value: {fileID: -5585846770898452344, guid: 8d6cf127018166e48b3a36602f005afb,
        type: 3}
    - time: 5.1666665
      value: {fileID: 1244499527427515868, guid: 8d6cf127018166e48b3a36602f005afb,
        type: 3}
    - time: 5.2
      value: {fileID: 3766919024897554627, guid: 8d6cf127018166e48b3a36602f005afb,
        type: 3}
    - time: 5.233333
      value: {fileID: -1759934412464977552, guid: 8d6cf127018166e48b3a36602f005afb,
        type: 3}
    - time: 5.266667
      value: {fileID: -4393003147068970829, guid: 8d6cf127018166e48b3a36602f005afb,
        type: 3}
    - time: 5.3
      value: {fileID: 6766364185691703290, guid: 8d6cf127018166e48b3a36602f005afb,
        type: 3}
    - time: 5.3333335
      value: {fileID: -2761716498527280729, guid: 8d6cf127018166e48b3a36602f005afb,
        type: 3}
    - time: 5.366667
      value: {fileID: -6191480209973551786, guid: 8d6cf127018166e48b3a36602f005afb,
        type: 3}
    - time: 5.4
      value: {fileID: -5743438100659169644, guid: 8d6cf127018166e48b3a36602f005afb,
        type: 3}
    - time: 5.4333334
      value: {fileID: -7120053654569999305, guid: 8d6cf127018166e48b3a36602f005afb,
        type: 3}
    - time: 5.4666667
      value: {fileID: -3789185568866372228, guid: 8d6cf127018166e48b3a36602f005afb,
        type: 3}
    - time: 5.5
      value: {fileID: -4084878676064703909, guid: 8d6cf127018166e48b3a36602f005afb,
        type: 3}
    - time: 5.5333333
      value: {fileID: 8388578754789458215, guid: 8d6cf127018166e48b3a36602f005afb,
        type: 3}
    - time: 5.5666666
      value: {fileID: 644211521385835839, guid: 8d6cf127018166e48b3a36602f005afb,
        type: 3}
    - time: 5.6
      value: {fileID: 5834685408751672922, guid: 8d6cf127018166e48b3a36602f005afb,
        type: 3}
    - time: 5.633333
      value: {fileID: -5120522760131006933, guid: 8d6cf127018166e48b3a36602f005afb,
        type: 3}
    - time: 5.6666665
      value: {fileID: 5178940827331666233, guid: 8d6cf127018166e48b3a36602f005afb,
        type: 3}
    - time: 5.7
      value: {fileID: -8443273003600892329, guid: 8d6cf127018166e48b3a36602f005afb,
        type: 3}
    - time: 5.733333
      value: {fileID: 5306676769372012184, guid: 8d6cf127018166e48b3a36602f005afb,
        type: 3}
    - time: 5.766667
      value: {fileID: -5434473129299646552, guid: 8d6cf127018166e48b3a36602f005afb,
        type: 3}
    - time: 5.8
      value: {fileID: -2078232945447424301, guid: 8d6cf127018166e48b3a36602f005afb,
        type: 3}
    - time: 5.8333335
      value: {fileID: -7777960347945431413, guid: 8d6cf127018166e48b3a36602f005afb,
        type: 3}
    - time: 5.866667
      value: {fileID: -4873780414375277931, guid: 8d6cf127018166e48b3a36602f005afb,
        type: 3}
    - time: 5.9
      value: {fileID: 8642196511400834015, guid: 8d6cf127018166e48b3a36602f005afb,
        type: 3}
    - time: 5.9333334
      value: {fileID: 2136332148557391488, guid: 8d6cf127018166e48b3a36602f005afb,
        type: 3}
    - time: 5.9666667
      value: {fileID: -8727818851068265327, guid: 8d6cf127018166e48b3a36602f005afb,
        type: 3}
    - time: 6
      value: {fileID: 2359368689098316691, guid: 8d6cf127018166e48b3a36602f005afb,
        type: 3}
    - time: 6.0333333
      value: {fileID: -9188063526023332099, guid: 8d6cf127018166e48b3a36602f005afb,
        type: 3}
    - time: 6.0666666
      value: {fileID: 3012671062139335251, guid: 8d6cf127018166e48b3a36602f005afb,
        type: 3}
    - time: 6.1
      value: {fileID: -3792186155260312786, guid: 8d6cf127018166e48b3a36602f005afb,
        type: 3}
    - time: 6.133333
      value: {fileID: -3828210455505663906, guid: 8d6cf127018166e48b3a36602f005afb,
        type: 3}
    - time: 6.1666665
      value: {fileID: -813468728057977916, guid: 8d6cf127018166e48b3a36602f005afb,
        type: 3}
    - time: 6.2
      value: {fileID: 5329003252813555499, guid: 8d6cf127018166e48b3a36602f005afb,
        type: 3}
    - time: 6.233333
      value: {fileID: 1119782822861045679, guid: 8d6cf127018166e48b3a36602f005afb,
        type: 3}
    - time: 6.266667
      value: {fileID: 6015351772016708801, guid: 8d6cf127018166e48b3a36602f005afb,
        type: 3}
    - time: 6.3
      value: {fileID: 2912510968715653794, guid: 8d6cf127018166e48b3a36602f005afb,
        type: 3}
    - time: 6.3333335
      value: {fileID: -8961496669983122534, guid: 8d6cf127018166e48b3a36602f005afb,
        type: 3}
    - time: 6.366667
      value: {fileID: 9206738093141851439, guid: 8d6cf127018166e48b3a36602f005afb,
        type: 3}
    - time: 6.4
      value: {fileID: 6734355640079632840, guid: 8d6cf127018166e48b3a36602f005afb,
        type: 3}
    - time: 6.4333334
      value: {fileID: -4953290519131163796, guid: 8d6cf127018166e48b3a36602f005afb,
        type: 3}
    - time: 6.4666667
      value: {fileID: -8849131767528651527, guid: 8d6cf127018166e48b3a36602f005afb,
        type: 3}
    - time: 6.5
      value: {fileID: -8110892571470718788, guid: 8d6cf127018166e48b3a36602f005afb,
        type: 3}
    - time: 6.5333333
      value: {fileID: -8972862017815890504, guid: 8d6cf127018166e48b3a36602f005afb,
        type: 3}
    - time: 6.5666666
      value: {fileID: -2449292539392794813, guid: 8d6cf127018166e48b3a36602f005afb,
        type: 3}
    - time: 6.6
      value: {fileID: -1445836390721583402, guid: 8d6cf127018166e48b3a36602f005afb,
        type: 3}
    - time: 6.633333
      value: {fileID: -719565296404462858, guid: 8d6cf127018166e48b3a36602f005afb,
        type: 3}
    - time: 6.6666665
      value: {fileID: 8786391092365439681, guid: 8d6cf127018166e48b3a36602f005afb,
        type: 3}
    - time: 6.7
      value: {fileID: 5128964687087126532, guid: 8d6cf127018166e48b3a36602f005afb,
        type: 3}
    - time: 6.733333
      value: {fileID: 7034494145884045987, guid: 8d6cf127018166e48b3a36602f005afb,
        type: 3}
    - time: 6.766667
      value: {fileID: -377966162256409150, guid: 8d6cf127018166e48b3a36602f005afb,
        type: 3}
    - time: 6.8
      value: {fileID: -5044058389074940782, guid: 8d6cf127018166e48b3a36602f005afb,
        type: 3}
    - time: 6.8333335
      value: {fileID: 3791597549479786003, guid: 8d6cf127018166e48b3a36602f005afb,
        type: 3}
    - time: 6.866667
      value: {fileID: -2457403770773108799, guid: 8d6cf127018166e48b3a36602f005afb,
        type: 3}
    - time: 6.9
      value: {fileID: -4041138878683873267, guid: 8d6cf127018166e48b3a36602f005afb,
        type: 3}
    - time: 6.9333334
      value: {fileID: 4123266711438233847, guid: 8d6cf127018166e48b3a36602f005afb,
        type: 3}
    - time: 6.9666667
      value: {fileID: -3676353384724499002, guid: 8d6cf127018166e48b3a36602f005afb,
        type: 3}
    - time: 7
      value: {fileID: -7654612765181908041, guid: 8d6cf127018166e48b3a36602f005afb,
        type: 3}
    - time: 7.0333333
      value: {fileID: -3895891194296569442, guid: 8d6cf127018166e48b3a36602f005afb,
        type: 3}
    - time: 7.0666666
      value: {fileID: -2286624087007447078, guid: 8d6cf127018166e48b3a36602f005afb,
        type: 3}
    - time: 7.1
      value: {fileID: 4855468289692182524, guid: 8d6cf127018166e48b3a36602f005afb,
        type: 3}
    - time: 7.133333
      value: {fileID: -7493872207963206914, guid: 8d6cf127018166e48b3a36602f005afb,
        type: 3}
    - time: 7.1666665
      value: {fileID: 6701145667668710470, guid: 8d6cf127018166e48b3a36602f005afb,
        type: 3}
    - time: 7.2
      value: {fileID: 7169977499827444524, guid: 8d6cf127018166e48b3a36602f005afb,
        type: 3}
    - time: 7.233333
      value: {fileID: 4194614716076398593, guid: 8d6cf127018166e48b3a36602f005afb,
        type: 3}
    - time: 7.266667
      value: {fileID: 901276319123054912, guid: 8d6cf127018166e48b3a36602f005afb,
        type: 3}
    - time: 7.3
      value: {fileID: 6964556053391567015, guid: 8d6cf127018166e48b3a36602f005afb,
        type: 3}
    - time: 7.3333335
      value: {fileID: 9107950212076735405, guid: 8d6cf127018166e48b3a36602f005afb,
        type: 3}
    - time: 7.366667
      value: {fileID: 1817778376141181120, guid: 8d6cf127018166e48b3a36602f005afb,
        type: 3}
    - time: 7.4
      value: {fileID: 4116094262028705379, guid: 8d6cf127018166e48b3a36602f005afb,
        type: 3}
    - time: 7.4333334
      value: {fileID: 4253457394964844103, guid: 8d6cf127018166e48b3a36602f005afb,
        type: 3}
    - time: 7.4666667
      value: {fileID: 8258371347606472181, guid: 8d6cf127018166e48b3a36602f005afb,
        type: 3}
    - time: 7.5
      value: {fileID: 9189130831277726579, guid: 8d6cf127018166e48b3a36602f005afb,
        type: 3}
    - time: 7.5333333
      value: {fileID: 4681550109141072407, guid: 8d6cf127018166e48b3a36602f005afb,
        type: 3}
    - time: 7.5666666
      value: {fileID: 7423781426622533769, guid: 8d6cf127018166e48b3a36602f005afb,
        type: 3}
    - time: 7.6
      value: {fileID: 2238273827297931056, guid: 8d6cf127018166e48b3a36602f005afb,
        type: 3}
    - time: 7.633333
      value: {fileID: -8232786564586719725, guid: 8d6cf127018166e48b3a36602f005afb,
        type: 3}
    - time: 7.6666665
      value: {fileID: 4928887109514490631, guid: 8d6cf127018166e48b3a36602f005afb,
        type: 3}
    - time: 7.7
      value: {fileID: -5096013494951596783, guid: 8d6cf127018166e48b3a36602f005afb,
        type: 3}
    - time: 7.733333
      value: {fileID: -7173271366860395422, guid: 8d6cf127018166e48b3a36602f005afb,
        type: 3}
    - time: 7.766667
      value: {fileID: -5549959445912379399, guid: 8d6cf127018166e48b3a36602f005afb,
        type: 3}
    - time: 7.8
      value: {fileID: -6863897048320398920, guid: 8d6cf127018166e48b3a36602f005afb,
        type: 3}
    - time: 7.8333335
      value: {fileID: -2099958409418811173, guid: 8d6cf127018166e48b3a36602f005afb,
        type: 3}
    - time: 7.866667
      value: {fileID: 1187685612063189272, guid: 8d6cf127018166e48b3a36602f005afb,
        type: 3}
    - time: 7.9
      value: {fileID: 5395274845940402945, guid: 8d6cf127018166e48b3a36602f005afb,
        type: 3}
    - time: 7.9333334
      value: {fileID: -2216429198610044286, guid: 8d6cf127018166e48b3a36602f005afb,
        type: 3}
    - time: 7.9666667
      value: {fileID: -7235651179511376744, guid: 8d6cf127018166e48b3a36602f005afb,
        type: 3}
    - time: 8
      value: {fileID: 381176243646070734, guid: 8d6cf127018166e48b3a36602f005afb,
        type: 3}
    - time: 8.033334
      value: {fileID: -10161327402992689, guid: 8d6cf127018166e48b3a36602f005afb,
        type: 3}
    - time: 8.066667
      value: {fileID: -7529550451845601430, guid: 8d6cf127018166e48b3a36602f005afb,
        type: 3}
    - time: 8.1
      value: {fileID: 5317856047045757831, guid: 8d6cf127018166e48b3a36602f005afb,
        type: 3}
    - time: 8.133333
      value: {fileID: -2725848558794756286, guid: 8d6cf127018166e48b3a36602f005afb,
        type: 3}
    - time: 8.166667
      value: {fileID: 2871235988943344448, guid: 8d6cf127018166e48b3a36602f005afb,
        type: 3}
    - time: 8.2
      value: {fileID: 3268054805903633010, guid: 8d6cf127018166e48b3a36602f005afb,
        type: 3}
    - time: 8.233334
      value: {fileID: 9029975314098841145, guid: 8d6cf127018166e48b3a36602f005afb,
        type: 3}
    - time: 8.266666
      value: {fileID: 1554433346079853123, guid: 8d6cf127018166e48b3a36602f005afb,
        type: 3}
    - time: 8.3
      value: {fileID: -5438336491321809560, guid: 8d6cf127018166e48b3a36602f005afb,
        type: 3}
    - time: 8.333333
      value: {fileID: -922669815408847873, guid: 8d6cf127018166e48b3a36602f005afb,
        type: 3}
    - time: 8.366667
      value: {fileID: -971853112191482903, guid: 8d6cf127018166e48b3a36602f005afb,
        type: 3}
    - time: 8.4
      value: {fileID: 4517483533736234614, guid: 8d6cf127018166e48b3a36602f005afb,
        type: 3}
    - time: 8.433333
      value: {fileID: 1429700638832677985, guid: 8d6cf127018166e48b3a36602f005afb,
        type: 3}
    - time: 8.466666
      value: {fileID: 4491500998085393687, guid: 8d6cf127018166e48b3a36602f005afb,
        type: 3}
    - time: 8.5
      value: {fileID: -460582053648039658, guid: 8d6cf127018166e48b3a36602f005afb,
        type: 3}
    - time: 8.533334
      value: {fileID: -1153838919225848409, guid: 8d6cf127018166e48b3a36602f005afb,
        type: 3}
    - time: 8.566667
      value: {fileID: 7905722354113674373, guid: 8d6cf127018166e48b3a36602f005afb,
        type: 3}
    - time: 8.6
      value: {fileID: -1860460330620751443, guid: 8d6cf127018166e48b3a36602f005afb,
        type: 3}
    - time: 8.633333
      value: {fileID: 4271425233731893597, guid: 8d6cf127018166e48b3a36602f005afb,
        type: 3}
    - time: 8.666667
      value: {fileID: -3769731594951132079, guid: 8d6cf127018166e48b3a36602f005afb,
        type: 3}
    - time: 8.7
      value: {fileID: 1256128965786665618, guid: 8d6cf127018166e48b3a36602f005afb,
        type: 3}
    - time: 8.733334
      value: {fileID: 225550329880096641, guid: 8d6cf127018166e48b3a36602f005afb,
        type: 3}
    - time: 8.766666
      value: {fileID: -1746794333258467836, guid: 8d6cf127018166e48b3a36602f005afb,
        type: 3}
    - time: 8.8
      value: {fileID: -5025755404592887836, guid: 8d6cf127018166e48b3a36602f005afb,
        type: 3}
    - time: 8.833333
      value: {fileID: -6236255378344840843, guid: 8d6cf127018166e48b3a36602f005afb,
        type: 3}
    - time: 8.866667
      value: {fileID: -8867212330092956173, guid: 8d6cf127018166e48b3a36602f005afb,
        type: 3}
    - time: 8.9
      value: {fileID: 2709656068154850111, guid: 8d6cf127018166e48b3a36602f005afb,
        type: 3}
    - time: 8.933333
      value: {fileID: 5874448819253148832, guid: 8d6cf127018166e48b3a36602f005afb,
        type: 3}
    - time: 8.966666
      value: {fileID: 9115209478658052859, guid: 8d6cf127018166e48b3a36602f005afb,
        type: 3}
    - time: 9
      value: {fileID: -2806290866063490747, guid: 8d6cf127018166e48b3a36602f005afb,
        type: 3}
    - time: 9.033334
      value: {fileID: -2509549000049575337, guid: 8d6cf127018166e48b3a36602f005afb,
        type: 3}
    - time: 9.066667
      value: {fileID: 6015711139032519787, guid: 8d6cf127018166e48b3a36602f005afb,
        type: 3}
    - time: 9.1
      value: {fileID: -190833931454866344, guid: 8d6cf127018166e48b3a36602f005afb,
        type: 3}
    - time: 9.133333
      value: {fileID: -1604619050896630560, guid: 8d6cf127018166e48b3a36602f005afb,
        type: 3}
    - time: 9.166667
      value: {fileID: -4288362700409078655, guid: 8d6cf127018166e48b3a36602f005afb,
        type: 3}
    - time: 9.2
      value: {fileID: -7897862674565069256, guid: 8d6cf127018166e48b3a36602f005afb,
        type: 3}
    - time: 9.233334
      value: {fileID: -3491698975835000836, guid: 8d6cf127018166e48b3a36602f005afb,
        type: 3}
    - time: 9.266666
      value: {fileID: -7820474335909130311, guid: 8d6cf127018166e48b3a36602f005afb,
        type: 3}
    - time: 9.3
      value: {fileID: 1074593013528033134, guid: 8d6cf127018166e48b3a36602f005afb,
        type: 3}
    - time: 9.333333
      value: {fileID: -7736900719635627415, guid: 8d6cf127018166e48b3a36602f005afb,
        type: 3}
    - time: 9.366667
      value: {fileID: 4276709350769213559, guid: 8d6cf127018166e48b3a36602f005afb,
        type: 3}
    - time: 9.4
      value: {fileID: -4669713576359925997, guid: 8d6cf127018166e48b3a36602f005afb,
        type: 3}
    - time: 9.433333
      value: {fileID: -116012089541107124, guid: 8d6cf127018166e48b3a36602f005afb,
        type: 3}
    - time: 9.466666
      value: {fileID: -6488877592959475163, guid: 8d6cf127018166e48b3a36602f005afb,
        type: 3}
    - time: 9.5
      value: {fileID: -3556837274843650464, guid: 8d6cf127018166e48b3a36602f005afb,
        type: 3}
    - time: 9.533334
      value: {fileID: -2439618955727676898, guid: 8d6cf127018166e48b3a36602f005afb,
        type: 3}
    - time: 9.566667
      value: {fileID: -4740831094767947534, guid: 8d6cf127018166e48b3a36602f005afb,
        type: 3}
    - time: 9.6
      value: {fileID: 5939812755401318413, guid: 8d6cf127018166e48b3a36602f005afb,
        type: 3}
    - time: 9.633333
      value: {fileID: -2512769511387236202, guid: 8d6cf127018166e48b3a36602f005afb,
        type: 3}
    - time: 9.666667
      value: {fileID: 7833564749185025401, guid: 8d6cf127018166e48b3a36602f005afb,
        type: 3}
    - time: 9.7
      value: {fileID: -6242604252614678403, guid: 8d6cf127018166e48b3a36602f005afb,
        type: 3}
    - time: 9.733334
      value: {fileID: -850561220488933940, guid: 8d6cf127018166e48b3a36602f005afb,
        type: 3}
    - time: 9.766666
      value: {fileID: 7111642470278302116, guid: 8d6cf127018166e48b3a36602f005afb,
        type: 3}
    - time: 9.8
      value: {fileID: -5617938790084982744, guid: 8d6cf127018166e48b3a36602f005afb,
        type: 3}
    - time: 9.833333
      value: {fileID: 3836718980479001784, guid: 8d6cf127018166e48b3a36602f005afb,
        type: 3}
    - time: 9.866667
      value: {fileID: 1811787149623801362, guid: 8d6cf127018166e48b3a36602f005afb,
        type: 3}
    - time: 9.9
      value: {fileID: -6173914482056717250, guid: 8d6cf127018166e48b3a36602f005afb,
        type: 3}
    - time: 9.933333
      value: {fileID: 3450722359871435656, guid: 8d6cf127018166e48b3a36602f005afb,
        type: 3}
    - time: 9.966666
      value: {fileID: 2483504895296342473, guid: 8d6cf127018166e48b3a36602f005afb,
        type: 3}
    - time: 10
      value: {fileID: 3536054700614186071, guid: 8d6cf127018166e48b3a36602f005afb,
        type: 3}
    - time: 10.033334
      value: {fileID: -2511984658539568386, guid: 8d6cf127018166e48b3a36602f005afb,
        type: 3}
    - time: 10.066667
      value: {fileID: 8640321681153911191, guid: 8d6cf127018166e48b3a36602f005afb,
        type: 3}
    - time: 10.1
      value: {fileID: 319887866769713963, guid: 8d6cf127018166e48b3a36602f005afb,
        type: 3}
    - time: 10.133333
      value: {fileID: -7117264483766274116, guid: 8d6cf127018166e48b3a36602f005afb,
        type: 3}
    - time: 10.166667
      value: {fileID: 7635664578769753266, guid: 8d6cf127018166e48b3a36602f005afb,
        type: 3}
    - time: 10.2
      value: {fileID: 4350287742222776831, guid: 8d6cf127018166e48b3a36602f005afb,
        type: 3}
    - time: 10.233334
      value: {fileID: 3733806856751434891, guid: 8d6cf127018166e48b3a36602f005afb,
        type: 3}
    - time: 10.266666
      value: {fileID: 685483155270973783, guid: 8d6cf127018166e48b3a36602f005afb,
        type: 3}
    - time: 10.3
      value: {fileID: -5631845467124347015, guid: 8d6cf127018166e48b3a36602f005afb,
        type: 3}
    - time: 10.333333
      value: {fileID: -8967510496789688670, guid: 8d6cf127018166e48b3a36602f005afb,
        type: 3}
    - time: 10.366667
      value: {fileID: 132253531554038318, guid: 8d6cf127018166e48b3a36602f005afb,
        type: 3}
    - time: 10.4
      value: {fileID: -292332650869369343, guid: 8d6cf127018166e48b3a36602f005afb,
        type: 3}
    - time: 10.433333
      value: {fileID: -4170077871817383822, guid: 8d6cf127018166e48b3a36602f005afb,
        type: 3}
    - time: 10.466666
      value: {fileID: 2721708311946854060, guid: 8d6cf127018166e48b3a36602f005afb,
        type: 3}
    - time: 10.5
      value: {fileID: -1358352673493659080, guid: 8d6cf127018166e48b3a36602f005afb,
        type: 3}
    - time: 10.533334
      value: {fileID: 6855065319048723203, guid: 8d6cf127018166e48b3a36602f005afb,
        type: 3}
    - time: 10.566667
      value: {fileID: -2281347590902842306, guid: 8d6cf127018166e48b3a36602f005afb,
        type: 3}
    - time: 10.6
      value: {fileID: -6828010413326118501, guid: 8d6cf127018166e48b3a36602f005afb,
        type: 3}
    - time: 10.633333
      value: {fileID: 4598924430345225406, guid: 8d6cf127018166e48b3a36602f005afb,
        type: 3}
    - time: 10.666667
      value: {fileID: -4039810489801130460, guid: 8d6cf127018166e48b3a36602f005afb,
        type: 3}
    - time: 10.7
      value: {fileID: -6849001578878701931, guid: 8d6cf127018166e48b3a36602f005afb,
        type: 3}
    - time: 10.733334
      value: {fileID: -8618480307409305189, guid: 8d6cf127018166e48b3a36602f005afb,
        type: 3}
    - time: 10.766666
      value: {fileID: -56029645295902177, guid: 8d6cf127018166e48b3a36602f005afb,
        type: 3}
    - time: 10.8
      value: {fileID: 4529920175754036145, guid: 8d6cf127018166e48b3a36602f005afb,
        type: 3}
    - time: 10.833333
      value: {fileID: -2167338787457577988, guid: 8d6cf127018166e48b3a36602f005afb,
        type: 3}
    - time: 10.866667
      value: {fileID: -3805297252132798966, guid: 8d6cf127018166e48b3a36602f005afb,
        type: 3}
    - time: 10.9
      value: {fileID: 6180211054102103523, guid: 8d6cf127018166e48b3a36602f005afb,
        type: 3}
    - time: 10.933333
      value: {fileID: 223277234790384214, guid: 8d6cf127018166e48b3a36602f005afb,
        type: 3}
    - time: 10.966666
      value: {fileID: 5164384273547144963, guid: 8d6cf127018166e48b3a36602f005afb,
        type: 3}
    - time: 11
      value: {fileID: 740392033930124447, guid: 8d6cf127018166e48b3a36602f005afb,
        type: 3}
    - time: 11.033334
      value: {fileID: -8621727042657248161, guid: 8d6cf127018166e48b3a36602f005afb,
        type: 3}
    - time: 11.066667
      value: {fileID: -7795684460437038760, guid: 8d6cf127018166e48b3a36602f005afb,
        type: 3}
    - time: 11.1
      value: {fileID: -4931613090092109514, guid: 8d6cf127018166e48b3a36602f005afb,
        type: 3}
    - time: 11.133333
      value: {fileID: -2116821697461087335, guid: 8d6cf127018166e48b3a36602f005afb,
        type: 3}
    - time: 11.166667
      value: {fileID: 2231805597993499563, guid: 8d6cf127018166e48b3a36602f005afb,
        type: 3}
    - time: 11.2
      value: {fileID: -3435814197313051839, guid: 8d6cf127018166e48b3a36602f005afb,
        type: 3}
    - time: 11.233334
      value: {fileID: -3789331605059226358, guid: 8d6cf127018166e48b3a36602f005afb,
        type: 3}
    - time: 11.266666
      value: {fileID: 5389666455427350815, guid: 8d6cf127018166e48b3a36602f005afb,
        type: 3}
    - time: 11.3
      value: {fileID: -3173167249164588716, guid: 8d6cf127018166e48b3a36602f005afb,
        type: 3}
    - time: 11.333333
      value: {fileID: 7153237118119490756, guid: 8d6cf127018166e48b3a36602f005afb,
        type: 3}
    - time: 11.366667
      value: {fileID: 1209428978455553750, guid: 8d6cf127018166e48b3a36602f005afb,
        type: 3}
    - time: 11.4
      value: {fileID: 8665142695110999949, guid: 8d6cf127018166e48b3a36602f005afb,
        type: 3}
    - time: 11.433333
      value: {fileID: -6923295263024918145, guid: 8d6cf127018166e48b3a36602f005afb,
        type: 3}
    - time: 11.466666
      value: {fileID: 4045285628727224927, guid: 8d6cf127018166e48b3a36602f005afb,
        type: 3}
    - time: 11.5
      value: {fileID: 5131194310628260206, guid: 8d6cf127018166e48b3a36602f005afb,
        type: 3}
    - time: 11.533334
      value: {fileID: -7552600458113107480, guid: 8d6cf127018166e48b3a36602f005afb,
        type: 3}
    - time: 11.566667
      value: {fileID: -1902385295108817335, guid: 8d6cf127018166e48b3a36602f005afb,
        type: 3}
    - time: 11.6
      value: {fileID: 145233560811140557, guid: 8d6cf127018166e48b3a36602f005afb,
        type: 3}
    - time: 11.633333
      value: {fileID: -2582936200641448996, guid: 8d6cf127018166e48b3a36602f005afb,
        type: 3}
    - time: 11.666667
      value: {fileID: 8880883073583470312, guid: 8d6cf127018166e48b3a36602f005afb,
        type: 3}
    - time: 11.7
      value: {fileID: 700688930856941319, guid: 8d6cf127018166e48b3a36602f005afb,
        type: 3}
    - time: 11.733334
      value: {fileID: -688426151556666610, guid: 8d6cf127018166e48b3a36602f005afb,
        type: 3}
    - time: 11.766666
      value: {fileID: -9189428204977934661, guid: 8d6cf127018166e48b3a36602f005afb,
        type: 3}
    - time: 11.8
      value: {fileID: 1280692768440407085, guid: 8d6cf127018166e48b3a36602f005afb,
        type: 3}
    - time: 11.833333
      value: {fileID: 4909257527788125699, guid: 8d6cf127018166e48b3a36602f005afb,
        type: 3}
    - time: 11.866667
      value: {fileID: 7753209659171845315, guid: 8d6cf127018166e48b3a36602f005afb,
        type: 3}
    - time: 11.9
      value: {fileID: 3528796159891197722, guid: 8d6cf127018166e48b3a36602f005afb,
        type: 3}
    - time: 11.933333
      value: {fileID: 8706186454054920878, guid: 8d6cf127018166e48b3a36602f005afb,
        type: 3}
    - time: 11.966666
      value: {fileID: -5516008220426996910, guid: 8d6cf127018166e48b3a36602f005afb,
        type: 3}
    - time: 12
      value: {fileID: -8207882823442173288, guid: 8d6cf127018166e48b3a36602f005afb,
        type: 3}
    - time: 12.033334
      value: {fileID: -3535372081347557967, guid: 8d6cf127018166e48b3a36602f005afb,
        type: 3}
    - time: 12.066667
      value: {fileID: 9137280718309587421, guid: 8d6cf127018166e48b3a36602f005afb,
        type: 3}
    - time: 12.1
      value: {fileID: -318449798041572442, guid: 8d6cf127018166e48b3a36602f005afb,
        type: 3}
    - time: 12.133333
      value: {fileID: 5502600985706790154, guid: 8d6cf127018166e48b3a36602f005afb,
        type: 3}
    - time: 12.166667
      value: {fileID: -2144762669383573877, guid: 8d6cf127018166e48b3a36602f005afb,
        type: 3}
    - time: 12.2
      value: {fileID: -4423878232455814854, guid: 8d6cf127018166e48b3a36602f005afb,
        type: 3}
    - time: 12.233334
      value: {fileID: -4794984755997196183, guid: 8d6cf127018166e48b3a36602f005afb,
        type: 3}
    - time: 12.266666
      value: {fileID: 8496180355235197306, guid: 8d6cf127018166e48b3a36602f005afb,
        type: 3}
    - time: 12.3
      value: {fileID: 2684861430469452406, guid: 8d6cf127018166e48b3a36602f005afb,
        type: 3}
    - time: 12.333333
      value: {fileID: -2481559241629691162, guid: 8d6cf127018166e48b3a36602f005afb,
        type: 3}
    - time: 12.366667
      value: {fileID: 234836751112457820, guid: 8d6cf127018166e48b3a36602f005afb,
        type: 3}
    - time: 12.4
      value: {fileID: -6284940619066111686, guid: 8d6cf127018166e48b3a36602f005afb,
        type: 3}
    - time: 12.433333
      value: {fileID: 3954153947432977152, guid: 8d6cf127018166e48b3a36602f005afb,
        type: 3}
    - time: 12.466666
      value: {fileID: -3174257503620093142, guid: 8d6cf127018166e48b3a36602f005afb,
        type: 3}
    - time: 12.5
      value: {fileID: 2342513626971830242, guid: 8d6cf127018166e48b3a36602f005afb,
        type: 3}
    - time: 12.533334
      value: {fileID: -7016092227008301960, guid: 8d6cf127018166e48b3a36602f005afb,
        type: 3}
    - time: 12.566667
      value: {fileID: -8214082495353387403, guid: 8d6cf127018166e48b3a36602f005afb,
        type: 3}
    - time: 12.6
      value: {fileID: 1186813573414175272, guid: 8d6cf127018166e48b3a36602f005afb,
        type: 3}
    - time: 12.633333
      value: {fileID: 2755296003913735288, guid: 8d6cf127018166e48b3a36602f005afb,
        type: 3}
    - time: 12.666667
      value: {fileID: -7335904296402342340, guid: 8d6cf127018166e48b3a36602f005afb,
        type: 3}
    - time: 12.7
      value: {fileID: 7826309759020373390, guid: 8d6cf127018166e48b3a36602f005afb,
        type: 3}
    - time: 12.733334
      value: {fileID: -1282876324571040758, guid: 8d6cf127018166e48b3a36602f005afb,
        type: 3}
    - time: 12.766666
      value: {fileID: 3256065902193265144, guid: 8d6cf127018166e48b3a36602f005afb,
        type: 3}
    - time: 12.8
      value: {fileID: 8306319589961948657, guid: 8d6cf127018166e48b3a36602f005afb,
        type: 3}
    - time: 12.833333
      value: {fileID: 8470083421329166141, guid: 8d6cf127018166e48b3a36602f005afb,
        type: 3}
    - time: 12.866667
      value: {fileID: 3811016816033006138, guid: 8d6cf127018166e48b3a36602f005afb,
        type: 3}
    - time: 12.9
      value: {fileID: -8705556209929749771, guid: 8d6cf127018166e48b3a36602f005afb,
        type: 3}
    - time: 12.933333
      value: {fileID: 8887954749658656802, guid: 8d6cf127018166e48b3a36602f005afb,
        type: 3}
    - time: 12.966666
      value: {fileID: -6962555035860933897, guid: 8d6cf127018166e48b3a36602f005afb,
        type: 3}
    - time: 13
      value: {fileID: -8119889721453980313, guid: 8d6cf127018166e48b3a36602f005afb,
        type: 3}
    - time: 13.033334
      value: {fileID: 6297943165184970114, guid: 8d6cf127018166e48b3a36602f005afb,
        type: 3}
    - time: 13.066667
      value: {fileID: -6595501878659829624, guid: 8d6cf127018166e48b3a36602f005afb,
        type: 3}
    - time: 13.1
      value: {fileID: 8780523107367453348, guid: 8d6cf127018166e48b3a36602f005afb,
        type: 3}
    - time: 13.133333
      value: {fileID: 7173269423063683044, guid: 8d6cf127018166e48b3a36602f005afb,
        type: 3}
    - time: 13.166667
      value: {fileID: 4201509649228525269, guid: 8d6cf127018166e48b3a36602f005afb,
        type: 3}
    - time: 13.2
      value: {fileID: 4148779724304124433, guid: 8d6cf127018166e48b3a36602f005afb,
        type: 3}
    - time: 13.233334
      value: {fileID: 5130572660463064899, guid: 8d6cf127018166e48b3a36602f005afb,
        type: 3}
    - time: 13.266666
      value: {fileID: 6119141397586343587, guid: 8d6cf127018166e48b3a36602f005afb,
        type: 3}
    attribute: m_Sprite
    path: Character
    classID: 212
    script: {fileID: 0}
  m_SampleRate: 30
  m_WrapMode: 2
  m_Bounds:
    m_Center: {x: 0, y: 0, z: 0}
    m_Extent: {x: 0, y: 0, z: 0}
  m_ClipBindingConstant:
    genericBindings:
    - serializedVersion: 2
      path: 2774305624
      attribute: 1
      script: {fileID: 0}
      typeID: 4
      customType: 0
      isPPtrCurve: 0
    - serializedVersion: 2
      path: 294335127
      attribute: 0
      script: {fileID: 0}
      typeID: 212
      customType: 23
      isPPtrCurve: 1
    pptrCurveMapping:
    - {fileID: 9028376816077104343, guid: 8d6cf127018166e48b3a36602f005afb, type: 3}
    - {fileID: -7091155484267356702, guid: 8d6cf127018166e48b3a36602f005afb, type: 3}
    - {fileID: 1273528703996626104, guid: 8d6cf127018166e48b3a36602f005afb, type: 3}
    - {fileID: 7229585267999449845, guid: 8d6cf127018166e48b3a36602f005afb, type: 3}
    - {fileID: -3163388228694959018, guid: 8d6cf127018166e48b3a36602f005afb, type: 3}
    - {fileID: -5454623311735314763, guid: 8d6cf127018166e48b3a36602f005afb, type: 3}
    - {fileID: -872589095775831691, guid: 8d6cf127018166e48b3a36602f005afb, type: 3}
    - {fileID: 8862669440905646777, guid: 8d6cf127018166e48b3a36602f005afb, type: 3}
    - {fileID: -6811944400828423953, guid: 8d6cf127018166e48b3a36602f005afb, type: 3}
    - {fileID: -3301675488960491881, guid: 8d6cf127018166e48b3a36602f005afb, type: 3}
    - {fileID: -6051409095517373241, guid: 8d6cf127018166e48b3a36602f005afb, type: 3}
    - {fileID: -4500018278680191133, guid: 8d6cf127018166e48b3a36602f005afb, type: 3}
    - {fileID: -9124754815768318959, guid: 8d6cf127018166e48b3a36602f005afb, type: 3}
    - {fileID: -1167443940316570048, guid: 8d6cf127018166e48b3a36602f005afb, type: 3}
    - {fileID: -8335431295828192104, guid: 8d6cf127018166e48b3a36602f005afb, type: 3}
    - {fileID: 2611463226385789286, guid: 8d6cf127018166e48b3a36602f005afb, type: 3}
    - {fileID: -5313909165201506138, guid: 8d6cf127018166e48b3a36602f005afb, type: 3}
    - {fileID: 6291219792077689303, guid: 8d6cf127018166e48b3a36602f005afb, type: 3}
    - {fileID: 3795884894507148358, guid: 8d6cf127018166e48b3a36602f005afb, type: 3}
    - {fileID: -7422500503761735471, guid: 8d6cf127018166e48b3a36602f005afb, type: 3}
    - {fileID: -2534299545350955820, guid: 8d6cf127018166e48b3a36602f005afb, type: 3}
    - {fileID: 6694595017359810689, guid: 8d6cf127018166e48b3a36602f005afb, type: 3}
    - {fileID: 7515774521829555991, guid: 8d6cf127018166e48b3a36602f005afb, type: 3}
    - {fileID: 3483493854180286741, guid: 8d6cf127018166e48b3a36602f005afb, type: 3}
    - {fileID: -5324131269910083080, guid: 8d6cf127018166e48b3a36602f005afb, type: 3}
    - {fileID: 4388502580460262630, guid: 8d6cf127018166e48b3a36602f005afb, type: 3}
    - {fileID: 3440694956146505581, guid: 8d6cf127018166e48b3a36602f005afb, type: 3}
    - {fileID: -8903610288759039720, guid: 8d6cf127018166e48b3a36602f005afb, type: 3}
    - {fileID: 4791719993837293523, guid: 8d6cf127018166e48b3a36602f005afb, type: 3}
    - {fileID: -1489980314632971269, guid: 8d6cf127018166e48b3a36602f005afb, type: 3}
    - {fileID: -3811742533115387722, guid: 8d6cf127018166e48b3a36602f005afb, type: 3}
    - {fileID: 2796237689956417812, guid: 8d6cf127018166e48b3a36602f005afb, type: 3}
    - {fileID: 8071643766512008534, guid: 8d6cf127018166e48b3a36602f005afb, type: 3}
    - {fileID: -7048265794557299983, guid: 8d6cf127018166e48b3a36602f005afb, type: 3}
    - {fileID: 5821056233178430418, guid: 8d6cf127018166e48b3a36602f005afb, type: 3}
    - {fileID: -7069573190865062159, guid: 8d6cf127018166e48b3a36602f005afb, type: 3}
    - {fileID: -3243419438989172910, guid: 8d6cf127018166e48b3a36602f005afb, type: 3}
    - {fileID: 5289661381789218760, guid: 8d6cf127018166e48b3a36602f005afb, type: 3}
    - {fileID: -8539565178285286978, guid: 8d6cf127018166e48b3a36602f005afb, type: 3}
    - {fileID: 7206724536242479977, guid: 8d6cf127018166e48b3a36602f005afb, type: 3}
    - {fileID: -8102262654359805333, guid: 8d6cf127018166e48b3a36602f005afb, type: 3}
    - {fileID: 7265512126886772252, guid: 8d6cf127018166e48b3a36602f005afb, type: 3}
    - {fileID: 8471249994428055776, guid: 8d6cf127018166e48b3a36602f005afb, type: 3}
    - {fileID: 6316579754118405414, guid: 8d6cf127018166e48b3a36602f005afb, type: 3}
    - {fileID: -8235839162806626675, guid: 8d6cf127018166e48b3a36602f005afb, type: 3}
    - {fileID: -6215215239233942122, guid: 8d6cf127018166e48b3a36602f005afb, type: 3}
    - {fileID: 5956566221187593066, guid: 8d6cf127018166e48b3a36602f005afb, type: 3}
    - {fileID: 7181465695666030066, guid: 8d6cf127018166e48b3a36602f005afb, type: 3}
    - {fileID: 6647707567823561920, guid: 8d6cf127018166e48b3a36602f005afb, type: 3}
    - {fileID: 3485078460737576493, guid: 8d6cf127018166e48b3a36602f005afb, type: 3}
    - {fileID: 7934998562125370533, guid: 8d6cf127018166e48b3a36602f005afb, type: 3}
    - {fileID: 1014275132541440757, guid: 8d6cf127018166e48b3a36602f005afb, type: 3}
    - {fileID: 8092278881962933749, guid: 8d6cf127018166e48b3a36602f005afb, type: 3}
    - {fileID: -4392913184046082811, guid: 8d6cf127018166e48b3a36602f005afb, type: 3}
    - {fileID: -8835243021881842304, guid: 8d6cf127018166e48b3a36602f005afb, type: 3}
    - {fileID: -6666696940646064836, guid: 8d6cf127018166e48b3a36602f005afb, type: 3}
    - {fileID: -4216507947235131305, guid: 8d6cf127018166e48b3a36602f005afb, type: 3}
    - {fileID: -8095818404385686071, guid: 8d6cf127018166e48b3a36602f005afb, type: 3}
    - {fileID: -5266609524100073809, guid: 8d6cf127018166e48b3a36602f005afb, type: 3}
    - {fileID: -3242601276536603865, guid: 8d6cf127018166e48b3a36602f005afb, type: 3}
    - {fileID: -467064308690442477, guid: 8d6cf127018166e48b3a36602f005afb, type: 3}
    - {fileID: -617781117032643287, guid: 8d6cf127018166e48b3a36602f005afb, type: 3}
    - {fileID: 8649153480078086354, guid: 8d6cf127018166e48b3a36602f005afb, type: 3}
    - {fileID: -5475867498507551666, guid: 8d6cf127018166e48b3a36602f005afb, type: 3}
    - {fileID: 4498833314030190990, guid: 8d6cf127018166e48b3a36602f005afb, type: 3}
    - {fileID: 2636848835125955927, guid: 8d6cf127018166e48b3a36602f005afb, type: 3}
    - {fileID: -1867770251230609265, guid: 8d6cf127018166e48b3a36602f005afb, type: 3}
    - {fileID: 7385939548303460238, guid: 8d6cf127018166e48b3a36602f005afb, type: 3}
    - {fileID: -4471521782640441657, guid: 8d6cf127018166e48b3a36602f005afb, type: 3}
    - {fileID: 8495631488859925979, guid: 8d6cf127018166e48b3a36602f005afb, type: 3}
    - {fileID: -895944256427443813, guid: 8d6cf127018166e48b3a36602f005afb, type: 3}
    - {fileID: -8291936846530377171, guid: 8d6cf127018166e48b3a36602f005afb, type: 3}
    - {fileID: -6266946434540363880, guid: 8d6cf127018166e48b3a36602f005afb, type: 3}
    - {fileID: 3782579096851529541, guid: 8d6cf127018166e48b3a36602f005afb, type: 3}
    - {fileID: 4501729629865991054, guid: 8d6cf127018166e48b3a36602f005afb, type: 3}
    - {fileID: 2914426001568507238, guid: 8d6cf127018166e48b3a36602f005afb, type: 3}
    - {fileID: -313331708795659986, guid: 8d6cf127018166e48b3a36602f005afb, type: 3}
    - {fileID: -7925451422705254757, guid: 8d6cf127018166e48b3a36602f005afb, type: 3}
    - {fileID: 454602423861724424, guid: 8d6cf127018166e48b3a36602f005afb, type: 3}
    - {fileID: -7170751411718307635, guid: 8d6cf127018166e48b3a36602f005afb, type: 3}
    - {fileID: -3102696092233410915, guid: 8d6cf127018166e48b3a36602f005afb, type: 3}
    - {fileID: -3280534853672478472, guid: 8d6cf127018166e48b3a36602f005afb, type: 3}
    - {fileID: 3656035367679739250, guid: 8d6cf127018166e48b3a36602f005afb, type: 3}
    - {fileID: 8134460008503822990, guid: 8d6cf127018166e48b3a36602f005afb, type: 3}
    - {fileID: 3294472442758015958, guid: 8d6cf127018166e48b3a36602f005afb, type: 3}
    - {fileID: 2330527258139151636, guid: 8d6cf127018166e48b3a36602f005afb, type: 3}
    - {fileID: -217000711480045932, guid: 8d6cf127018166e48b3a36602f005afb, type: 3}
    - {fileID: -8263766409291526593, guid: 8d6cf127018166e48b3a36602f005afb, type: 3}
    - {fileID: 4654563968882141520, guid: 8d6cf127018166e48b3a36602f005afb, type: 3}
    - {fileID: 6507476746879176760, guid: 8d6cf127018166e48b3a36602f005afb, type: 3}
    - {fileID: -2347358548574968445, guid: 8d6cf127018166e48b3a36602f005afb, type: 3}
    - {fileID: 4316016213130295197, guid: 8d6cf127018166e48b3a36602f005afb, type: 3}
    - {fileID: -6782070564886196323, guid: 8d6cf127018166e48b3a36602f005afb, type: 3}
    - {fileID: -5917633220638736524, guid: 8d6cf127018166e48b3a36602f005afb, type: 3}
    - {fileID: 2623215930654819354, guid: 8d6cf127018166e48b3a36602f005afb, type: 3}
    - {fileID: 3150513490239577754, guid: 8d6cf127018166e48b3a36602f005afb, type: 3}
    - {fileID: -7376980773867316798, guid: 8d6cf127018166e48b3a36602f005afb, type: 3}
    - {fileID: 7842079764100807835, guid: 8d6cf127018166e48b3a36602f005afb, type: 3}
    - {fileID: -7060753193087780463, guid: 8d6cf127018166e48b3a36602f005afb, type: 3}
    - {fileID: 5128009435222149338, guid: 8d6cf127018166e48b3a36602f005afb, type: 3}
    - {fileID: 5225446818493216100, guid: 8d6cf127018166e48b3a36602f005afb, type: 3}
    - {fileID: 3721363445816055620, guid: 8d6cf127018166e48b3a36602f005afb, type: 3}
    - {fileID: -1538183563789566534, guid: 8d6cf127018166e48b3a36602f005afb, type: 3}
    - {fileID: -4817541434095613207, guid: 8d6cf127018166e48b3a36602f005afb, type: 3}
    - {fileID: 6761669067744734105, guid: 8d6cf127018166e48b3a36602f005afb, type: 3}
    - {fileID: -3092243218831684046, guid: 8d6cf127018166e48b3a36602f005afb, type: 3}
    - {fileID: 5805825874426545242, guid: 8d6cf127018166e48b3a36602f005afb, type: 3}
    - {fileID: 4325104180566805057, guid: 8d6cf127018166e48b3a36602f005afb, type: 3}
    - {fileID: -6474238219416403057, guid: 8d6cf127018166e48b3a36602f005afb, type: 3}
    - {fileID: -701366709159349794, guid: 8d6cf127018166e48b3a36602f005afb, type: 3}
    - {fileID: -7094001871977668797, guid: 8d6cf127018166e48b3a36602f005afb, type: 3}
    - {fileID: 1693360596107391015, guid: 8d6cf127018166e48b3a36602f005afb, type: 3}
    - {fileID: -5067062655822722700, guid: 8d6cf127018166e48b3a36602f005afb, type: 3}
    - {fileID: 1736788498616557367, guid: 8d6cf127018166e48b3a36602f005afb, type: 3}
    - {fileID: 809160406870101978, guid: 8d6cf127018166e48b3a36602f005afb, type: 3}
    - {fileID: -2853372888247112867, guid: 8d6cf127018166e48b3a36602f005afb, type: 3}
    - {fileID: 995941374782874977, guid: 8d6cf127018166e48b3a36602f005afb, type: 3}
    - {fileID: 5248519057801221947, guid: 8d6cf127018166e48b3a36602f005afb, type: 3}
    - {fileID: 576759941381893016, guid: 8d6cf127018166e48b3a36602f005afb, type: 3}
    - {fileID: -6504827342188519190, guid: 8d6cf127018166e48b3a36602f005afb, type: 3}
    - {fileID: -2322938544806269235, guid: 8d6cf127018166e48b3a36602f005afb, type: 3}
    - {fileID: -8758965320705414039, guid: 8d6cf127018166e48b3a36602f005afb, type: 3}
    - {fileID: 1255076991706308118, guid: 8d6cf127018166e48b3a36602f005afb, type: 3}
    - {fileID: -6612653525779854777, guid: 8d6cf127018166e48b3a36602f005afb, type: 3}
    - {fileID: 2034076742383817089, guid: 8d6cf127018166e48b3a36602f005afb, type: 3}
    - {fileID: -3262078916215142913, guid: 8d6cf127018166e48b3a36602f005afb, type: 3}
    - {fileID: 3452354581669500566, guid: 8d6cf127018166e48b3a36602f005afb, type: 3}
    - {fileID: 8995653654769949016, guid: 8d6cf127018166e48b3a36602f005afb, type: 3}
    - {fileID: -2337366817729416522, guid: 8d6cf127018166e48b3a36602f005afb, type: 3}
    - {fileID: 8945640496798451165, guid: 8d6cf127018166e48b3a36602f005afb, type: 3}
    - {fileID: 7303875163290089934, guid: 8d6cf127018166e48b3a36602f005afb, type: 3}
    - {fileID: -4474877657745635206, guid: 8d6cf127018166e48b3a36602f005afb, type: 3}
    - {fileID: 807761648396029168, guid: 8d6cf127018166e48b3a36602f005afb, type: 3}
    - {fileID: 9144638619271704991, guid: 8d6cf127018166e48b3a36602f005afb, type: 3}
    - {fileID: -180439615252541760, guid: 8d6cf127018166e48b3a36602f005afb, type: 3}
    - {fileID: 2881503448660280678, guid: 8d6cf127018166e48b3a36602f005afb, type: 3}
    - {fileID: 3979702591544164771, guid: 8d6cf127018166e48b3a36602f005afb, type: 3}
    - {fileID: -4269369868186921597, guid: 8d6cf127018166e48b3a36602f005afb, type: 3}
    - {fileID: 3372778334514557293, guid: 8d6cf127018166e48b3a36602f005afb, type: 3}
    - {fileID: 5509768112325781005, guid: 8d6cf127018166e48b3a36602f005afb, type: 3}
    - {fileID: 6483770322091655805, guid: 8d6cf127018166e48b3a36602f005afb, type: 3}
    - {fileID: 4032072966110662708, guid: 8d6cf127018166e48b3a36602f005afb, type: 3}
    - {fileID: -2791728505908363504, guid: 8d6cf127018166e48b3a36602f005afb, type: 3}
    - {fileID: 3303016031852962363, guid: 8d6cf127018166e48b3a36602f005afb, type: 3}
    - {fileID: -8603975972247517684, guid: 8d6cf127018166e48b3a36602f005afb, type: 3}
    - {fileID: 8192137385347918588, guid: 8d6cf127018166e48b3a36602f005afb, type: 3}
    - {fileID: 716434060052034666, guid: 8d6cf127018166e48b3a36602f005afb, type: 3}
    - {fileID: -6355588160654128591, guid: 8d6cf127018166e48b3a36602f005afb, type: 3}
    - {fileID: -1118178295750154902, guid: 8d6cf127018166e48b3a36602f005afb, type: 3}
    - {fileID: 1698091701889642531, guid: 8d6cf127018166e48b3a36602f005afb, type: 3}
    - {fileID: -4502066347732811756, guid: 8d6cf127018166e48b3a36602f005afb, type: 3}
    - {fileID: -3210767268706789726, guid: 8d6cf127018166e48b3a36602f005afb, type: 3}
    - {fileID: 6481055705435577454, guid: 8d6cf127018166e48b3a36602f005afb, type: 3}
    - {fileID: 6746138820933878298, guid: 8d6cf127018166e48b3a36602f005afb, type: 3}
    - {fileID: -5585846770898452344, guid: 8d6cf127018166e48b3a36602f005afb, type: 3}
    - {fileID: 1244499527427515868, guid: 8d6cf127018166e48b3a36602f005afb, type: 3}
    - {fileID: 3766919024897554627, guid: 8d6cf127018166e48b3a36602f005afb, type: 3}
    - {fileID: -1759934412464977552, guid: 8d6cf127018166e48b3a36602f005afb, type: 3}
    - {fileID: -4393003147068970829, guid: 8d6cf127018166e48b3a36602f005afb, type: 3}
    - {fileID: 6766364185691703290, guid: 8d6cf127018166e48b3a36602f005afb, type: 3}
    - {fileID: -2761716498527280729, guid: 8d6cf127018166e48b3a36602f005afb, type: 3}
    - {fileID: -6191480209973551786, guid: 8d6cf127018166e48b3a36602f005afb, type: 3}
    - {fileID: -5743438100659169644, guid: 8d6cf127018166e48b3a36602f005afb, type: 3}
    - {fileID: -7120053654569999305, guid: 8d6cf127018166e48b3a36602f005afb, type: 3}
    - {fileID: -3789185568866372228, guid: 8d6cf127018166e48b3a36602f005afb, type: 3}
    - {fileID: -4084878676064703909, guid: 8d6cf127018166e48b3a36602f005afb, type: 3}
    - {fileID: 8388578754789458215, guid: 8d6cf127018166e48b3a36602f005afb, type: 3}
    - {fileID: 644211521385835839, guid: 8d6cf127018166e48b3a36602f005afb, type: 3}
    - {fileID: 5834685408751672922, guid: 8d6cf127018166e48b3a36602f005afb, type: 3}
    - {fileID: -5120522760131006933, guid: 8d6cf127018166e48b3a36602f005afb, type: 3}
    - {fileID: 5178940827331666233, guid: 8d6cf127018166e48b3a36602f005afb, type: 3}
    - {fileID: -8443273003600892329, guid: 8d6cf127018166e48b3a36602f005afb, type: 3}
    - {fileID: 5306676769372012184, guid: 8d6cf127018166e48b3a36602f005afb, type: 3}
    - {fileID: -5434473129299646552, guid: 8d6cf127018166e48b3a36602f005afb, type: 3}
    - {fileID: -2078232945447424301, guid: 8d6cf127018166e48b3a36602f005afb, type: 3}
    - {fileID: -7777960347945431413, guid: 8d6cf127018166e48b3a36602f005afb, type: 3}
    - {fileID: -4873780414375277931, guid: 8d6cf127018166e48b3a36602f005afb, type: 3}
    - {fileID: 8642196511400834015, guid: 8d6cf127018166e48b3a36602f005afb, type: 3}
    - {fileID: 2136332148557391488, guid: 8d6cf127018166e48b3a36602f005afb, type: 3}
    - {fileID: -8727818851068265327, guid: 8d6cf127018166e48b3a36602f005afb, type: 3}
    - {fileID: 2359368689098316691, guid: 8d6cf127018166e48b3a36602f005afb, type: 3}
    - {fileID: -9188063526023332099, guid: 8d6cf127018166e48b3a36602f005afb, type: 3}
    - {fileID: 3012671062139335251, guid: 8d6cf127018166e48b3a36602f005afb, type: 3}
    - {fileID: -3792186155260312786, guid: 8d6cf127018166e48b3a36602f005afb, type: 3}
    - {fileID: -3828210455505663906, guid: 8d6cf127018166e48b3a36602f005afb, type: 3}
    - {fileID: -813468728057977916, guid: 8d6cf127018166e48b3a36602f005afb, type: 3}
    - {fileID: 5329003252813555499, guid: 8d6cf127018166e48b3a36602f005afb, type: 3}
    - {fileID: 1119782822861045679, guid: 8d6cf127018166e48b3a36602f005afb, type: 3}
    - {fileID: 6015351772016708801, guid: 8d6cf127018166e48b3a36602f005afb, type: 3}
    - {fileID: 2912510968715653794, guid: 8d6cf127018166e48b3a36602f005afb, type: 3}
    - {fileID: -8961496669983122534, guid: 8d6cf127018166e48b3a36602f005afb, type: 3}
    - {fileID: 9206738093141851439, guid: 8d6cf127018166e48b3a36602f005afb, type: 3}
    - {fileID: 6734355640079632840, guid: 8d6cf127018166e48b3a36602f005afb, type: 3}
    - {fileID: -4953290519131163796, guid: 8d6cf127018166e48b3a36602f005afb, type: 3}
    - {fileID: -8849131767528651527, guid: 8d6cf127018166e48b3a36602f005afb, type: 3}
    - {fileID: -8110892571470718788, guid: 8d6cf127018166e48b3a36602f005afb, type: 3}
    - {fileID: -8972862017815890504, guid: 8d6cf127018166e48b3a36602f005afb, type: 3}
    - {fileID: -2449292539392794813, guid: 8d6cf127018166e48b3a36602f005afb, type: 3}
    - {fileID: -1445836390721583402, guid: 8d6cf127018166e48b3a36602f005afb, type: 3}
    - {fileID: -719565296404462858, guid: 8d6cf127018166e48b3a36602f005afb, type: 3}
    - {fileID: 8786391092365439681, guid: 8d6cf127018166e48b3a36602f005afb, type: 3}
    - {fileID: 5128964687087126532, guid: 8d6cf127018166e48b3a36602f005afb, type: 3}
    - {fileID: 7034494145884045987, guid: 8d6cf127018166e48b3a36602f005afb, type: 3}
    - {fileID: -377966162256409150, guid: 8d6cf127018166e48b3a36602f005afb, type: 3}
    - {fileID: -5044058389074940782, guid: 8d6cf127018166e48b3a36602f005afb, type: 3}
    - {fileID: 3791597549479786003, guid: 8d6cf127018166e48b3a36602f005afb, type: 3}
    - {fileID: -2457403770773108799, guid: 8d6cf127018166e48b3a36602f005afb, type: 3}
    - {fileID: -4041138878683873267, guid: 8d6cf127018166e48b3a36602f005afb, type: 3}
    - {fileID: 4123266711438233847, guid: 8d6cf127018166e48b3a36602f005afb, type: 3}
    - {fileID: -3676353384724499002, guid: 8d6cf127018166e48b3a36602f005afb, type: 3}
    - {fileID: -7654612765181908041, guid: 8d6cf127018166e48b3a36602f005afb, type: 3}
    - {fileID: -3895891194296569442, guid: 8d6cf127018166e48b3a36602f005afb, type: 3}
    - {fileID: -2286624087007447078, guid: 8d6cf127018166e48b3a36602f005afb, type: 3}
    - {fileID: 4855468289692182524, guid: 8d6cf127018166e48b3a36602f005afb, type: 3}
    - {fileID: -7493872207963206914, guid: 8d6cf127018166e48b3a36602f005afb, type: 3}
    - {fileID: 6701145667668710470, guid: 8d6cf127018166e48b3a36602f005afb, type: 3}
    - {fileID: 7169977499827444524, guid: 8d6cf127018166e48b3a36602f005afb, type: 3}
    - {fileID: 4194614716076398593, guid: 8d6cf127018166e48b3a36602f005afb, type: 3}
    - {fileID: 901276319123054912, guid: 8d6cf127018166e48b3a36602f005afb, type: 3}
    - {fileID: 6964556053391567015, guid: 8d6cf127018166e48b3a36602f005afb, type: 3}
    - {fileID: 9107950212076735405, guid: 8d6cf127018166e48b3a36602f005afb, type: 3}
    - {fileID: 1817778376141181120, guid: 8d6cf127018166e48b3a36602f005afb, type: 3}
    - {fileID: 4116094262028705379, guid: 8d6cf127018166e48b3a36602f005afb, type: 3}
    - {fileID: 4253457394964844103, guid: 8d6cf127018166e48b3a36602f005afb, type: 3}
    - {fileID: 8258371347606472181, guid: 8d6cf127018166e48b3a36602f005afb, type: 3}
    - {fileID: 9189130831277726579, guid: 8d6cf127018166e48b3a36602f005afb, type: 3}
    - {fileID: 4681550109141072407, guid: 8d6cf127018166e48b3a36602f005afb, type: 3}
    - {fileID: 7423781426622533769, guid: 8d6cf127018166e48b3a36602f005afb, type: 3}
    - {fileID: 2238273827297931056, guid: 8d6cf127018166e48b3a36602f005afb, type: 3}
    - {fileID: -8232786564586719725, guid: 8d6cf127018166e48b3a36602f005afb, type: 3}
    - {fileID: 4928887109514490631, guid: 8d6cf127018166e48b3a36602f005afb, type: 3}
    - {fileID: -5096013494951596783, guid: 8d6cf127018166e48b3a36602f005afb, type: 3}
    - {fileID: -7173271366860395422, guid: 8d6cf127018166e48b3a36602f005afb, type: 3}
    - {fileID: -5549959445912379399, guid: 8d6cf127018166e48b3a36602f005afb, type: 3}
    - {fileID: -6863897048320398920, guid: 8d6cf127018166e48b3a36602f005afb, type: 3}
    - {fileID: -2099958409418811173, guid: 8d6cf127018166e48b3a36602f005afb, type: 3}
    - {fileID: 1187685612063189272, guid: 8d6cf127018166e48b3a36602f005afb, type: 3}
    - {fileID: 5395274845940402945, guid: 8d6cf127018166e48b3a36602f005afb, type: 3}
    - {fileID: -2216429198610044286, guid: 8d6cf127018166e48b3a36602f005afb, type: 3}
    - {fileID: -7235651179511376744, guid: 8d6cf127018166e48b3a36602f005afb, type: 3}
    - {fileID: 381176243646070734, guid: 8d6cf127018166e48b3a36602f005afb, type: 3}
    - {fileID: -10161327402992689, guid: 8d6cf127018166e48b3a36602f005afb, type: 3}
    - {fileID: -7529550451845601430, guid: 8d6cf127018166e48b3a36602f005afb, type: 3}
    - {fileID: 5317856047045757831, guid: 8d6cf127018166e48b3a36602f005afb, type: 3}
    - {fileID: -2725848558794756286, guid: 8d6cf127018166e48b3a36602f005afb, type: 3}
    - {fileID: 2871235988943344448, guid: 8d6cf127018166e48b3a36602f005afb, type: 3}
    - {fileID: 3268054805903633010, guid: 8d6cf127018166e48b3a36602f005afb, type: 3}
    - {fileID: 9029975314098841145, guid: 8d6cf127018166e48b3a36602f005afb, type: 3}
    - {fileID: 1554433346079853123, guid: 8d6cf127018166e48b3a36602f005afb, type: 3}
    - {fileID: -5438336491321809560, guid: 8d6cf127018166e48b3a36602f005afb, type: 3}
    - {fileID: -922669815408847873, guid: 8d6cf127018166e48b3a36602f005afb, type: 3}
    - {fileID: -971853112191482903, guid: 8d6cf127018166e48b3a36602f005afb, type: 3}
    - {fileID: 4517483533736234614, guid: 8d6cf127018166e48b3a36602f005afb, type: 3}
    - {fileID: 1429700638832677985, guid: 8d6cf127018166e48b3a36602f005afb, type: 3}
    - {fileID: 4491500998085393687, guid: 8d6cf127018166e48b3a36602f005afb, type: 3}
    - {fileID: -460582053648039658, guid: 8d6cf127018166e48b3a36602f005afb, type: 3}
    - {fileID: -1153838919225848409, guid: 8d6cf127018166e48b3a36602f005afb, type: 3}
    - {fileID: 7905722354113674373, guid: 8d6cf127018166e48b3a36602f005afb, type: 3}
    - {fileID: -1860460330620751443, guid: 8d6cf127018166e48b3a36602f005afb, type: 3}
    - {fileID: 4271425233731893597, guid: 8d6cf127018166e48b3a36602f005afb, type: 3}
    - {fileID: -3769731594951132079, guid: 8d6cf127018166e48b3a36602f005afb, type: 3}
    - {fileID: 1256128965786665618, guid: 8d6cf127018166e48b3a36602f005afb, type: 3}
    - {fileID: 225550329880096641, guid: 8d6cf127018166e48b3a36602f005afb, type: 3}
    - {fileID: -1746794333258467836, guid: 8d6cf127018166e48b3a36602f005afb, type: 3}
    - {fileID: -5025755404592887836, guid: 8d6cf127018166e48b3a36602f005afb, type: 3}
    - {fileID: -6236255378344840843, guid: 8d6cf127018166e48b3a36602f005afb, type: 3}
    - {fileID: -8867212330092956173, guid: 8d6cf127018166e48b3a36602f005afb, type: 3}
    - {fileID: 2709656068154850111, guid: 8d6cf127018166e48b3a36602f005afb, type: 3}
    - {fileID: 5874448819253148832, guid: 8d6cf127018166e48b3a36602f005afb, type: 3}
    - {fileID: 9115209478658052859, guid: 8d6cf127018166e48b3a36602f005afb, type: 3}
    - {fileID: -2806290866063490747, guid: 8d6cf127018166e48b3a36602f005afb, type: 3}
    - {fileID: -2509549000049575337, guid: 8d6cf127018166e48b3a36602f005afb, type: 3}
    - {fileID: 6015711139032519787, guid: 8d6cf127018166e48b3a36602f005afb, type: 3}
    - {fileID: -190833931454866344, guid: 8d6cf127018166e48b3a36602f005afb, type: 3}
    - {fileID: -1604619050896630560, guid: 8d6cf127018166e48b3a36602f005afb, type: 3}
    - {fileID: -4288362700409078655, guid: 8d6cf127018166e48b3a36602f005afb, type: 3}
    - {fileID: -7897862674565069256, guid: 8d6cf127018166e48b3a36602f005afb, type: 3}
    - {fileID: -3491698975835000836, guid: 8d6cf127018166e48b3a36602f005afb, type: 3}
    - {fileID: -7820474335909130311, guid: 8d6cf127018166e48b3a36602f005afb, type: 3}
    - {fileID: 1074593013528033134, guid: 8d6cf127018166e48b3a36602f005afb, type: 3}
    - {fileID: -7736900719635627415, guid: 8d6cf127018166e48b3a36602f005afb, type: 3}
    - {fileID: 4276709350769213559, guid: 8d6cf127018166e48b3a36602f005afb, type: 3}
    - {fileID: -4669713576359925997, guid: 8d6cf127018166e48b3a36602f005afb, type: 3}
    - {fileID: -116012089541107124, guid: 8d6cf127018166e48b3a36602f005afb, type: 3}
    - {fileID: -6488877592959475163, guid: 8d6cf127018166e48b3a36602f005afb, type: 3}
    - {fileID: -3556837274843650464, guid: 8d6cf127018166e48b3a36602f005afb, type: 3}
    - {fileID: -2439618955727676898, guid: 8d6cf127018166e48b3a36602f005afb, type: 3}
    - {fileID: -4740831094767947534, guid: 8d6cf127018166e48b3a36602f005afb, type: 3}
    - {fileID: 5939812755401318413, guid: 8d6cf127018166e48b3a36602f005afb, type: 3}
    - {fileID: -2512769511387236202, guid: 8d6cf127018166e48b3a36602f005afb, type: 3}
    - {fileID: 7833564749185025401, guid: 8d6cf127018166e48b3a36602f005afb, type: 3}
    - {fileID: -6242604252614678403, guid: 8d6cf127018166e48b3a36602f005afb, type: 3}
    - {fileID: -850561220488933940, guid: 8d6cf127018166e48b3a36602f005afb, type: 3}
    - {fileID: 7111642470278302116, guid: 8d6cf127018166e48b3a36602f005afb, type: 3}
    - {fileID: -5617938790084982744, guid: 8d6cf127018166e48b3a36602f005afb, type: 3}
    - {fileID: 3836718980479001784, guid: 8d6cf127018166e48b3a36602f005afb, type: 3}
    - {fileID: 1811787149623801362, guid: 8d6cf127018166e48b3a36602f005afb, type: 3}
    - {fileID: -6173914482056717250, guid: 8d6cf127018166e48b3a36602f005afb, type: 3}
    - {fileID: 3450722359871435656, guid: 8d6cf127018166e48b3a36602f005afb, type: 3}
    - {fileID: 2483504895296342473, guid: 8d6cf127018166e48b3a36602f005afb, type: 3}
    - {fileID: 3536054700614186071, guid: 8d6cf127018166e48b3a36602f005afb, type: 3}
    - {fileID: -2511984658539568386, guid: 8d6cf127018166e48b3a36602f005afb, type: 3}
    - {fileID: 8640321681153911191, guid: 8d6cf127018166e48b3a36602f005afb, type: 3}
    - {fileID: 319887866769713963, guid: 8d6cf127018166e48b3a36602f005afb, type: 3}
    - {fileID: -7117264483766274116, guid: 8d6cf127018166e48b3a36602f005afb, type: 3}
    - {fileID: 7635664578769753266, guid: 8d6cf127018166e48b3a36602f005afb, type: 3}
    - {fileID: 4350287742222776831, guid: 8d6cf127018166e48b3a36602f005afb, type: 3}
    - {fileID: 3733806856751434891, guid: 8d6cf127018166e48b3a36602f005afb, type: 3}
    - {fileID: 685483155270973783, guid: 8d6cf127018166e48b3a36602f005afb, type: 3}
    - {fileID: -5631845467124347015, guid: 8d6cf127018166e48b3a36602f005afb, type: 3}
    - {fileID: -8967510496789688670, guid: 8d6cf127018166e48b3a36602f005afb, type: 3}
    - {fileID: 132253531554038318, guid: 8d6cf127018166e48b3a36602f005afb, type: 3}
    - {fileID: -292332650869369343, guid: 8d6cf127018166e48b3a36602f005afb, type: 3}
    - {fileID: -4170077871817383822, guid: 8d6cf127018166e48b3a36602f005afb, type: 3}
    - {fileID: 2721708311946854060, guid: 8d6cf127018166e48b3a36602f005afb, type: 3}
    - {fileID: -1358352673493659080, guid: 8d6cf127018166e48b3a36602f005afb, type: 3}
    - {fileID: 6855065319048723203, guid: 8d6cf127018166e48b3a36602f005afb, type: 3}
    - {fileID: -2281347590902842306, guid: 8d6cf127018166e48b3a36602f005afb, type: 3}
    - {fileID: -6828010413326118501, guid: 8d6cf127018166e48b3a36602f005afb, type: 3}
    - {fileID: 4598924430345225406, guid: 8d6cf127018166e48b3a36602f005afb, type: 3}
    - {fileID: -4039810489801130460, guid: 8d6cf127018166e48b3a36602f005afb, type: 3}
    - {fileID: -6849001578878701931, guid: 8d6cf127018166e48b3a36602f005afb, type: 3}
    - {fileID: -8618480307409305189, guid: 8d6cf127018166e48b3a36602f005afb, type: 3}
    - {fileID: -56029645295902177, guid: 8d6cf127018166e48b3a36602f005afb, type: 3}
    - {fileID: 4529920175754036145, guid: 8d6cf127018166e48b3a36602f005afb, type: 3}
    - {fileID: -2167338787457577988, guid: 8d6cf127018166e48b3a36602f005afb, type: 3}
    - {fileID: -3805297252132798966, guid: 8d6cf127018166e48b3a36602f005afb, type: 3}
    - {fileID: 6180211054102103523, guid: 8d6cf127018166e48b3a36602f005afb, type: 3}
    - {fileID: 223277234790384214, guid: 8d6cf127018166e48b3a36602f005afb, type: 3}
    - {fileID: 5164384273547144963, guid: 8d6cf127018166e48b3a36602f005afb, type: 3}
    - {fileID: 740392033930124447, guid: 8d6cf127018166e48b3a36602f005afb, type: 3}
    - {fileID: -8621727042657248161, guid: 8d6cf127018166e48b3a36602f005afb, type: 3}
    - {fileID: -7795684460437038760, guid: 8d6cf127018166e48b3a36602f005afb, type: 3}
    - {fileID: -4931613090092109514, guid: 8d6cf127018166e48b3a36602f005afb, type: 3}
    - {fileID: -2116821697461087335, guid: 8d6cf127018166e48b3a36602f005afb, type: 3}
    - {fileID: 2231805597993499563, guid: 8d6cf127018166e48b3a36602f005afb, type: 3}
    - {fileID: -3435814197313051839, guid: 8d6cf127018166e48b3a36602f005afb, type: 3}
    - {fileID: -3789331605059226358, guid: 8d6cf127018166e48b3a36602f005afb, type: 3}
    - {fileID: 5389666455427350815, guid: 8d6cf127018166e48b3a36602f005afb, type: 3}
    - {fileID: -3173167249164588716, guid: 8d6cf127018166e48b3a36602f005afb, type: 3}
    - {fileID: 7153237118119490756, guid: 8d6cf127018166e48b3a36602f005afb, type: 3}
    - {fileID: 1209428978455553750, guid: 8d6cf127018166e48b3a36602f005afb, type: 3}
    - {fileID: 8665142695110999949, guid: 8d6cf127018166e48b3a36602f005afb, type: 3}
    - {fileID: -6923295263024918145, guid: 8d6cf127018166e48b3a36602f005afb, type: 3}
    - {fileID: 4045285628727224927, guid: 8d6cf127018166e48b3a36602f005afb, type: 3}
    - {fileID: 5131194310628260206, guid: 8d6cf127018166e48b3a36602f005afb, type: 3}
    - {fileID: -7552600458113107480, guid: 8d6cf127018166e48b3a36602f005afb, type: 3}
    - {fileID: -1902385295108817335, guid: 8d6cf127018166e48b3a36602f005afb, type: 3}
    - {fileID: 145233560811140557, guid: 8d6cf127018166e48b3a36602f005afb, type: 3}
    - {fileID: -2582936200641448996, guid: 8d6cf127018166e48b3a36602f005afb, type: 3}
    - {fileID: 8880883073583470312, guid: 8d6cf127018166e48b3a36602f005afb, type: 3}
    - {fileID: 700688930856941319, guid: 8d6cf127018166e48b3a36602f005afb, type: 3}
    - {fileID: -688426151556666610, guid: 8d6cf127018166e48b3a36602f005afb, type: 3}
    - {fileID: -9189428204977934661, guid: 8d6cf127018166e48b3a36602f005afb, type: 3}
    - {fileID: 1280692768440407085, guid: 8d6cf127018166e48b3a36602f005afb, type: 3}
    - {fileID: 4909257527788125699, guid: 8d6cf127018166e48b3a36602f005afb, type: 3}
    - {fileID: 7753209659171845315, guid: 8d6cf127018166e48b3a36602f005afb, type: 3}
    - {fileID: 3528796159891197722, guid: 8d6cf127018166e48b3a36602f005afb, type: 3}
    - {fileID: 8706186454054920878, guid: 8d6cf127018166e48b3a36602f005afb, type: 3}
    - {fileID: -5516008220426996910, guid: 8d6cf127018166e48b3a36602f005afb, type: 3}
    - {fileID: -8207882823442173288, guid: 8d6cf127018166e48b3a36602f005afb, type: 3}
    - {fileID: -3535372081347557967, guid: 8d6cf127018166e48b3a36602f005afb, type: 3}
    - {fileID: 9137280718309587421, guid: 8d6cf127018166e48b3a36602f005afb, type: 3}
    - {fileID: -318449798041572442, guid: 8d6cf127018166e48b3a36602f005afb, type: 3}
    - {fileID: 5502600985706790154, guid: 8d6cf127018166e48b3a36602f005afb, type: 3}
    - {fileID: -2144762669383573877, guid: 8d6cf127018166e48b3a36602f005afb, type: 3}
    - {fileID: -4423878232455814854, guid: 8d6cf127018166e48b3a36602f005afb, type: 3}
    - {fileID: -4794984755997196183, guid: 8d6cf127018166e48b3a36602f005afb, type: 3}
    - {fileID: 8496180355235197306, guid: 8d6cf127018166e48b3a36602f005afb, type: 3}
    - {fileID: 2684861430469452406, guid: 8d6cf127018166e48b3a36602f005afb, type: 3}
    - {fileID: -2481559241629691162, guid: 8d6cf127018166e48b3a36602f005afb, type: 3}
    - {fileID: 234836751112457820, guid: 8d6cf127018166e48b3a36602f005afb, type: 3}
    - {fileID: -6284940619066111686, guid: 8d6cf127018166e48b3a36602f005afb, type: 3}
    - {fileID: 3954153947432977152, guid: 8d6cf127018166e48b3a36602f005afb, type: 3}
    - {fileID: -3174257503620093142, guid: 8d6cf127018166e48b3a36602f005afb, type: 3}
    - {fileID: 2342513626971830242, guid: 8d6cf127018166e48b3a36602f005afb, type: 3}
    - {fileID: -7016092227008301960, guid: 8d6cf127018166e48b3a36602f005afb, type: 3}
    - {fileID: -8214082495353387403, guid: 8d6cf127018166e48b3a36602f005afb, type: 3}
    - {fileID: 1186813573414175272, guid: 8d6cf127018166e48b3a36602f005afb, type: 3}
    - {fileID: 2755296003913735288, guid: 8d6cf127018166e48b3a36602f005afb, type: 3}
    - {fileID: -7335904296402342340, guid: 8d6cf127018166e48b3a36602f005afb, type: 3}
    - {fileID: 7826309759020373390, guid: 8d6cf127018166e48b3a36602f005afb, type: 3}
    - {fileID: -1282876324571040758, guid: 8d6cf127018166e48b3a36602f005afb, type: 3}
    - {fileID: 3256065902193265144, guid: 8d6cf127018166e48b3a36602f005afb, type: 3}
    - {fileID: 8306319589961948657, guid: 8d6cf127018166e48b3a36602f005afb, type: 3}
    - {fileID: 8470083421329166141, guid: 8d6cf127018166e48b3a36602f005afb, type: 3}
    - {fileID: 3811016816033006138, guid: 8d6cf127018166e48b3a36602f005afb, type: 3}
    - {fileID: -8705556209929749771, guid: 8d6cf127018166e48b3a36602f005afb, type: 3}
    - {fileID: 8887954749658656802, guid: 8d6cf127018166e48b3a36602f005afb, type: 3}
    - {fileID: -6962555035860933897, guid: 8d6cf127018166e48b3a36602f005afb, type: 3}
    - {fileID: -8119889721453980313, guid: 8d6cf127018166e48b3a36602f005afb, type: 3}
    - {fileID: 6297943165184970114, guid: 8d6cf127018166e48b3a36602f005afb, type: 3}
    - {fileID: -6595501878659829624, guid: 8d6cf127018166e48b3a36602f005afb, type: 3}
    - {fileID: 8780523107367453348, guid: 8d6cf127018166e48b3a36602f005afb, type: 3}
    - {fileID: 7173269423063683044, guid: 8d6cf127018166e48b3a36602f005afb, type: 3}
    - {fileID: 4201509649228525269, guid: 8d6cf127018166e48b3a36602f005afb, type: 3}
    - {fileID: 4148779724304124433, guid: 8d6cf127018166e48b3a36602f005afb, type: 3}
    - {fileID: 5130572660463064899, guid: 8d6cf127018166e48b3a36602f005afb, type: 3}
    - {fileID: 6119141397586343587, guid: 8d6cf127018166e48b3a36602f005afb, type: 3}
  m_AnimationClipSettings:
    serializedVersion: 2
    m_AdditiveReferencePoseClip: {fileID: 0}
    m_AdditiveReferencePoseTime: 0
    m_StartTime: 0
    m_StopTime: 13.3
    m_OrientationOffsetY: 0
    m_Level: 0
    m_CycleOffset: 0
    m_HasAdditiveReferencePose: 0
    m_LoopTime: 1
    m_LoopBlend: 0
    m_LoopBlendOrientation: 0
    m_LoopBlendPositionY: 0
    m_LoopBlendPositionXZ: 0
    m_KeepOriginalOrientation: 0
    m_KeepOriginalPositionY: 1
    m_KeepOriginalPositionXZ: 0
    m_HeightFromFeet: 0
    m_Mirror: 0
  m_EditorCurves:
  - curve:
      serializedVersion: 2
      m_Curve:
      - serializedVersion: 3
        time: 0
        value: -0.054
        inSlope: 0
        outSlope: 0
        tangentMode: 136
        weightedMode: 0
        inWeight: 0.33333334
        outWeight: 0.33333334
      - serializedVersion: 3
        time: 7.7
        value: -0.054
        inSlope: 0
        outSlope: 0
        tangentMode: 136
        weightedMode: 0
        inWeight: 0.33333334
        outWeight: 0.33333334
      - serializedVersion: 3
        time: 7.8333335
        value: -0.094
        inSlope: 0
        outSlope: 0
        tangentMode: 136
        weightedMode: 0
        inWeight: 0.33333334
        outWeight: 0.33333334
      - serializedVersion: 3
        time: 8.333333
        value: -0.094
        inSlope: 0
        outSlope: 0
        tangentMode: 136
        weightedMode: 0
        inWeight: 0.33333334
        outWeight: 0.33333334
      - serializedVersion: 3
        time: 8.4
        value: -0.113
        inSlope: 0
        outSlope: 0
        tangentMode: 136
        weightedMode: 0
        inWeight: 0.33333334
        outWeight: 0.33333334
      - serializedVersion: 3
        time: 8.866667
        value: -0.113
        inSlope: 0
        outSlope: 0
        tangentMode: 136
        weightedMode: 0
        inWeight: 0.33333334
        outWeight: 0.33333334
      - serializedVersion: 3
        time: 9.5
        value: -0.197
        inSlope: 0
        outSlope: 0
        tangentMode: 136
        weightedMode: 0
        inWeight: 0.33333334
        outWeight: 0.33333334
      - serializedVersion: 3
        time: 10.233334
        value: -0.197
        inSlope: 0
        outSlope: 0
        tangentMode: 136
        weightedMode: 0
        inWeight: 0.33333334
        outWeight: 0.33333334
      - serializedVersion: 3
        time: 10.266666
        value: -0.054
        inSlope: 0
        outSlope: 0
        tangentMode: 136
        weightedMode: 0
        inWeight: 0.33333334
        outWeight: 0.33333334
      m_PreInfinity: 2
      m_PostInfinity: 2
      m_RotationOrder: 4
    attribute: m_LocalPosition.x
    path: Desk
    classID: 4
    script: {fileID: 0}
  - curve:
      serializedVersion: 2
      m_Curve:
      - serializedVersion: 3
        time: 0
        value: 2.644
        inSlope: 0
        outSlope: 0
        tangentMode: 136
        weightedMode: 0
        inWeight: 0.33333334
        outWeight: 0.33333334
      - serializedVersion: 3
        time: 7.7
        value: 2.644
        inSlope: 0
        outSlope: 0
        tangentMode: 136
        weightedMode: 0
        inWeight: 0.33333334
        outWeight: 0.33333334
      - serializedVersion: 3
        time: 7.8333335
        value: 2.662
        inSlope: 0
        outSlope: 0
        tangentMode: 136
        weightedMode: 0
        inWeight: 0.33333334
        outWeight: 0.33333334
      - serializedVersion: 3
        time: 8.333333
        value: 2.662
        inSlope: 0
        outSlope: 0
        tangentMode: 136
        weightedMode: 0
        inWeight: 0.33333334
        outWeight: 0.33333334
      - serializedVersion: 3
        time: 8.4
        value: 2.669
        inSlope: 0
        outSlope: 0
        tangentMode: 136
        weightedMode: 0
        inWeight: 0.33333334
        outWeight: 0.33333334
      - serializedVersion: 3
        time: 8.866667
        value: 2.669
        inSlope: 0
        outSlope: 0
        tangentMode: 136
        weightedMode: 0
        inWeight: 0.33333334
        outWeight: 0.33333334
      - serializedVersion: 3
        time: 9.5
        value: 2.703
        inSlope: 0
        outSlope: 0
        tangentMode: 136
        weightedMode: 0
        inWeight: 0.33333334
        outWeight: 0.33333334
      - serializedVersion: 3
        time: 10.233334
        value: 2.703
        inSlope: 0
        outSlope: 0
        tangentMode: 136
        weightedMode: 0
        inWeight: 0.33333334
        outWeight: 0.33333334
      - serializedVersion: 3
        time: 10.266666
        value: 2.644
        inSlope: 0
        outSlope: 0
        tangentMode: 136
        weightedMode: 0
        inWeight: 0.33333334
        outWeight: 0.33333334
      m_PreInfinity: 2
      m_PostInfinity: 2
      m_RotationOrder: 4
    attribute: m_LocalPosition.y
    path: Desk
    classID: 4
    script: {fileID: 0}
  - curve:
      serializedVersion: 2
      m_Curve:
      - serializedVersion: 3
        time: 0
        value: -0.0001
        inSlope: 0
        outSlope: 0
        tangentMode: 136
        weightedMode: 0
        inWeight: 0.33333334
        outWeight: 0.33333334
      - serializedVersion: 3
        time: 7.7
        value: -0.0001
        inSlope: 0
        outSlope: 0
        tangentMode: 136
        weightedMode: 0
        inWeight: 0.33333334
        outWeight: 0.33333334
      - serializedVersion: 3
        time: 7.8333335
        value: -0.0001
        inSlope: 0
        outSlope: 0
        tangentMode: 136
        weightedMode: 0
        inWeight: 0.33333334
        outWeight: 0.33333334
      - serializedVersion: 3
        time: 8.333333
        value: -0.0001
        inSlope: 0
        outSlope: 0
        tangentMode: 136
        weightedMode: 0
        inWeight: 0.33333334
        outWeight: 0.33333334
      - serializedVersion: 3
        time: 8.4
        value: -0.0001
        inSlope: 0
        outSlope: 0
        tangentMode: 136
        weightedMode: 0
        inWeight: 0.33333334
        outWeight: 0.33333334
      - serializedVersion: 3
        time: 8.866667
        value: -0.0001
        inSlope: 0
        outSlope: 0
        tangentMode: 136
        weightedMode: 0
        inWeight: 0.33333334
        outWeight: 0.33333334
      - serializedVersion: 3
        time: 9.5
        value: -0.0001
        inSlope: 0
        outSlope: 0
        tangentMode: 136
        weightedMode: 0
        inWeight: 0.33333334
        outWeight: 0.33333334
      - serializedVersion: 3
        time: 10.233334
        value: -0.0001
        inSlope: 0
        outSlope: 0
        tangentMode: 136
        weightedMode: 0
        inWeight: 0.33333334
        outWeight: 0.33333334
      - serializedVersion: 3
        time: 10.266666
        value: -0.0001
        inSlope: 0
        outSlope: 0
        tangentMode: 136
        weightedMode: 0
        inWeight: 0.33333334
        outWeight: 0.33333334
      m_PreInfinity: 2
      m_PostInfinity: 2
      m_RotationOrder: 4
    attribute: m_LocalPosition.z
    path: Desk
    classID: 4
    script: {fileID: 0}
  m_EulerEditorCurves: []
  m_HasGenericRootTransform: 0
  m_HasMotionFloatCurves: 0
  m_Events: []
