%YAML 1.1
%TAG !u! tag:unity3d.com,2011:
--- !u!21 &2100000
Material:
  serializedVersion: 6
  m_ObjectHideFlags: 0
  m_CorrespondingSourceObject: {fileID: 0}
  m_PrefabInstance: {fileID: 0}
  m_PrefabAsset: {fileID: 0}
  m_Name: UI_PulsingLight
  m_Shader: {fileID: 4800000, guid: 33686b243da6ddd45a8c3f26b1e045ab, type: 3}
  m_ShaderKeywords: 
  m_LightmapFlags: 4
  m_EnableInstancingVariants: 0
  m_DoubleSidedGI: 0
  m_CustomRenderQueue: -1
  stringTagMap: {}
  disabledShaderPasses: []
  m_SavedProperties:
    serializedVersion: 3
    m_TexEnvs:
    - _MainTex:
        m_Texture: {fileID: 0}
        m_Scale: {x: 1, y: 1}
        m_Offset: {x: 0, y: 0}
    m_Ints: []
    m_Floats:
    - _Speed: 55
    m_Colors:
    - _ColorA: {r: 0.46226418, g: 0.44233012, b: 0, a: 1}
    - _ColorB: {r: 0.16037738, g: 0.16037738, b: 0.16037738, a: 0.20392157}
  m_BuildTextureStacks: []
