%YAML 1.1
%TAG !u! tag:unity3d.com,2011:
--- !u!74 &7400000
AnimationClip:
  m_ObjectHideFlags: 0
  m_CorrespondingSourceObject: {fileID: 0}
  m_PrefabInstance: {fileID: 0}
  m_PrefabAsset: {fileID: 0}
  m_Name: 110_ChickenCoop_WorkToIdle
  serializedVersion: 6
  m_Legacy: 0
  m_Compressed: 0
  m_UseHighQualityCurve: 1
  m_RotationCurves: []
  m_CompressedRotationCurves: []
  m_EulerCurves: []
  m_PositionCurves: []
  m_ScaleCurves:
  - curve:
      serializedVersion: 2
      m_Curve:
      - serializedVersion: 3
        time: 0
        value: {x: 1, y: 1, z: 1}
        inSlope: {x: 0, y: 0, z: 0}
        outSlope: {x: 0, y: 0, z: 0}
        tangentMode: 0
        weightedMode: 0
        inWeight: {x: 0.33333334, y: 0.33333334, z: 0.33333334}
        outWeight: {x: 0.33333334, y: 0.33333334, z: 0.33333334}
      - serializedVersion: 3
        time: 0.23333333
        value: {x: 0, y: 0, z: 0}
        inSlope: {x: 0, y: 0, z: 0}
        outSlope: {x: 0, y: 0, z: 0}
        tangentMode: 0
        weightedMode: 0
        inWeight: {x: 0.33333334, y: 0.33333334, z: 0.33333334}
        outWeight: {x: 0.33333334, y: 0.33333334, z: 0.33333334}
      m_PreInfinity: 2
      m_PostInfinity: 2
      m_RotationOrder: 4
    path: Chicken_Coop_ManAndPancake
  - curve:
      serializedVersion: 2
      m_Curve:
      - serializedVersion: 3
        time: 0.16666667
        value: {x: 1, y: 1, z: 1}
        inSlope: {x: 0, y: 0, z: 0}
        outSlope: {x: 0, y: 0, z: 0}
        tangentMode: 0
        weightedMode: 0
        inWeight: {x: 0.33333334, y: 0.33333334, z: 0.33333334}
        outWeight: {x: 0.33333334, y: 0.33333334, z: 0.33333334}
      - serializedVersion: 3
        time: 0.4
        value: {x: 0, y: 0, z: 0}
        inSlope: {x: 0, y: 0, z: 0}
        outSlope: {x: 0, y: 0, z: 0}
        tangentMode: 0
        weightedMode: 0
        inWeight: {x: 0.33333334, y: 0.33333334, z: 0.33333334}
        outWeight: {x: 0.33333334, y: 0.33333334, z: 0.33333334}
      m_PreInfinity: 2
      m_PostInfinity: 2
      m_RotationOrder: 4
    path: Chicken_Coop_Man
  m_FloatCurves:
  - curve:
      serializedVersion: 2
      m_Curve:
      - serializedVersion: 3
        time: 0
        value: 0
        inSlope: Infinity
        outSlope: Infinity
        tangentMode: 103
        weightedMode: 0
        inWeight: 0
        outWeight: 0
      m_PreInfinity: 2
      m_PostInfinity: 2
      m_RotationOrder: 4
    attribute: m_IsActive
    path: VFX_Holder
    classID: 1
    script: {fileID: 0}
  - curve:
      serializedVersion: 2
      m_Curve:
      - serializedVersion: 3
        time: 0
        value: 0
        inSlope: Infinity
        outSlope: Infinity
        tangentMode: 103
        weightedMode: 0
        inWeight: 0
        outWeight: 0
      m_PreInfinity: 2
      m_PostInfinity: 2
      m_RotationOrder: 4
    attribute: EmissionModule.enabled
    path: DustParticles (1)/DustParticles (3)
    classID: 198
    script: {fileID: 0}
  - curve:
      serializedVersion: 2
      m_Curve:
      - serializedVersion: 3
        time: 0
        value: 0
        inSlope: Infinity
        outSlope: Infinity
        tangentMode: 103
        weightedMode: 0
        inWeight: 0
        outWeight: 0
      m_PreInfinity: 2
      m_PostInfinity: 2
      m_RotationOrder: 4
    attribute: EmissionModule.enabled
    path: DustParticles (1)/DustParticles (2)
    classID: 198
    script: {fileID: 0}
  - curve:
      serializedVersion: 2
      m_Curve:
      - serializedVersion: 3
        time: 0
        value: 0
        inSlope: Infinity
        outSlope: Infinity
        tangentMode: 103
        weightedMode: 0
        inWeight: 0
        outWeight: 0
      m_PreInfinity: 2
      m_PostInfinity: 2
      m_RotationOrder: 4
    attribute: EmissionModule.enabled
    path: DustParticles (1)/DustParticles (2)/DustParticles (1)
    classID: 198
    script: {fileID: 0}
  m_PPtrCurves:
  - curve:
    - time: 0.43333334
      value: {fileID: 4710466446995419129, guid: 6b12599b1121b99448947ae51d82ecef,
        type: 3}
    - time: 0.46666667
      value: {fileID: 6893168228725994207, guid: 6b12599b1121b99448947ae51d82ecef,
        type: 3}
    - time: 0.5
      value: {fileID: 9213146576822984582, guid: 6b12599b1121b99448947ae51d82ecef,
        type: 3}
    - time: 0.53333336
      value: {fileID: -3649044576117323447, guid: 6b12599b1121b99448947ae51d82ecef,
        type: 3}
    - time: 0.56666666
      value: {fileID: -2516485916270223975, guid: 6b12599b1121b99448947ae51d82ecef,
        type: 3}
    - time: 0.6
      value: {fileID: 8397076592622217315, guid: 6b12599b1121b99448947ae51d82ecef,
        type: 3}
    - time: 0.6333333
      value: {fileID: -7930579603074376497, guid: 6b12599b1121b99448947ae51d82ecef,
        type: 3}
    - time: 0.6666667
      value: {fileID: -764731625519785180, guid: 6b12599b1121b99448947ae51d82ecef,
        type: 3}
    - time: 0.7
      value: {fileID: 6323430158503144568, guid: 6b12599b1121b99448947ae51d82ecef,
        type: 3}
    - time: 0.73333335
      value: {fileID: -3091634368389695530, guid: 6b12599b1121b99448947ae51d82ecef,
        type: 3}
    - time: 0.76666665
      value: {fileID: -6809980876226139168, guid: 6b12599b1121b99448947ae51d82ecef,
        type: 3}
    - time: 0.8
      value: {fileID: -5080561444190708929, guid: 6b12599b1121b99448947ae51d82ecef,
        type: 3}
    - time: 0.8333333
      value: {fileID: 4763644048238810201, guid: 6b12599b1121b99448947ae51d82ecef,
        type: 3}
    - time: 0.8666667
      value: {fileID: 8384763214043441555, guid: 6b12599b1121b99448947ae51d82ecef,
        type: 3}
    - time: 0.9
      value: {fileID: 3216751341539772480, guid: 6b12599b1121b99448947ae51d82ecef,
        type: 3}
    - time: 0.93333334
      value: {fileID: -8835016493870239262, guid: 6b12599b1121b99448947ae51d82ecef,
        type: 3}
    - time: 0.96666664
      value: {fileID: -8245264064982013129, guid: 6b12599b1121b99448947ae51d82ecef,
        type: 3}
    - time: 1
      value: {fileID: -8458275718691995040, guid: 6b12599b1121b99448947ae51d82ecef,
        type: 3}
    - time: 1.0333333
      value: {fileID: -3142981545726151864, guid: 6b12599b1121b99448947ae51d82ecef,
        type: 3}
    - time: 1.0666667
      value: {fileID: -353422850833855683, guid: 6b12599b1121b99448947ae51d82ecef,
        type: 3}
    - time: 1.1
      value: {fileID: 5269824812695958749, guid: 6b12599b1121b99448947ae51d82ecef,
        type: 3}
    - time: 1.1333333
      value: {fileID: 202442960406106184, guid: 6b12599b1121b99448947ae51d82ecef,
        type: 3}
    - time: 1.1666666
      value: {fileID: 3623903546166651965, guid: 6b12599b1121b99448947ae51d82ecef,
        type: 3}
    - time: 1.2
      value: {fileID: 6705657692064436950, guid: 6b12599b1121b99448947ae51d82ecef,
        type: 3}
    - time: 1.2333333
      value: {fileID: -9026153069798726215, guid: 6b12599b1121b99448947ae51d82ecef,
        type: 3}
    - time: 1.2666667
      value: {fileID: -5192363961625568326, guid: 6b12599b1121b99448947ae51d82ecef,
        type: 3}
    - time: 1.3
      value: {fileID: -8597114420477419974, guid: 6b12599b1121b99448947ae51d82ecef,
        type: 3}
    - time: 1.3333334
      value: {fileID: -1352454175810011335, guid: 6b12599b1121b99448947ae51d82ecef,
        type: 3}
    - time: 1.3666667
      value: {fileID: -3645988431521427988, guid: 6b12599b1121b99448947ae51d82ecef,
        type: 3}
    - time: 1.4
      value: {fileID: 7772237940562570438, guid: 6b12599b1121b99448947ae51d82ecef,
        type: 3}
    - time: 1.4333333
      value: {fileID: -5662616206828079759, guid: 6b12599b1121b99448947ae51d82ecef,
        type: 3}
    - time: 1.4666667
      value: {fileID: -6808643850252229803, guid: 6b12599b1121b99448947ae51d82ecef,
        type: 3}
    - time: 1.5
      value: {fileID: 8622249945748402811, guid: 6b12599b1121b99448947ae51d82ecef,
        type: 3}
    - time: 1.5333333
      value: {fileID: -1852560368215652087, guid: 6b12599b1121b99448947ae51d82ecef,
        type: 3}
    - time: 1.5666667
      value: {fileID: -553928969921303372, guid: 6b12599b1121b99448947ae51d82ecef,
        type: 3}
    - time: 1.6
      value: {fileID: 5125719080116499849, guid: 6b12599b1121b99448947ae51d82ecef,
        type: 3}
    - time: 1.6333333
      value: {fileID: -8034935070522649105, guid: 6b12599b1121b99448947ae51d82ecef,
        type: 3}
    - time: 1.6666666
      value: {fileID: -2979163376013588115, guid: 6b12599b1121b99448947ae51d82ecef,
        type: 3}
    - time: 1.7
      value: {fileID: 1900764683465602475, guid: 6b12599b1121b99448947ae51d82ecef,
        type: 3}
    - time: 1.7333333
      value: {fileID: 1434322280697565394, guid: 6b12599b1121b99448947ae51d82ecef,
        type: 3}
    - time: 1.7666667
      value: {fileID: -1766622566015506672, guid: 6b12599b1121b99448947ae51d82ecef,
        type: 3}
    - time: 1.8
      value: {fileID: 7839024729609950300, guid: 6b12599b1121b99448947ae51d82ecef,
        type: 3}
    - time: 1.8333334
      value: {fileID: 1640618572309308553, guid: 6b12599b1121b99448947ae51d82ecef,
        type: 3}
    - time: 1.8666667
      value: {fileID: 8550490446251074977, guid: 6b12599b1121b99448947ae51d82ecef,
        type: 3}
    - time: 1.9
      value: {fileID: 1539393085794271600, guid: 6b12599b1121b99448947ae51d82ecef,
        type: 3}
    - time: 1.9333333
      value: {fileID: 5305364094086780047, guid: 6b12599b1121b99448947ae51d82ecef,
        type: 3}
    - time: 1.9666667
      value: {fileID: 6696418100882089412, guid: 6b12599b1121b99448947ae51d82ecef,
        type: 3}
    - time: 2
      value: {fileID: 6317770385660839596, guid: 6b12599b1121b99448947ae51d82ecef,
        type: 3}
    - time: 2.0333333
      value: {fileID: 9168905821997313175, guid: 6b12599b1121b99448947ae51d82ecef,
        type: 3}
    - time: 2.0666666
      value: {fileID: 6031073430471166414, guid: 6b12599b1121b99448947ae51d82ecef,
        type: 3}
    - time: 2.1
      value: {fileID: -4285934275655624606, guid: 6b12599b1121b99448947ae51d82ecef,
        type: 3}
    attribute: m_Sprite
    path: Chicken_Coop_OnlyChiken2
    classID: 212
    script: {fileID: 0}
  - curve:
    - time: 0.2
      value: {fileID: 4710466446995419129, guid: 6b12599b1121b99448947ae51d82ecef,
        type: 3}
    - time: 0.23333333
      value: {fileID: 6893168228725994207, guid: 6b12599b1121b99448947ae51d82ecef,
        type: 3}
    - time: 0.26666668
      value: {fileID: 9213146576822984582, guid: 6b12599b1121b99448947ae51d82ecef,
        type: 3}
    - time: 0.3
      value: {fileID: -3649044576117323447, guid: 6b12599b1121b99448947ae51d82ecef,
        type: 3}
    - time: 0.33333334
      value: {fileID: -2516485916270223975, guid: 6b12599b1121b99448947ae51d82ecef,
        type: 3}
    - time: 0.36666667
      value: {fileID: 8397076592622217315, guid: 6b12599b1121b99448947ae51d82ecef,
        type: 3}
    - time: 0.4
      value: {fileID: -7930579603074376497, guid: 6b12599b1121b99448947ae51d82ecef,
        type: 3}
    - time: 0.43333334
      value: {fileID: -764731625519785180, guid: 6b12599b1121b99448947ae51d82ecef,
        type: 3}
    - time: 0.46666667
      value: {fileID: 6323430158503144568, guid: 6b12599b1121b99448947ae51d82ecef,
        type: 3}
    - time: 0.5
      value: {fileID: -3091634368389695530, guid: 6b12599b1121b99448947ae51d82ecef,
        type: 3}
    - time: 0.53333336
      value: {fileID: -6809980876226139168, guid: 6b12599b1121b99448947ae51d82ecef,
        type: 3}
    - time: 0.56666666
      value: {fileID: -5080561444190708929, guid: 6b12599b1121b99448947ae51d82ecef,
        type: 3}
    - time: 0.6
      value: {fileID: 4763644048238810201, guid: 6b12599b1121b99448947ae51d82ecef,
        type: 3}
    - time: 0.6333333
      value: {fileID: 8384763214043441555, guid: 6b12599b1121b99448947ae51d82ecef,
        type: 3}
    - time: 0.6666667
      value: {fileID: 3216751341539772480, guid: 6b12599b1121b99448947ae51d82ecef,
        type: 3}
    - time: 0.7
      value: {fileID: -8835016493870239262, guid: 6b12599b1121b99448947ae51d82ecef,
        type: 3}
    - time: 0.73333335
      value: {fileID: -8245264064982013129, guid: 6b12599b1121b99448947ae51d82ecef,
        type: 3}
    - time: 0.76666665
      value: {fileID: -8458275718691995040, guid: 6b12599b1121b99448947ae51d82ecef,
        type: 3}
    - time: 0.8
      value: {fileID: -3142981545726151864, guid: 6b12599b1121b99448947ae51d82ecef,
        type: 3}
    - time: 0.8333333
      value: {fileID: -353422850833855683, guid: 6b12599b1121b99448947ae51d82ecef,
        type: 3}
    - time: 0.8666667
      value: {fileID: 5269824812695958749, guid: 6b12599b1121b99448947ae51d82ecef,
        type: 3}
    - time: 0.9
      value: {fileID: 202442960406106184, guid: 6b12599b1121b99448947ae51d82ecef,
        type: 3}
    - time: 0.93333334
      value: {fileID: 3623903546166651965, guid: 6b12599b1121b99448947ae51d82ecef,
        type: 3}
    - time: 0.96666664
      value: {fileID: 6705657692064436950, guid: 6b12599b1121b99448947ae51d82ecef,
        type: 3}
    - time: 1
      value: {fileID: -9026153069798726215, guid: 6b12599b1121b99448947ae51d82ecef,
        type: 3}
    - time: 1.0333333
      value: {fileID: -5192363961625568326, guid: 6b12599b1121b99448947ae51d82ecef,
        type: 3}
    - time: 1.0666667
      value: {fileID: -8597114420477419974, guid: 6b12599b1121b99448947ae51d82ecef,
        type: 3}
    - time: 1.1
      value: {fileID: -1352454175810011335, guid: 6b12599b1121b99448947ae51d82ecef,
        type: 3}
    - time: 1.1333333
      value: {fileID: -3645988431521427988, guid: 6b12599b1121b99448947ae51d82ecef,
        type: 3}
    - time: 1.1666666
      value: {fileID: 7772237940562570438, guid: 6b12599b1121b99448947ae51d82ecef,
        type: 3}
    - time: 1.2
      value: {fileID: -5662616206828079759, guid: 6b12599b1121b99448947ae51d82ecef,
        type: 3}
    - time: 1.2333333
      value: {fileID: -6808643850252229803, guid: 6b12599b1121b99448947ae51d82ecef,
        type: 3}
    - time: 1.2666667
      value: {fileID: 8622249945748402811, guid: 6b12599b1121b99448947ae51d82ecef,
        type: 3}
    - time: 1.3
      value: {fileID: -1852560368215652087, guid: 6b12599b1121b99448947ae51d82ecef,
        type: 3}
    - time: 1.3333334
      value: {fileID: -553928969921303372, guid: 6b12599b1121b99448947ae51d82ecef,
        type: 3}
    - time: 1.3666667
      value: {fileID: 5125719080116499849, guid: 6b12599b1121b99448947ae51d82ecef,
        type: 3}
    - time: 1.4
      value: {fileID: -8034935070522649105, guid: 6b12599b1121b99448947ae51d82ecef,
        type: 3}
    - time: 1.4333333
      value: {fileID: -2979163376013588115, guid: 6b12599b1121b99448947ae51d82ecef,
        type: 3}
    - time: 1.4666667
      value: {fileID: 1900764683465602475, guid: 6b12599b1121b99448947ae51d82ecef,
        type: 3}
    - time: 1.5
      value: {fileID: 1434322280697565394, guid: 6b12599b1121b99448947ae51d82ecef,
        type: 3}
    - time: 1.5333333
      value: {fileID: -1766622566015506672, guid: 6b12599b1121b99448947ae51d82ecef,
        type: 3}
    - time: 1.5666667
      value: {fileID: 7839024729609950300, guid: 6b12599b1121b99448947ae51d82ecef,
        type: 3}
    - time: 1.6
      value: {fileID: 1640618572309308553, guid: 6b12599b1121b99448947ae51d82ecef,
        type: 3}
    - time: 1.6333333
      value: {fileID: 8550490446251074977, guid: 6b12599b1121b99448947ae51d82ecef,
        type: 3}
    - time: 1.6666666
      value: {fileID: 1539393085794271600, guid: 6b12599b1121b99448947ae51d82ecef,
        type: 3}
    - time: 1.7
      value: {fileID: 5305364094086780047, guid: 6b12599b1121b99448947ae51d82ecef,
        type: 3}
    - time: 1.7333333
      value: {fileID: 6696418100882089412, guid: 6b12599b1121b99448947ae51d82ecef,
        type: 3}
    - time: 1.7666667
      value: {fileID: 6317770385660839596, guid: 6b12599b1121b99448947ae51d82ecef,
        type: 3}
    - time: 1.8
      value: {fileID: 9168905821997313175, guid: 6b12599b1121b99448947ae51d82ecef,
        type: 3}
    - time: 1.8333334
      value: {fileID: 6031073430471166414, guid: 6b12599b1121b99448947ae51d82ecef,
        type: 3}
    - time: 1.8666667
      value: {fileID: -4285934275655624606, guid: 6b12599b1121b99448947ae51d82ecef,
        type: 3}
    attribute: m_Sprite
    path: Chicken_Coop_OnlyChiken3
    classID: 212
    script: {fileID: 0}
  - curve:
    - time: 0
      value: {fileID: 4710466446995419129, guid: 6b12599b1121b99448947ae51d82ecef,
        type: 3}
    - time: 0.033333335
      value: {fileID: 6893168228725994207, guid: 6b12599b1121b99448947ae51d82ecef,
        type: 3}
    - time: 0.06666667
      value: {fileID: 9213146576822984582, guid: 6b12599b1121b99448947ae51d82ecef,
        type: 3}
    - time: 0.1
      value: {fileID: -3649044576117323447, guid: 6b12599b1121b99448947ae51d82ecef,
        type: 3}
    - time: 0.13333334
      value: {fileID: -2516485916270223975, guid: 6b12599b1121b99448947ae51d82ecef,
        type: 3}
    - time: 0.16666667
      value: {fileID: 8397076592622217315, guid: 6b12599b1121b99448947ae51d82ecef,
        type: 3}
    - time: 0.2
      value: {fileID: -7930579603074376497, guid: 6b12599b1121b99448947ae51d82ecef,
        type: 3}
    - time: 0.23333333
      value: {fileID: -764731625519785180, guid: 6b12599b1121b99448947ae51d82ecef,
        type: 3}
    - time: 0.26666668
      value: {fileID: 6323430158503144568, guid: 6b12599b1121b99448947ae51d82ecef,
        type: 3}
    - time: 0.3
      value: {fileID: -3091634368389695530, guid: 6b12599b1121b99448947ae51d82ecef,
        type: 3}
    - time: 0.33333334
      value: {fileID: -6809980876226139168, guid: 6b12599b1121b99448947ae51d82ecef,
        type: 3}
    - time: 0.36666667
      value: {fileID: -5080561444190708929, guid: 6b12599b1121b99448947ae51d82ecef,
        type: 3}
    - time: 0.4
      value: {fileID: 4763644048238810201, guid: 6b12599b1121b99448947ae51d82ecef,
        type: 3}
    - time: 0.43333334
      value: {fileID: 8384763214043441555, guid: 6b12599b1121b99448947ae51d82ecef,
        type: 3}
    - time: 0.46666667
      value: {fileID: 3216751341539772480, guid: 6b12599b1121b99448947ae51d82ecef,
        type: 3}
    - time: 0.5
      value: {fileID: -8835016493870239262, guid: 6b12599b1121b99448947ae51d82ecef,
        type: 3}
    - time: 0.53333336
      value: {fileID: -8245264064982013129, guid: 6b12599b1121b99448947ae51d82ecef,
        type: 3}
    - time: 0.56666666
      value: {fileID: -8458275718691995040, guid: 6b12599b1121b99448947ae51d82ecef,
        type: 3}
    - time: 0.6
      value: {fileID: -3142981545726151864, guid: 6b12599b1121b99448947ae51d82ecef,
        type: 3}
    - time: 0.6333333
      value: {fileID: -353422850833855683, guid: 6b12599b1121b99448947ae51d82ecef,
        type: 3}
    - time: 0.6666667
      value: {fileID: 5269824812695958749, guid: 6b12599b1121b99448947ae51d82ecef,
        type: 3}
    - time: 0.7
      value: {fileID: 202442960406106184, guid: 6b12599b1121b99448947ae51d82ecef,
        type: 3}
    - time: 0.73333335
      value: {fileID: 3623903546166651965, guid: 6b12599b1121b99448947ae51d82ecef,
        type: 3}
    - time: 0.76666665
      value: {fileID: 6705657692064436950, guid: 6b12599b1121b99448947ae51d82ecef,
        type: 3}
    - time: 0.8
      value: {fileID: -9026153069798726215, guid: 6b12599b1121b99448947ae51d82ecef,
        type: 3}
    - time: 0.8333333
      value: {fileID: -5192363961625568326, guid: 6b12599b1121b99448947ae51d82ecef,
        type: 3}
    - time: 0.8666667
      value: {fileID: -8597114420477419974, guid: 6b12599b1121b99448947ae51d82ecef,
        type: 3}
    - time: 0.9
      value: {fileID: -1352454175810011335, guid: 6b12599b1121b99448947ae51d82ecef,
        type: 3}
    - time: 0.93333334
      value: {fileID: -3645988431521427988, guid: 6b12599b1121b99448947ae51d82ecef,
        type: 3}
    - time: 0.96666664
      value: {fileID: 7772237940562570438, guid: 6b12599b1121b99448947ae51d82ecef,
        type: 3}
    - time: 1
      value: {fileID: -5662616206828079759, guid: 6b12599b1121b99448947ae51d82ecef,
        type: 3}
    - time: 1.0333333
      value: {fileID: -6808643850252229803, guid: 6b12599b1121b99448947ae51d82ecef,
        type: 3}
    - time: 1.0666667
      value: {fileID: 8622249945748402811, guid: 6b12599b1121b99448947ae51d82ecef,
        type: 3}
    - time: 1.1
      value: {fileID: -1852560368215652087, guid: 6b12599b1121b99448947ae51d82ecef,
        type: 3}
    - time: 1.1333333
      value: {fileID: -553928969921303372, guid: 6b12599b1121b99448947ae51d82ecef,
        type: 3}
    - time: 1.1666666
      value: {fileID: 5125719080116499849, guid: 6b12599b1121b99448947ae51d82ecef,
        type: 3}
    - time: 1.2
      value: {fileID: -8034935070522649105, guid: 6b12599b1121b99448947ae51d82ecef,
        type: 3}
    - time: 1.2333333
      value: {fileID: -2979163376013588115, guid: 6b12599b1121b99448947ae51d82ecef,
        type: 3}
    - time: 1.2666667
      value: {fileID: 1900764683465602475, guid: 6b12599b1121b99448947ae51d82ecef,
        type: 3}
    - time: 1.3
      value: {fileID: 1434322280697565394, guid: 6b12599b1121b99448947ae51d82ecef,
        type: 3}
    - time: 1.3333334
      value: {fileID: -1766622566015506672, guid: 6b12599b1121b99448947ae51d82ecef,
        type: 3}
    - time: 1.3666667
      value: {fileID: 7839024729609950300, guid: 6b12599b1121b99448947ae51d82ecef,
        type: 3}
    - time: 1.4
      value: {fileID: 1640618572309308553, guid: 6b12599b1121b99448947ae51d82ecef,
        type: 3}
    - time: 1.4333333
      value: {fileID: 8550490446251074977, guid: 6b12599b1121b99448947ae51d82ecef,
        type: 3}
    - time: 1.4666667
      value: {fileID: 1539393085794271600, guid: 6b12599b1121b99448947ae51d82ecef,
        type: 3}
    - time: 1.5
      value: {fileID: 5305364094086780047, guid: 6b12599b1121b99448947ae51d82ecef,
        type: 3}
    - time: 1.5333333
      value: {fileID: 6696418100882089412, guid: 6b12599b1121b99448947ae51d82ecef,
        type: 3}
    - time: 1.5666667
      value: {fileID: 6317770385660839596, guid: 6b12599b1121b99448947ae51d82ecef,
        type: 3}
    - time: 1.6
      value: {fileID: 9168905821997313175, guid: 6b12599b1121b99448947ae51d82ecef,
        type: 3}
    - time: 1.6333333
      value: {fileID: 6031073430471166414, guid: 6b12599b1121b99448947ae51d82ecef,
        type: 3}
    - time: 1.6666666
      value: {fileID: -4285934275655624606, guid: 6b12599b1121b99448947ae51d82ecef,
        type: 3}
    attribute: m_Sprite
    path: Chicken_Coop_OnlyChiken1
    classID: 212
    script: {fileID: 0}
  m_SampleRate: 30
  m_WrapMode: 2
  m_Bounds:
    m_Center: {x: 0, y: 0, z: 0}
    m_Extent: {x: 0, y: 0, z: 0}
  m_ClipBindingConstant:
    genericBindings:
    - serializedVersion: 2
      path: 2179497093
      attribute: 3
      script: {fileID: 0}
      typeID: 4
      customType: 0
      isPPtrCurve: 0
    - serializedVersion: 2
      path: 181583172
      attribute: 3
      script: {fileID: 0}
      typeID: 4
      customType: 0
      isPPtrCurve: 0
    - serializedVersion: 2
      path: 3381680625
      attribute: 2086281974
      script: {fileID: 0}
      typeID: 1
      customType: 0
      isPPtrCurve: 0
    - serializedVersion: 2
      path: 2016655630
      attribute: 1087013301
      script: {fileID: 0}
      typeID: 198
      customType: 27
      isPPtrCurve: 0
    - serializedVersion: 2
      path: 1630046287
      attribute: 1087013301
      script: {fileID: 0}
      typeID: 198
      customType: 27
      isPPtrCurve: 0
    - serializedVersion: 2
      path: 3655144787
      attribute: 1087013301
      script: {fileID: 0}
      typeID: 198
      customType: 27
      isPPtrCurve: 0
    - serializedVersion: 2
      path: 1013662053
      attribute: 0
      script: {fileID: 0}
      typeID: 212
      customType: 23
      isPPtrCurve: 1
    - serializedVersion: 2
      path: 1265398259
      attribute: 0
      script: {fileID: 0}
      typeID: 212
      customType: 23
      isPPtrCurve: 1
    - serializedVersion: 2
      path: 2774667487
      attribute: 0
      script: {fileID: 0}
      typeID: 212
      customType: 23
      isPPtrCurve: 1
    pptrCurveMapping:
    - {fileID: 4710466446995419129, guid: 6b12599b1121b99448947ae51d82ecef, type: 3}
    - {fileID: 6893168228725994207, guid: 6b12599b1121b99448947ae51d82ecef, type: 3}
    - {fileID: 9213146576822984582, guid: 6b12599b1121b99448947ae51d82ecef, type: 3}
    - {fileID: -3649044576117323447, guid: 6b12599b1121b99448947ae51d82ecef, type: 3}
    - {fileID: -2516485916270223975, guid: 6b12599b1121b99448947ae51d82ecef, type: 3}
    - {fileID: 8397076592622217315, guid: 6b12599b1121b99448947ae51d82ecef, type: 3}
    - {fileID: -7930579603074376497, guid: 6b12599b1121b99448947ae51d82ecef, type: 3}
    - {fileID: -764731625519785180, guid: 6b12599b1121b99448947ae51d82ecef, type: 3}
    - {fileID: 6323430158503144568, guid: 6b12599b1121b99448947ae51d82ecef, type: 3}
    - {fileID: -3091634368389695530, guid: 6b12599b1121b99448947ae51d82ecef, type: 3}
    - {fileID: -6809980876226139168, guid: 6b12599b1121b99448947ae51d82ecef, type: 3}
    - {fileID: -5080561444190708929, guid: 6b12599b1121b99448947ae51d82ecef, type: 3}
    - {fileID: 4763644048238810201, guid: 6b12599b1121b99448947ae51d82ecef, type: 3}
    - {fileID: 8384763214043441555, guid: 6b12599b1121b99448947ae51d82ecef, type: 3}
    - {fileID: 3216751341539772480, guid: 6b12599b1121b99448947ae51d82ecef, type: 3}
    - {fileID: -8835016493870239262, guid: 6b12599b1121b99448947ae51d82ecef, type: 3}
    - {fileID: -8245264064982013129, guid: 6b12599b1121b99448947ae51d82ecef, type: 3}
    - {fileID: -8458275718691995040, guid: 6b12599b1121b99448947ae51d82ecef, type: 3}
    - {fileID: -3142981545726151864, guid: 6b12599b1121b99448947ae51d82ecef, type: 3}
    - {fileID: -353422850833855683, guid: 6b12599b1121b99448947ae51d82ecef, type: 3}
    - {fileID: 5269824812695958749, guid: 6b12599b1121b99448947ae51d82ecef, type: 3}
    - {fileID: 202442960406106184, guid: 6b12599b1121b99448947ae51d82ecef, type: 3}
    - {fileID: 3623903546166651965, guid: 6b12599b1121b99448947ae51d82ecef, type: 3}
    - {fileID: 6705657692064436950, guid: 6b12599b1121b99448947ae51d82ecef, type: 3}
    - {fileID: -9026153069798726215, guid: 6b12599b1121b99448947ae51d82ecef, type: 3}
    - {fileID: -5192363961625568326, guid: 6b12599b1121b99448947ae51d82ecef, type: 3}
    - {fileID: -8597114420477419974, guid: 6b12599b1121b99448947ae51d82ecef, type: 3}
    - {fileID: -1352454175810011335, guid: 6b12599b1121b99448947ae51d82ecef, type: 3}
    - {fileID: -3645988431521427988, guid: 6b12599b1121b99448947ae51d82ecef, type: 3}
    - {fileID: 7772237940562570438, guid: 6b12599b1121b99448947ae51d82ecef, type: 3}
    - {fileID: -5662616206828079759, guid: 6b12599b1121b99448947ae51d82ecef, type: 3}
    - {fileID: -6808643850252229803, guid: 6b12599b1121b99448947ae51d82ecef, type: 3}
    - {fileID: 8622249945748402811, guid: 6b12599b1121b99448947ae51d82ecef, type: 3}
    - {fileID: -1852560368215652087, guid: 6b12599b1121b99448947ae51d82ecef, type: 3}
    - {fileID: -553928969921303372, guid: 6b12599b1121b99448947ae51d82ecef, type: 3}
    - {fileID: 5125719080116499849, guid: 6b12599b1121b99448947ae51d82ecef, type: 3}
    - {fileID: -8034935070522649105, guid: 6b12599b1121b99448947ae51d82ecef, type: 3}
    - {fileID: -2979163376013588115, guid: 6b12599b1121b99448947ae51d82ecef, type: 3}
    - {fileID: 1900764683465602475, guid: 6b12599b1121b99448947ae51d82ecef, type: 3}
    - {fileID: 1434322280697565394, guid: 6b12599b1121b99448947ae51d82ecef, type: 3}
    - {fileID: -1766622566015506672, guid: 6b12599b1121b99448947ae51d82ecef, type: 3}
    - {fileID: 7839024729609950300, guid: 6b12599b1121b99448947ae51d82ecef, type: 3}
    - {fileID: 1640618572309308553, guid: 6b12599b1121b99448947ae51d82ecef, type: 3}
    - {fileID: 8550490446251074977, guid: 6b12599b1121b99448947ae51d82ecef, type: 3}
    - {fileID: 1539393085794271600, guid: 6b12599b1121b99448947ae51d82ecef, type: 3}
    - {fileID: 5305364094086780047, guid: 6b12599b1121b99448947ae51d82ecef, type: 3}
    - {fileID: 6696418100882089412, guid: 6b12599b1121b99448947ae51d82ecef, type: 3}
    - {fileID: 6317770385660839596, guid: 6b12599b1121b99448947ae51d82ecef, type: 3}
    - {fileID: 9168905821997313175, guid: 6b12599b1121b99448947ae51d82ecef, type: 3}
    - {fileID: 6031073430471166414, guid: 6b12599b1121b99448947ae51d82ecef, type: 3}
    - {fileID: -4285934275655624606, guid: 6b12599b1121b99448947ae51d82ecef, type: 3}
    - {fileID: 4710466446995419129, guid: 6b12599b1121b99448947ae51d82ecef, type: 3}
    - {fileID: 6893168228725994207, guid: 6b12599b1121b99448947ae51d82ecef, type: 3}
    - {fileID: 9213146576822984582, guid: 6b12599b1121b99448947ae51d82ecef, type: 3}
    - {fileID: -3649044576117323447, guid: 6b12599b1121b99448947ae51d82ecef, type: 3}
    - {fileID: -2516485916270223975, guid: 6b12599b1121b99448947ae51d82ecef, type: 3}
    - {fileID: 8397076592622217315, guid: 6b12599b1121b99448947ae51d82ecef, type: 3}
    - {fileID: -7930579603074376497, guid: 6b12599b1121b99448947ae51d82ecef, type: 3}
    - {fileID: -764731625519785180, guid: 6b12599b1121b99448947ae51d82ecef, type: 3}
    - {fileID: 6323430158503144568, guid: 6b12599b1121b99448947ae51d82ecef, type: 3}
    - {fileID: -3091634368389695530, guid: 6b12599b1121b99448947ae51d82ecef, type: 3}
    - {fileID: -6809980876226139168, guid: 6b12599b1121b99448947ae51d82ecef, type: 3}
    - {fileID: -5080561444190708929, guid: 6b12599b1121b99448947ae51d82ecef, type: 3}
    - {fileID: 4763644048238810201, guid: 6b12599b1121b99448947ae51d82ecef, type: 3}
    - {fileID: 8384763214043441555, guid: 6b12599b1121b99448947ae51d82ecef, type: 3}
    - {fileID: 3216751341539772480, guid: 6b12599b1121b99448947ae51d82ecef, type: 3}
    - {fileID: -8835016493870239262, guid: 6b12599b1121b99448947ae51d82ecef, type: 3}
    - {fileID: -8245264064982013129, guid: 6b12599b1121b99448947ae51d82ecef, type: 3}
    - {fileID: -8458275718691995040, guid: 6b12599b1121b99448947ae51d82ecef, type: 3}
    - {fileID: -3142981545726151864, guid: 6b12599b1121b99448947ae51d82ecef, type: 3}
    - {fileID: -353422850833855683, guid: 6b12599b1121b99448947ae51d82ecef, type: 3}
    - {fileID: 5269824812695958749, guid: 6b12599b1121b99448947ae51d82ecef, type: 3}
    - {fileID: 202442960406106184, guid: 6b12599b1121b99448947ae51d82ecef, type: 3}
    - {fileID: 3623903546166651965, guid: 6b12599b1121b99448947ae51d82ecef, type: 3}
    - {fileID: 6705657692064436950, guid: 6b12599b1121b99448947ae51d82ecef, type: 3}
    - {fileID: -9026153069798726215, guid: 6b12599b1121b99448947ae51d82ecef, type: 3}
    - {fileID: -5192363961625568326, guid: 6b12599b1121b99448947ae51d82ecef, type: 3}
    - {fileID: -8597114420477419974, guid: 6b12599b1121b99448947ae51d82ecef, type: 3}
    - {fileID: -1352454175810011335, guid: 6b12599b1121b99448947ae51d82ecef, type: 3}
    - {fileID: -3645988431521427988, guid: 6b12599b1121b99448947ae51d82ecef, type: 3}
    - {fileID: 7772237940562570438, guid: 6b12599b1121b99448947ae51d82ecef, type: 3}
    - {fileID: -5662616206828079759, guid: 6b12599b1121b99448947ae51d82ecef, type: 3}
    - {fileID: -6808643850252229803, guid: 6b12599b1121b99448947ae51d82ecef, type: 3}
    - {fileID: 8622249945748402811, guid: 6b12599b1121b99448947ae51d82ecef, type: 3}
    - {fileID: -1852560368215652087, guid: 6b12599b1121b99448947ae51d82ecef, type: 3}
    - {fileID: -553928969921303372, guid: 6b12599b1121b99448947ae51d82ecef, type: 3}
    - {fileID: 5125719080116499849, guid: 6b12599b1121b99448947ae51d82ecef, type: 3}
    - {fileID: -8034935070522649105, guid: 6b12599b1121b99448947ae51d82ecef, type: 3}
    - {fileID: -2979163376013588115, guid: 6b12599b1121b99448947ae51d82ecef, type: 3}
    - {fileID: 1900764683465602475, guid: 6b12599b1121b99448947ae51d82ecef, type: 3}
    - {fileID: 1434322280697565394, guid: 6b12599b1121b99448947ae51d82ecef, type: 3}
    - {fileID: -1766622566015506672, guid: 6b12599b1121b99448947ae51d82ecef, type: 3}
    - {fileID: 7839024729609950300, guid: 6b12599b1121b99448947ae51d82ecef, type: 3}
    - {fileID: 1640618572309308553, guid: 6b12599b1121b99448947ae51d82ecef, type: 3}
    - {fileID: 8550490446251074977, guid: 6b12599b1121b99448947ae51d82ecef, type: 3}
    - {fileID: 1539393085794271600, guid: 6b12599b1121b99448947ae51d82ecef, type: 3}
    - {fileID: 5305364094086780047, guid: 6b12599b1121b99448947ae51d82ecef, type: 3}
    - {fileID: 6696418100882089412, guid: 6b12599b1121b99448947ae51d82ecef, type: 3}
    - {fileID: 6317770385660839596, guid: 6b12599b1121b99448947ae51d82ecef, type: 3}
    - {fileID: 9168905821997313175, guid: 6b12599b1121b99448947ae51d82ecef, type: 3}
    - {fileID: 6031073430471166414, guid: 6b12599b1121b99448947ae51d82ecef, type: 3}
    - {fileID: -4285934275655624606, guid: 6b12599b1121b99448947ae51d82ecef, type: 3}
    - {fileID: 4710466446995419129, guid: 6b12599b1121b99448947ae51d82ecef, type: 3}
    - {fileID: 6893168228725994207, guid: 6b12599b1121b99448947ae51d82ecef, type: 3}
    - {fileID: 9213146576822984582, guid: 6b12599b1121b99448947ae51d82ecef, type: 3}
    - {fileID: -3649044576117323447, guid: 6b12599b1121b99448947ae51d82ecef, type: 3}
    - {fileID: -2516485916270223975, guid: 6b12599b1121b99448947ae51d82ecef, type: 3}
    - {fileID: 8397076592622217315, guid: 6b12599b1121b99448947ae51d82ecef, type: 3}
    - {fileID: -7930579603074376497, guid: 6b12599b1121b99448947ae51d82ecef, type: 3}
    - {fileID: -764731625519785180, guid: 6b12599b1121b99448947ae51d82ecef, type: 3}
    - {fileID: 6323430158503144568, guid: 6b12599b1121b99448947ae51d82ecef, type: 3}
    - {fileID: -3091634368389695530, guid: 6b12599b1121b99448947ae51d82ecef, type: 3}
    - {fileID: -6809980876226139168, guid: 6b12599b1121b99448947ae51d82ecef, type: 3}
    - {fileID: -5080561444190708929, guid: 6b12599b1121b99448947ae51d82ecef, type: 3}
    - {fileID: 4763644048238810201, guid: 6b12599b1121b99448947ae51d82ecef, type: 3}
    - {fileID: 8384763214043441555, guid: 6b12599b1121b99448947ae51d82ecef, type: 3}
    - {fileID: 3216751341539772480, guid: 6b12599b1121b99448947ae51d82ecef, type: 3}
    - {fileID: -8835016493870239262, guid: 6b12599b1121b99448947ae51d82ecef, type: 3}
    - {fileID: -8245264064982013129, guid: 6b12599b1121b99448947ae51d82ecef, type: 3}
    - {fileID: -8458275718691995040, guid: 6b12599b1121b99448947ae51d82ecef, type: 3}
    - {fileID: -3142981545726151864, guid: 6b12599b1121b99448947ae51d82ecef, type: 3}
    - {fileID: -353422850833855683, guid: 6b12599b1121b99448947ae51d82ecef, type: 3}
    - {fileID: 5269824812695958749, guid: 6b12599b1121b99448947ae51d82ecef, type: 3}
    - {fileID: 202442960406106184, guid: 6b12599b1121b99448947ae51d82ecef, type: 3}
    - {fileID: 3623903546166651965, guid: 6b12599b1121b99448947ae51d82ecef, type: 3}
    - {fileID: 6705657692064436950, guid: 6b12599b1121b99448947ae51d82ecef, type: 3}
    - {fileID: -9026153069798726215, guid: 6b12599b1121b99448947ae51d82ecef, type: 3}
    - {fileID: -5192363961625568326, guid: 6b12599b1121b99448947ae51d82ecef, type: 3}
    - {fileID: -8597114420477419974, guid: 6b12599b1121b99448947ae51d82ecef, type: 3}
    - {fileID: -1352454175810011335, guid: 6b12599b1121b99448947ae51d82ecef, type: 3}
    - {fileID: -3645988431521427988, guid: 6b12599b1121b99448947ae51d82ecef, type: 3}
    - {fileID: 7772237940562570438, guid: 6b12599b1121b99448947ae51d82ecef, type: 3}
    - {fileID: -5662616206828079759, guid: 6b12599b1121b99448947ae51d82ecef, type: 3}
    - {fileID: -6808643850252229803, guid: 6b12599b1121b99448947ae51d82ecef, type: 3}
    - {fileID: 8622249945748402811, guid: 6b12599b1121b99448947ae51d82ecef, type: 3}
    - {fileID: -1852560368215652087, guid: 6b12599b1121b99448947ae51d82ecef, type: 3}
    - {fileID: -553928969921303372, guid: 6b12599b1121b99448947ae51d82ecef, type: 3}
    - {fileID: 5125719080116499849, guid: 6b12599b1121b99448947ae51d82ecef, type: 3}
    - {fileID: -8034935070522649105, guid: 6b12599b1121b99448947ae51d82ecef, type: 3}
    - {fileID: -2979163376013588115, guid: 6b12599b1121b99448947ae51d82ecef, type: 3}
    - {fileID: 1900764683465602475, guid: 6b12599b1121b99448947ae51d82ecef, type: 3}
    - {fileID: 1434322280697565394, guid: 6b12599b1121b99448947ae51d82ecef, type: 3}
    - {fileID: -1766622566015506672, guid: 6b12599b1121b99448947ae51d82ecef, type: 3}
    - {fileID: 7839024729609950300, guid: 6b12599b1121b99448947ae51d82ecef, type: 3}
    - {fileID: 1640618572309308553, guid: 6b12599b1121b99448947ae51d82ecef, type: 3}
    - {fileID: 8550490446251074977, guid: 6b12599b1121b99448947ae51d82ecef, type: 3}
    - {fileID: 1539393085794271600, guid: 6b12599b1121b99448947ae51d82ecef, type: 3}
    - {fileID: 5305364094086780047, guid: 6b12599b1121b99448947ae51d82ecef, type: 3}
    - {fileID: 6696418100882089412, guid: 6b12599b1121b99448947ae51d82ecef, type: 3}
    - {fileID: 6317770385660839596, guid: 6b12599b1121b99448947ae51d82ecef, type: 3}
    - {fileID: 9168905821997313175, guid: 6b12599b1121b99448947ae51d82ecef, type: 3}
    - {fileID: 6031073430471166414, guid: 6b12599b1121b99448947ae51d82ecef, type: 3}
    - {fileID: -4285934275655624606, guid: 6b12599b1121b99448947ae51d82ecef, type: 3}
  m_AnimationClipSettings:
    serializedVersion: 2
    m_AdditiveReferencePoseClip: {fileID: 0}
    m_AdditiveReferencePoseTime: 0
    m_StartTime: 0
    m_StopTime: 2.1333332
    m_OrientationOffsetY: 0
    m_Level: 0
    m_CycleOffset: 0
    m_HasAdditiveReferencePose: 0
    m_LoopTime: 1
    m_LoopBlend: 0
    m_LoopBlendOrientation: 0
    m_LoopBlendPositionY: 0
    m_LoopBlendPositionXZ: 0
    m_KeepOriginalOrientation: 0
    m_KeepOriginalPositionY: 1
    m_KeepOriginalPositionXZ: 0
    m_HeightFromFeet: 0
    m_Mirror: 0
  m_EditorCurves:
  - curve:
      serializedVersion: 2
      m_Curve:
      - serializedVersion: 3
        time: 0
        value: 0
        inSlope: Infinity
        outSlope: Infinity
        tangentMode: 103
        weightedMode: 0
        inWeight: 0
        outWeight: 0
      m_PreInfinity: 2
      m_PostInfinity: 2
      m_RotationOrder: 4
    attribute: m_IsActive
    path: VFX_Holder
    classID: 1
    script: {fileID: 0}
  - curve:
      serializedVersion: 2
      m_Curve:
      - serializedVersion: 3
        time: 0
        value: 1
        inSlope: 0
        outSlope: 0
        tangentMode: 136
        weightedMode: 0
        inWeight: 0.33333334
        outWeight: 0.33333334
      - serializedVersion: 3
        time: 0.23333333
        value: 0
        inSlope: 0
        outSlope: 0
        tangentMode: 136
        weightedMode: 0
        inWeight: 0.33333334
        outWeight: 0.33333334
      m_PreInfinity: 2
      m_PostInfinity: 2
      m_RotationOrder: 4
    attribute: m_LocalScale.x
    path: Chicken_Coop_ManAndPancake
    classID: 4
    script: {fileID: 0}
  - curve:
      serializedVersion: 2
      m_Curve:
      - serializedVersion: 3
        time: 0
        value: 1
        inSlope: 0
        outSlope: 0
        tangentMode: 136
        weightedMode: 0
        inWeight: 0.33333334
        outWeight: 0.33333334
      - serializedVersion: 3
        time: 0.23333333
        value: 0
        inSlope: 0
        outSlope: 0
        tangentMode: 136
        weightedMode: 0
        inWeight: 0.33333334
        outWeight: 0.33333334
      m_PreInfinity: 2
      m_PostInfinity: 2
      m_RotationOrder: 4
    attribute: m_LocalScale.y
    path: Chicken_Coop_ManAndPancake
    classID: 4
    script: {fileID: 0}
  - curve:
      serializedVersion: 2
      m_Curve:
      - serializedVersion: 3
        time: 0
        value: 1
        inSlope: 0
        outSlope: 0
        tangentMode: 136
        weightedMode: 0
        inWeight: 0.33333334
        outWeight: 0.33333334
      - serializedVersion: 3
        time: 0.23333333
        value: 0
        inSlope: 0
        outSlope: 0
        tangentMode: 136
        weightedMode: 0
        inWeight: 0.33333334
        outWeight: 0.33333334
      m_PreInfinity: 2
      m_PostInfinity: 2
      m_RotationOrder: 4
    attribute: m_LocalScale.z
    path: Chicken_Coop_ManAndPancake
    classID: 4
    script: {fileID: 0}
  - curve:
      serializedVersion: 2
      m_Curve:
      - serializedVersion: 3
        time: 0.16666667
        value: 1
        inSlope: 0
        outSlope: 0
        tangentMode: 136
        weightedMode: 0
        inWeight: 0.33333334
        outWeight: 0.33333334
      - serializedVersion: 3
        time: 0.4
        value: 0
        inSlope: 0
        outSlope: 0
        tangentMode: 136
        weightedMode: 0
        inWeight: 0.33333334
        outWeight: 0.33333334
      m_PreInfinity: 2
      m_PostInfinity: 2
      m_RotationOrder: 4
    attribute: m_LocalScale.x
    path: Chicken_Coop_Man
    classID: 4
    script: {fileID: 0}
  - curve:
      serializedVersion: 2
      m_Curve:
      - serializedVersion: 3
        time: 0.16666667
        value: 1
        inSlope: 0
        outSlope: 0
        tangentMode: 136
        weightedMode: 0
        inWeight: 0.33333334
        outWeight: 0.33333334
      - serializedVersion: 3
        time: 0.4
        value: 0
        inSlope: 0
        outSlope: 0
        tangentMode: 136
        weightedMode: 0
        inWeight: 0.33333334
        outWeight: 0.33333334
      m_PreInfinity: 2
      m_PostInfinity: 2
      m_RotationOrder: 4
    attribute: m_LocalScale.y
    path: Chicken_Coop_Man
    classID: 4
    script: {fileID: 0}
  - curve:
      serializedVersion: 2
      m_Curve:
      - serializedVersion: 3
        time: 0.16666667
        value: 1
        inSlope: 0
        outSlope: 0
        tangentMode: 136
        weightedMode: 0
        inWeight: 0.33333334
        outWeight: 0.33333334
      - serializedVersion: 3
        time: 0.4
        value: 0
        inSlope: 0
        outSlope: 0
        tangentMode: 136
        weightedMode: 0
        inWeight: 0.33333334
        outWeight: 0.33333334
      m_PreInfinity: 2
      m_PostInfinity: 2
      m_RotationOrder: 4
    attribute: m_LocalScale.z
    path: Chicken_Coop_Man
    classID: 4
    script: {fileID: 0}
  - curve:
      serializedVersion: 2
      m_Curve:
      - serializedVersion: 3
        time: 0
        value: 0
        inSlope: Infinity
        outSlope: Infinity
        tangentMode: 103
        weightedMode: 0
        inWeight: 0
        outWeight: 0
      m_PreInfinity: 2
      m_PostInfinity: 2
      m_RotationOrder: 4
    attribute: EmissionModule.enabled
    path: DustParticles (1)/DustParticles (3)
    classID: 198
    script: {fileID: 0}
  - curve:
      serializedVersion: 2
      m_Curve:
      - serializedVersion: 3
        time: 0
        value: 0
        inSlope: Infinity
        outSlope: Infinity
        tangentMode: 103
        weightedMode: 0
        inWeight: 0
        outWeight: 0
      m_PreInfinity: 2
      m_PostInfinity: 2
      m_RotationOrder: 4
    attribute: EmissionModule.enabled
    path: DustParticles (1)/DustParticles (2)
    classID: 198
    script: {fileID: 0}
  - curve:
      serializedVersion: 2
      m_Curve:
      - serializedVersion: 3
        time: 0
        value: 0
        inSlope: Infinity
        outSlope: Infinity
        tangentMode: 103
        weightedMode: 0
        inWeight: 0
        outWeight: 0
      m_PreInfinity: 2
      m_PostInfinity: 2
      m_RotationOrder: 4
    attribute: EmissionModule.enabled
    path: DustParticles (1)/DustParticles (2)/DustParticles (1)
    classID: 198
    script: {fileID: 0}
  m_EulerEditorCurves: []
  m_HasGenericRootTransform: 0
  m_HasMotionFloatCurves: 0
  m_Events: []
