%YAML 1.1
%TAG !u! tag:unity3d.com,2011:
--- !u!1045 &1
EditorBuildSettings:
  m_ObjectHideFlags: 0
  serializedVersion: 2
  m_Scenes:
  - enabled: 1
    path: Assets/Scenes/Main.unity
    guid: 1ae0ce434311ded4fb07f4644bae9b93
  - enabled: 1
    path: Assets/3rd party tools/Mobile Console/Assets/LogConsole.unity
    guid: 6d2ee6336ff704f55b20f3b62801afd5
  m_configObjects: {}
