%YAML 1.1
%TAG !u! tag:unity3d.com,2011:
--- !u!114 &11400000
MonoBehaviour:
  m_ObjectHideFlags: 0
  m_CorrespondingSourceObject: {fileID: 0}
  m_PrefabInstance: {fileID: 0}
  m_PrefabAsset: {fileID: 0}
  m_GameObject: {fileID: 0}
  m_Enabled: 1
  m_EditorHideFlags: 0
  m_Script: {fileID: 11500000, guid: 3a956c3f06ac447ca450f907c60643c2, type: 3}
  m_Name: SoundClipsStorage
  m_EditorClassIdentifier: 
  serializationData:
    SerializedFormat: 2
    SerializedBytes: 
    ReferencedUnityObjects: []
    SerializedBytesString: 
    Prefab: {fileID: 0}
    PrefabModificationsReferencedUnityObjects: []
    PrefabModifications: []
    SerializationNodes: []
  _playlists:
  - _name: GameScenePlaylist
    _folder: Assets/Resources/Sound/Music/GamePlaylist
    _trackNamesList:
    - Casual Game Music 01
    - Casual Game Music 06
    - Casual Game Music 09
    - Casual Game Music 13
  _playlistsPath: Assets/Resources/Sound/Music
  _soundsPath: Assets/Resources/Sound/SFX
